WS2812_RGB_LED_256/simulation/qsim/WS2812_RGB_LED_256.msim.vcd
$comment
	File created using the following command:
		vcd file WS2812_RGB_LED_256.msim.vcd -direction
$end
$date
	Tue Aug 08 11:40:28 2023
$end
$version
	ModelSim Version 2020.1
$end
$timescale
	1ps
$end

$scope module ws2812_rgb_led_256_vhd_vec_tst $end
$var wire 1 ! CLK $end
$var wire 1 " DATA $end
$var wire 1 # LED_Display [7] $end
$var wire 1 $ LED_Display [6] $end
$var wire 1 % LED_Display [5] $end
$var wire 1 & LED_Display [4] $end
$var wire 1 ' LED_Display [3] $end
$var wire 1 ( LED_Display [2] $end
$var wire 1 ) LED_Display [1] $end
$var wire 1 * LED_Display [0] $end
$var wire 1 + PB $end
$var wire 1 , RST_N $end

$scope module i1 $end
$var wire 1 - gnd $end
$var wire 1 . vcc $end
$var wire 1 / unknown $end
$var wire 1 0 devoe $end
$var wire 1 1 devclrn $end
$var wire 1 2 devpor $end
$var wire 1 3 ww_devoe $end
$var wire 1 4 ww_devclrn $end
$var wire 1 5 ww_devpor $end
$var wire 1 6 ww_CLK $end
$var wire 1 7 ww_RST_N $end
$var wire 1 8 ww_LED_Display [7] $end
$var wire 1 9 ww_LED_Display [6] $end
$var wire 1 : ww_LED_Display [5] $end
$var wire 1 ; ww_LED_Display [4] $end
$var wire 1 < ww_LED_Display [3] $end
$var wire 1 = ww_LED_Display [2] $end
$var wire 1 > ww_LED_Display [1] $end
$var wire 1 ? ww_LED_Display [0] $end
$var wire 1 @ ww_PB $end
$var wire 1 A ww_DATA $end
$var wire 1 B \LED_Display[2]~input_o\ $end
$var wire 1 C \LED_Display[3]~input_o\ $end
$var wire 1 D \LED_Display[4]~input_o\ $end
$var wire 1 E \LED_Display[5]~input_o\ $end
$var wire 1 F \LED_Display[6]~input_o\ $end
$var wire 1 G \LED_Display[7]~input_o\ $end
$var wire 1 H \DATA~output_o\ $end
$var wire 1 I \CLK~input_o\ $end
$var wire 1 J \PB~input_o\ $end
$var wire 1 K \RST_N~input_o\ $end
$var wire 1 L \led_cnt~0_combout\ $end
$var wire 1 M \led_cnt~1_combout\ $end
$var wire 1 N \led_cnt[1]~2_combout\ $end
$var wire 1 O \Selector35~0_combout\ $end
$var wire 1 P \bit_cnt~8_combout\ $end
$var wire 1 Q \Add2~0_combout\ $end
$var wire 1 R \Add1~1\ $end
$var wire 1 S \Add1~2_combout\ $end
$var wire 1 T \color_index[1]~0_combout\ $end
$var wire 1 U \Selector16~0_combout\ $end
$var wire 1 V \LED_Display[1]~input_o\ $end
$var wire 1 W \Num_LED[1]~0_combout\ $end
$var wire 1 X \Selector35~3_combout\ $end
$var wire 1 Y \Selector30~0_combout\ $end
$var wire 1 Z \state.S0~q\ $end
$var wire 1 [ \num[1]~0_combout\ $end
$var wire 1 \ \num[0]~2_combout\ $end
$var wire 1 ] \num[1]~1_combout\ $end
$var wire 1 ^ \LED_Display[0]~input_o\ $end
$var wire 1 _ \LessThan0~0_combout\ $end
$var wire 1 ` \Selector0~0_combout\ $end
$var wire 1 a \Selector8~0_combout\ $end
$var wire 1 b \Selector23~0_combout\ $end
$var wire 1 c \Selector23~1_combout\ $end
$var wire 1 d \Selector22~0_combout\ $end
$var wire 1 e \Add2~7\ $end
$var wire 1 f \Add2~8_combout\ $end
$var wire 1 g \bit_cnt[4]~3_combout\ $end
$var wire 1 h \bit_cnt[4]~4_combout\ $end
$var wire 1 i \Equal1~0_combout\ $end
$var wire 1 j \bit_cnt~1_combout\ $end
$var wire 1 k \rgb_bits[22]~0_combout\ $end
$var wire 1 l \Selector21~0_combout\ $end
$var wire 1 m \Selector20~0_combout\ $end
$var wire 1 n \Selector19~0_combout\ $end
$var wire 1 o \Selector18~0_combout\ $end
$var wire 1 p \Selector17~0_combout\ $end
$var wire 1 q \Selector16~1_combout\ $end
$var wire 1 r \Selector15~0_combout\ $end
$var wire 1 s \Selector14~0_combout\ $end
$var wire 1 t \Selector13~0_combout\ $end
$var wire 1 u \Selector12~0_combout\ $end
$var wire 1 v \Selector11~0_combout\ $end
$var wire 1 w \Selector10~0_combout\ $end
$var wire 1 x \Selector9~0_combout\ $end
$var wire 1 y \Selector8~1_combout\ $end
$var wire 1 z \Selector7~0_combout\ $end
$var wire 1 { \Selector6~0_combout\ $end
$var wire 1 | \Selector5~0_combout\ $end
$var wire 1 } \Selector4~0_combout\ $end
$var wire 1 ~ \Selector3~0_combout\ $end
$var wire 1 !! \Selector2~0_combout\ $end
$var wire 1 "! \Selector1~0_combout\ $end
$var wire 1 #! \Selector0~1_combout\ $end
$var wire 1 $! \Selector60~0_combout\ $end
$var wire 1 %! \baudrate_counter[0]~0_combout\ $end
$var wire 1 &! \baudrate_counter[0]~1_combout\ $end
$var wire 1 '! \Add1~3\ $end
$var wire 1 (! \Add1~4_combout\ $end
$var wire 1 )! \Selector59~0_combout\ $end
$var wire 1 *! \Add1~5\ $end
$var wire 1 +! \Add1~6_combout\ $end
$var wire 1 ,! \Selector58~0_combout\ $end
$var wire 1 -! \Add1~7\ $end
$var wire 1 .! \Add1~8_combout\ $end
$var wire 1 /! \Selector57~0_combout\ $end
$var wire 1 0! \Add1~9\ $end
$var wire 1 1! \Add1~10_combout\ $end
$var wire 1 2! \Selector56~0_combout\ $end
$var wire 1 3! \Add1~11\ $end
$var wire 1 4! \Add1~12_combout\ $end
$var wire 1 5! \Selector55~0_combout\ $end
$var wire 1 6! \Add1~13\ $end
$var wire 1 7! \Add1~14_combout\ $end
$var wire 1 8! \Selector54~0_combout\ $end
$var wire 1 9! \Add1~15\ $end
$var wire 1 :! \Add1~16_combout\ $end
$var wire 1 ;! \Selector53~0_combout\ $end
$var wire 1 <! \Add1~17\ $end
$var wire 1 =! \Add1~18_combout\ $end
$var wire 1 >! \Selector52~0_combout\ $end
$var wire 1 ?! \Add1~19\ $end
$var wire 1 @! \Add1~20_combout\ $end
$var wire 1 A! \Selector51~0_combout\ $end
$var wire 1 B! \Equal0~5_combout\ $end
$var wire 1 C! \Equal0~6_combout\ $end
$var wire 1 D! \Equal0~7_combout\ $end
$var wire 1 E! \Selector34~0_combout\ $end
$var wire 1 F! \state.S4~q\ $end
$var wire 1 G! \bit_cnt[4]~2_combout\ $end
$var wire 1 H! \bit_cnt[0]~7_combout\ $end
$var wire 1 I! \Add2~1\ $end
$var wire 1 J! \Add2~2_combout\ $end
$var wire 1 K! \bit_cnt[1]~6_combout\ $end
$var wire 1 L! \Add2~3\ $end
$var wire 1 M! \Add2~4_combout\ $end
$var wire 1 N! \bit_cnt[2]~5_combout\ $end
$var wire 1 O! \Add2~5\ $end
$var wire 1 P! \Add2~6_combout\ $end
$var wire 1 Q! \bit_cnt[3]~0_combout\ $end
$var wire 1 R! \Selector25~0_combout\ $end
$var wire 1 S! \Selector31~0_combout\ $end
$var wire 1 T! \state.S1~q\ $end
$var wire 1 U! \Selector32~0_combout\ $end
$var wire 1 V! \state.S2~q\ $end
$var wire 1 W! \Selector33~0_combout\ $end
$var wire 1 X! \state.S3~q\ $end
$var wire 1 Y! \Add1~0_combout\ $end
$var wire 1 Z! \Selector61~0_combout\ $end
$var wire 1 [! \Add1~21\ $end
$var wire 1 \! \Add1~22_combout\ $end
$var wire 1 ]! \Selector50~0_combout\ $end
$var wire 1 ^! \Add1~23\ $end
$var wire 1 _! \Add1~24_combout\ $end
$var wire 1 `! \Selector49~0_combout\ $end
$var wire 1 a! \Add1~25\ $end
$var wire 1 b! \Add1~26_combout\ $end
$var wire 1 c! \Selector48~0_combout\ $end
$var wire 1 d! \Add1~27\ $end
$var wire 1 e! \Add1~28_combout\ $end
$var wire 1 f! \Selector47~0_combout\ $end
$var wire 1 g! \Add1~29\ $end
$var wire 1 h! \Add1~30_combout\ $end
$var wire 1 i! \Selector46~0_combout\ $end
$var wire 1 j! \Add1~31\ $end
$var wire 1 k! \Add1~32_combout\ $end
$var wire 1 l! \Selector45~0_combout\ $end
$var wire 1 m! \Add1~33\ $end
$var wire 1 n! \Add1~34_combout\ $end
$var wire 1 o! \Selector44~0_combout\ $end
$var wire 1 p! \Add1~35\ $end
$var wire 1 q! \Add1~36_combout\ $end
$var wire 1 r! \Selector43~0_combout\ $end
$var wire 1 s! \Add1~37\ $end
$var wire 1 t! \Add1~38_combout\ $end
$var wire 1 u! \Selector42~0_combout\ $end
$var wire 1 v! \Add1~39\ $end
$var wire 1 w! \Add1~40_combout\ $end
$var wire 1 x! \Selector41~0_combout\ $end
$var wire 1 y! \Add1~41\ $end
$var wire 1 z! \Add1~42_combout\ $end
$var wire 1 {! \Selector40~0_combout\ $end
$var wire 1 |! \Add1~43\ $end
$var wire 1 }! \Add1~44_combout\ $end
$var wire 1 ~! \Selector39~0_combout\ $end
$var wire 1 !" \Add1~45\ $end
$var wire 1 "" \Add1~46_combout\ $end
$var wire 1 #" \Selector38~0_combout\ $end
$var wire 1 $" \Add1~47\ $end
$var wire 1 %" \Add1~48_combout\ $end
$var wire 1 &" \Selector37~0_combout\ $end
$var wire 1 '" \Add1~49\ $end
$var wire 1 (" \Add1~50_combout\ $end
$var wire 1 )" \Selector36~0_combout\ $end
$var wire 1 *" \Equal0~0_combout\ $end
$var wire 1 +" \Equal0~1_combout\ $end
$var wire 1 ," \Equal0~2_combout\ $end
$var wire 1 -" \Equal0~3_combout\ $end
$var wire 1 ." \Equal0~4_combout\ $end
$var wire 1 /" \Selector35~1_combout\ $end
$var wire 1 0" \Selector35~2_combout\ $end
$var wire 1 1" \state.S5~q\ $end
$var wire 1 2" \bt~0_combout\ $end
$var wire 1 3" \bt~q\ $end
$var wire 1 4" \Selector29~0_combout\ $end
$var wire 1 5" \Selector29~1_combout\ $end
$var wire 1 6" \Selector29~2_combout\ $end
$var wire 1 7" \Selector29~3_combout\ $end
$var wire 1 8" \Selector29~4_combout\ $end
$var wire 1 9" \DATA~reg0_q\ $end
$var wire 1 :" bit_cnt [4] $end
$var wire 1 ;" bit_cnt [3] $end
$var wire 1 <" bit_cnt [2] $end
$var wire 1 =" bit_cnt [1] $end
$var wire 1 >" bit_cnt [0] $end
$var wire 1 ?" baudrate_counter [25] $end
$var wire 1 @" baudrate_counter [24] $end
$var wire 1 A" baudrate_counter [23] $end
$var wire 1 B" baudrate_counter [22] $end
$var wire 1 C" baudrate_counter [21] $end
$var wire 1 D" baudrate_counter [20] $end
$var wire 1 E" baudrate_counter [19] $end
$var wire 1 F" baudrate_counter [18] $end
$var wire 1 G" baudrate_counter [17] $end
$var wire 1 H" baudrate_counter [16] $end
$var wire 1 I" baudrate_counter [15] $end
$var wire 1 J" baudrate_counter [14] $end
$var wire 1 K" baudrate_counter [13] $end
$var wire 1 L" baudrate_counter [12] $end
$var wire 1 M" baudrate_counter [11] $end
$var wire 1 N" baudrate_counter [10] $end
$var wire 1 O" baudrate_counter [9] $end
$var wire 1 P" baudrate_counter [8] $end
$var wire 1 Q" baudrate_counter [7] $end
$var wire 1 R" baudrate_counter [6] $end
$var wire 1 S" baudrate_counter [5] $end
$var wire 1 T" baudrate_counter [4] $end
$var wire 1 U" baudrate_counter [3] $end
$var wire 1 V" baudrate_counter [2] $end
$var wire 1 W" baudrate_counter [1] $end
$var wire 1 X" baudrate_counter [0] $end
$var wire 1 Y" led_cnt [1] $end
$var wire 1 Z" led_cnt [0] $end
$var wire 1 [" rgb_bits [23] $end
$var wire 1 \" rgb_bits [22] $end
$var wire 1 ]" rgb_bits [21] $end
$var wire 1 ^" rgb_bits [20] $end
$var wire 1 _" rgb_bits [19] $end
$var wire 1 `" rgb_bits [18] $end
$var wire 1 a" rgb_bits [17] $end
$var wire 1 b" rgb_bits [16] $end
$var wire 1 c" rgb_bits [15] $end
$var wire 1 d" rgb_bits [14] $end
$var wire 1 e" rgb_bits [13] $end
$var wire 1 f" rgb_bits [12] $end
$var wire 1 g" rgb_bits [11] $end
$var wire 1 h" rgb_bits [10] $end
$var wire 1 i" rgb_bits [9] $end
$var wire 1 j" rgb_bits [8] $end
$var wire 1 k" rgb_bits [7] $end
$var wire 1 l" rgb_bits [6] $end
$var wire 1 m" rgb_bits [5] $end
$var wire 1 n" rgb_bits [4] $end
$var wire 1 o" rgb_bits [3] $end
$var wire 1 p" rgb_bits [2] $end
$var wire 1 q" rgb_bits [1] $end
$var wire 1 r" rgb_bits [0] $end
$var wire 1 s" color_index [1] $end
$var wire 1 t" color_index [0] $end
$var wire 1 u" Num_LED [1] $end
$var wire 1 v" Num_LED [0] $end
$var wire 1 w" num [1] $end
$var wire 1 x" num [0] $end
$var wire 1 y" \ALT_INV_state.S4~q\ $end
$upscope $end
$upscope $end
$enddefinitions $end
#0
$dumpvars
0!
0"
1+
1,
0-
1.
x/
10
11
12
13
14
15
06
17
1@
0A
0B
0C
0D
0E
0F
0G
0H
0I
1J
1K
0L
0M
0N
0O
0P
0Q
0R
1S
0T
0U
1V
0W
0X
1Y
0Z
1[
1\
0]
1^
0_
1`
0a
0b
0c
0d
0e
1f
0g
0h
0i
1j
1k
0l
0m
0n
0o
0p
0q
0r
0s
0t
0u
0v
0w
0x
0y
0z
0{
0|
0}
0~
0!!
0"!
0#!
1$!
0%!
0&!
1'!
1(!
1)!
0*!
1+!
1,!
1-!
1.!
1/!
00!
11!
12!
13!
14!
15!
06!
17!
18!
19!
1:!
1;!
0<!
1=!
1>!
1?!
1@!
1A!
1B!
1C!
1D!
0E!
0F!
0G!
0H!
1I!
1J!
0K!
0L!
1M!
0N!
1O!
0P!
0Q!
0R!
1S!
0T!
0U!
0V!
0W!
0X!
1Y!
1Z!
0[!
1\!
1]!
1^!
1_!
1`!
0a!
1b!
1c!
1d!
1e!
1f!
0g!
1h!
1i!
1j!
1k!
1l!
0m!
1n!
1o!
1p!
1q!
1r!
0s!
1t!
1u!
1v!
1w!
1x!
0y!
1z!
1{!
1|!
1}!
1~!
0!"
1""
1#"
1$"
1%"
1&"
0'"
1("
1)"
1*"
1+"
1,"
1-"
1."
0/"
00"
01"
02"
03"
04"
05"
06"
07"
08"
09"
1y"
0#
0$
0%
0&
0'
0(
1)
1*
08
09
0:
0;
0<
0=
1>
1?
0:"
0;"
0<"
0="
0>"
0?"
0@"
0A"
0B"
0C"
0D"
0E"
0F"
0G"
0H"
0I"
0J"
0K"
0L"
0M"
0N"
0O"
0P"
0Q"
0R"
0S"
0T"
0U"
0V"
0W"
0X"
0Y"
0Z"
0["
0\"
0]"
0^"
0_"
0`"
0a"
0b"
0c"
0d"
0e"
0f"
0g"
0h"
0i"
0j"
0k"
0l"
0m"
0n"
0o"
0p"
0q"
0r"
0s"
0t"
0u"
0v"
0w"
0x"
$end
#5000
1!
16
1I
1Z
1x"
1T!
0)!
0,!
0/!
02!
05!
08!
0;!
0>!
0A!
1U!
0Z!
0]!
0`!
0c!
0f!
0i!
0l!
0o!
0r!
0u!
0x!
0{!
0~!
0#"
0&"
0)"
18"
1]
0[
1g
0k
1%!
0S!
1&!
0]
#10000
0!
06
0I
#15000
1!
16
1I
1W"
0T!
1V!
19"
1H
14"
1W!
1)!
1,!
1/!
12!
15!
18!
1;!
1>!
1A!
0U!
1Z!
1]!
1`!
1c!
1f!
1i!
1l!
1o!
1r!
1u!
1x!
1{!
1~!
1#"
1&"
1)"
08"
0S
0'!
0D!
1A
0j
1U!
0W!
0(!
1*!
0$!
0&!
15"
1"
18"
0+!
0-!
0)!
1&!
0.!
10!
0,!
01!
03!
0/!
04!
16!
02!
07!
09!
05!
0:!
1<!
08!
0=!
0?!
0;!
0@!
1[!
0>!
0\!
0^!
0A!
0_!
1a!
0]!
0b!
0d!
0`!
0e!
1g!
0c!
0h!
0j!
0f!
0k!
1m!
0i!
0n!
0p!
0l!
0q!
1s!
0o!
0t!
0v!
0r!
0w!
1y!
0u!
0z!
0|!
0x!
0}!
1!"
0{!
0""
0$"
0~!
0%"
1'"
0#"
0("
0&"
0)"
#20000
0!
06
0I
#25000
1!
16
1I
0W"
1X"
0Y!
1R
0*"
1S
1'!
1D!
1j
0U!
1W!
05"
1(!
0*!
1$!
0."
0S
0'!
0Z!
0(!
1*!
0$!
0j
1U!
0W!
15"
1+!
1-!
1)!
08"
0&!
1.!
00!
1,!
18"
1&!
0+!
0-!
0)!
0.!
10!
0,!
11!
13!
1/!
14!
06!
12!
01!
03!
0/!
04!
16!
02!
17!
19!
15!
1:!
0<!
18!
07!
09!
05!
0:!
1<!
08!
1=!
1?!
1;!
1@!
0[!
1>!
0=!
0?!
0;!
0@!
1[!
0>!
1\!
1^!
1A!
1_!
0a!
1]!
0\!
0^!
0A!
0_!
1a!
0]!
1b!
1d!
1`!
1e!
0g!
1c!
0b!
0d!
0`!
0e!
1g!
0c!
1h!
1j!
1f!
1k!
0m!
1i!
0h!
0j!
0f!
0k!
1m!
0i!
1n!
1p!
1l!
1q!
0s!
1o!
0n!
0p!
0l!
0q!
1s!
0o!
1t!
1v!
1r!
1w!
0y!
1u!
0t!
0v!
0r!
0w!
1y!
0u!
1z!
1|!
1x!
1}!
0!"
1{!
0z!
0|!
0x!
0}!
1!"
0{!
1""
1$"
1~!
1%"
0'"
1#"
0""
0$"
0~!
0%"
1'"
0#"
1("
1&"
1)"
0("
0&"
0)"
#30000
0!
06
0I
#35000
1!
16
1I
0X"
1Y!
0R
1*"
1."
1S
1'!
1Z!
1(!
0*!
1$!
1j
0U!
1W!
05"
08"
0&!
1+!
1-!
1)!
1.!
00!
1,!
11!
13!
1/!
14!
06!
12!
17!
19!
15!
1:!
0<!
18!
1=!
1?!
1;!
1@!
0[!
1>!
1\!
1^!
1A!
1_!
0a!
1]!
1b!
1d!
1`!
1e!
0g!
1c!
1h!
1j!
1f!
1k!
0m!
1i!
1n!
1p!
1l!
1q!
0s!
1o!
1t!
1v!
1r!
1w!
0y!
1u!
1z!
1|!
1x!
1}!
0!"
1{!
1""
1$"
1~!
1%"
0'"
1#"
1("
1&"
1)"
#40000
0!
06
0I
#45000
1!
16
1I
0V!
1X!
09"
0H
04"
0$!
0)!
0,!
0/!
02!
05!
08!
0;!
0>!
0A!
1E!
0]!
0`!
0c!
0f!
0i!
0l!
0o!
0r!
0u!
0x!
0{!
0~!
0#"
0&"
0)"
17"
0W!
0A
1&!
18"
07"
0"
08"
#50000
0!
06
0I
#55000
1!
16
1I
1F!
0X!
1X"
0y"
0Y!
1R
0*"
1$!
1)!
1,!
1/!
12!
15!
18!
1;!
1>!
1A!
1]!
1`!
1c!
1f!
1i!
1l!
1o!
1r!
1u!
1x!
1{!
1~!
1#"
1&"
1)"
0`
0g
1k
0E!
1G!
1/"
0&!
1S!
1H!
1z
0."
0S
0'!
0Z!
0(!
1*!
0$!
0j
1E!
0/"
1&!
0S!
1g
0k
0G!
0+!
0-!
0)!
0.!
10!
0,!
0H!
01!
03!
0/!
04!
16!
02!
07!
09!
05!
0:!
1<!
08!
0=!
0?!
0;!
0@!
1[!
0>!
0\!
0^!
0A!
0_!
1a!
0]!
0b!
0d!
0`!
0e!
1g!
0c!
0h!
0j!
0f!
0k!
1m!
0i!
0n!
0p!
0l!
0q!
1s!
0o!
0t!
0v!
0r!
0w!
1y!
0u!
0z!
0|!
0x!
0}!
1!"
0{!
0""
0$"
0~!
0%"
1'"
0#"
0("
0&"
0)"
#60000
0!
06
0I
#65000
1!
16
1I
0X"
1Y!
0R
1*"
1."
1S
1'!
1Z!
1(!
0*!
1$!
1j
0E!
1/"
0&!
1S!
0g
1k
1G!
1+!
1-!
1)!
1.!
00!
1,!
1H!
11!
13!
1/!
14!
06!
12!
17!
19!
15!
1:!
0<!
18!
1=!
1?!
1;!
1@!
0[!
1>!
1\!
1^!
1A!
1_!
0a!
1]!
1b!
1d!
1`!
1e!
0g!
1c!
1h!
1j!
1f!
1k!
0m!
1i!
1n!
1p!
1l!
1q!
0s!
1o!
1t!
1v!
1r!
1w!
0y!
1u!
1z!
1|!
1x!
1}!
0!"
1{!
1""
1$"
1~!
1%"
0'"
1#"
1("
1&"
1)"
#70000
0!
06
0I
#75000
1!
16
1I
1b"
0F!
1>"
1T!
1y"
0)!
0,!
0/!
02!
05!
08!
0;!
0>!
0A!
1U!
0Z!
0]!
0`!
0c!
0f!
0i!
0l!
0o!
0r!
0u!
0x!
0{!
0~!
0#"
0&"
0)"
18"
1Q
0I!
1`
1g
0k
1|
1}
1~
1!!
1"!
1#!
0G!
0/"
1{
1&!
0S!
0z
0{
0|
0}
0~
0!!
0"!
0#!
0J!
#80000
0!
06
0I
#85000
1!
16
1I
1W"
0T!
1V!
19"
1H
14"
1W!
1)!
1,!
1/!
12!
15!
18!
1;!
1>!
1A!
0U!
1Z!
1]!
1`!
1c!
1f!
1i!
1l!
1o!
1r!
1u!
1x!
1{!
1~!
1#"
1&"
1)"
08"
0S
0'!
0D!
1A
0j
1U!
0W!
0(!
1*!
0$!
0&!
15"
1"
18"
0+!
0-!
0)!
1&!
0.!
10!
0,!
01!
03!
0/!
04!
16!
02!
07!
09!
05!
0:!
1<!
08!
0=!
0?!
0;!
0@!
1[!
0>!
0\!
0^!
0A!
0_!
1a!
0]!
0b!
0d!
0`!
0e!
1g!
0c!
0h!
0j!
0f!
0k!
1m!
0i!
0n!
0p!
0l!
0q!
1s!
0o!
0t!
0v!
0r!
0w!
1y!
0u!
0z!
0|!
0x!
0}!
1!"
0{!
0""
0$"
0~!
0%"
1'"
0#"
0("
0&"
0)"
#90000
0!
06
0I
#95000
1!
16
1I
0W"
1X"
0Y!
1R
0*"
1S
1'!
1D!
1j
0U!
1W!
05"
1(!
0*!
1$!
0."
0S
0'!
0Z!
0(!
1*!
0$!
0j
1U!
0W!
15"
1+!
1-!
1)!
08"
0&!
1.!
00!
1,!
18"
1&!
0+!
0-!
0)!
0.!
10!
0,!
11!
13!
1/!
14!
06!
12!
01!
03!
0/!
04!
16!
02!
17!
19!
15!
1:!
0<!
18!
07!
09!
05!
0:!
1<!
08!
1=!
1?!
1;!
1@!
0[!
1>!
0=!
0?!
0;!
0@!
1[!
0>!
1\!
1^!
1A!
1_!
0a!
1]!
0\!
0^!
0A!
0_!
1a!
0]!
1b!
1d!
1`!
1e!
0g!
1c!
0b!
0d!
0`!
0e!
1g!
0c!
1h!
1j!
1f!
1k!
0m!
1i!
0h!
0j!
0f!
0k!
1m!
0i!
1n!
1p!
1l!
1q!
0s!
1o!
0n!
0p!
0l!
0q!
1s!
0o!
1t!
1v!
1r!
1w!
0y!
1u!
0t!
0v!
0r!
0w!
1y!
0u!
1z!
1|!
1x!
1}!
0!"
1{!
0z!
0|!
0x!
0}!
1!"
0{!
1""
1$"
1~!
1%"
0'"
1#"
0""
0$"
0~!
0%"
1'"
0#"
1("
1&"
1)"
0("
0&"
0)"
#100000
0!
06
0I
#105000
1!
16
1I
0X"
1Y!
0R
1*"
1."
1S
1'!
1Z!
1(!
0*!
1$!
1j
0U!
1W!
05"
08"
0&!
1+!
1-!
1)!
1.!
00!
1,!
11!
13!
1/!
14!
06!
12!
17!
19!
15!
1:!
0<!
18!
1=!
1?!
1;!
1@!
0[!
1>!
1\!
1^!
1A!
1_!
0a!
1]!
1b!
1d!
1`!
1e!
0g!
1c!
1h!
1j!
1f!
1k!
0m!
1i!
1n!
1p!
1l!
1q!
0s!
1o!
1t!
1v!
1r!
1w!
0y!
1u!
1z!
1|!
1x!
1}!
0!"
1{!
1""
1$"
1~!
1%"
0'"
1#"
1("
1&"
1)"
#110000
0!
06
0I
#115000
1!
16
1I
0V!
1X!
09"
0H
04"
0$!
0)!
0,!
0/!
02!
05!
08!
0;!
0>!
0A!
1E!
0]!
0`!
0c!
0f!
0i!
0l!
0o!
0r!
0u!
0x!
0{!
0~!
0#"
0&"
0)"
17"
0W!
0A
1&!
18"
07"
0"
08"
#120000
0!
06
0I
#125000
1!
16
1I
1F!
0X!
1X"
0y"
0Y!
1R
0*"
1$!
1)!
1,!
1/!
12!
15!
18!
1;!
1>!
1A!
1]!
1`!
1c!
1f!
1i!
1l!
1o!
1r!
1u!
1x!
1{!
1~!
1#"
1&"
1)"
0`
0g
1k
0E!
1G!
1/"
0&!
1S!
0H!
1K!
1z
1{
0."
0S
0'!
0Z!
0(!
1*!
0$!
0j
1E!
0/"
1&!
0S!
1g
0k
0G!
0+!
0-!
0)!
0.!
10!
0,!
1H!
0K!
01!
03!
0/!
04!
16!
02!
07!
09!
05!
0:!
1<!
08!
0=!
0?!
0;!
0@!
1[!
0>!
0\!
0^!
0A!
0_!
1a!
0]!
0b!
0d!
0`!
0e!
1g!
0c!
0h!
0j!
0f!
0k!
1m!
0i!
0n!
0p!
0l!
0q!
1s!
0o!
0t!
0v!
0r!
0w!
1y!
0u!
0z!
0|!
0x!
0}!
1!"
0{!
0""
0$"
0~!
0%"
1'"
0#"
0("
0&"
0)"
#130000
0!
06
0I
#135000
1!
16
1I
0X"
1Y!
0R
1*"
1."
1S
1'!
1Z!
1(!
0*!
1$!
1j
0E!
1/"
0&!
1S!
0g
1k
1G!
1+!
1-!
1)!
1.!
00!
1,!
0H!
1K!
11!
13!
1/!
14!
06!
12!
17!
19!
15!
1:!
0<!
18!
1=!
1?!
1;!
1@!
0[!
1>!
1\!
1^!
1A!
1_!
0a!
1]!
1b!
1d!
1`!
1e!
0g!
1c!
1h!
1j!
1f!
1k!
0m!
1i!
1n!
1p!
1l!
1q!
0s!
1o!
1t!
1v!
1r!
1w!
0y!
1u!
1z!
1|!
1x!
1}!
0!"
1{!
1""
1$"
1~!
1%"
0'"
1#"
1("
1&"
1)"
#140000
0!
06
0I
#145000
1!
16
1I
1a"
0F!
0>"
1="
1T!
1y"
0)!
0,!
0/!
02!
05!
08!
0;!
0>!
0A!
1U!
0Z!
0]!
0`!
0c!
0f!
0i!
0l!
0o!
0r!
0u!
0x!
0{!
0~!
0#"
0&"
0)"
18"
1J!
1L!
0Q
1I!
1`
1g
0k
1}
1~
1!!
1"!
1#!
0G!
0/"
1|
1&!
0S!
0z
0{
0|
0}
0~
0!!
0"!
0#!
0J!
0L!
0M!
1M!
#150000
0!
06
0I
#155000
1!
16
1I
1W"
0T!
1V!
19"
1H
14"
1W!
1)!
1,!
1/!
12!
15!
18!
1;!
1>!
1A!
0U!
1Z!
1]!
1`!
1c!
1f!
1i!
1l!
1o!
1r!
1u!
1x!
1{!
1~!
1#"
1&"
1)"
08"
0S
0'!
0D!
1A
0j
1U!
0W!
0(!
1*!
0$!
0&!
15"
1"
18"
0+!
0-!
0)!
1&!
0.!
10!
0,!
01!
03!
0/!
04!
16!
02!
07!
09!
05!
0:!
1<!
08!
0=!
0?!
0;!
0@!
1[!
0>!
0\!
0^!
0A!
0_!
1a!
0]!
0b!
0d!
0`!
0e!
1g!
0c!
0h!
0j!
0f!
0k!
1m!
0i!
0n!
0p!
0l!
0q!
1s!
0o!
0t!
0v!
0r!
0w!
1y!
0u!
0z!
0|!
0x!
0}!
1!"
0{!
0""
0$"
0~!
0%"
1'"
0#"
0("
0&"
0)"
#160000
0!
06
0I
#165000
1!
16
1I
0W"
1X"
0Y!
1R
0*"
1S
1'!
1D!
1j
0U!
1W!
05"
1(!
0*!
1$!
0."
0S
0'!
0Z!
0(!
1*!
0$!
0j
1U!
0W!
15"
1+!
1-!
1)!
08"
0&!
1.!
00!
1,!
18"
1&!
0+!
0-!
0)!
0.!
10!
0,!
11!
13!
1/!
14!
06!
12!
01!
03!
0/!
04!
16!
02!
17!
19!
15!
1:!
0<!
18!
07!
09!
05!
0:!
1<!
08!
1=!
1?!
1;!
1@!
0[!
1>!
0=!
0?!
0;!
0@!
1[!
0>!
1\!
1^!
1A!
1_!
0a!
1]!
0\!
0^!
0A!
0_!
1a!
0]!
1b!
1d!
1`!
1e!
0g!
1c!
0b!
0d!
0`!
0e!
1g!
0c!
1h!
1j!
1f!
1k!
0m!
1i!
0h!
0j!
0f!
0k!
1m!
0i!
1n!
1p!
1l!
1q!
0s!
1o!
0n!
0p!
0l!
0q!
1s!
0o!
1t!
1v!
1r!
1w!
0y!
1u!
0t!
0v!
0r!
0w!
1y!
0u!
1z!
1|!
1x!
1}!
0!"
1{!
0z!
0|!
0x!
0}!
1!"
0{!
1""
1$"
1~!
1%"
0'"
1#"
0""
0$"
0~!
0%"
1'"
0#"
1("
1&"
1)"
0("
0&"
0)"
#170000
0!
06
0I
#175000
1!
16
1I
0X"
1Y!
0R
1*"
1."
1S
1'!
1Z!
1(!
0*!
1$!
1j
0U!
1W!
05"
08"
0&!
1+!
1-!
1)!
1.!
00!
1,!
11!
13!
1/!
14!
06!
12!
17!
19!
15!
1:!
0<!
18!
1=!
1?!
1;!
1@!
0[!
1>!
1\!
1^!
1A!
1_!
0a!
1]!
1b!
1d!
1`!
1e!
0g!
1c!
1h!
1j!
1f!
1k!
0m!
1i!
1n!
1p!
1l!
1q!
0s!
1o!
1t!
1v!
1r!
1w!
0y!
1u!
1z!
1|!
1x!
1}!
0!"
1{!
1""
1$"
1~!
1%"
0'"
1#"
1("
1&"
1)"
#180000
0!
06
0I
#185000
1!
16
1I
0V!
1X!
09"
0H
04"
0$!
0)!
0,!
0/!
02!
05!
08!
0;!
0>!
0A!
1E!
0]!
0`!
0c!
0f!
0i!
0l!
0o!
0r!
0u!
0x!
0{!
0~!
0#"
0&"
0)"
17"
0W!
0A
1&!
18"
07"
0"
08"
#190000
0!
06
0I
