graph/simulation/qsim/graph.msim.vcd
$comment
	File created using the following command:
		vcd file graph.msim.vcd -direction
$end
$date
	Fri Sep 08 16:05:53 2023
$end
$version
	ModelSim Version 2020.1
$end
$timescale
	1ps
$end

$scope module graph_vhd_vec_tst $end
$var wire 1 ! clk_in $end
$var wire 1 " PB $end
$var wire 1 # x $end
$var wire 1 $ y $end
$var wire 1 % z $end

$scope module i1 $end
$var wire 1 & gnd $end
$var wire 1 ' vcc $end
$var wire 1 ( unknown $end
$var wire 1 ) devoe $end
$var wire 1 * devclrn $end
$var wire 1 + devpor $end
$var wire 1 , ww_devoe $end
$var wire 1 - ww_devclrn $end
$var wire 1 . ww_devpor $end
$var wire 1 / ww_clk_in $end
$var wire 1 0 ww_PB $end
$var wire 1 1 ww_x $end
$var wire 1 2 ww_y $end
$var wire 1 3 ww_z $end
$var wire 1 4 \~QUARTUS_CREATED_ADC1~_CHSEL_bus\ [4] $end
$var wire 1 5 \~QUARTUS_CREATED_ADC1~_CHSEL_bus\ [3] $end
$var wire 1 6 \~QUARTUS_CREATED_ADC1~_CHSEL_bus\ [2] $end
$var wire 1 7 \~QUARTUS_CREATED_ADC1~_CHSEL_bus\ [1] $end
$var wire 1 8 \~QUARTUS_CREATED_ADC1~_CHSEL_bus\ [0] $end
$var wire 1 9 \~QUARTUS_CREATED_ADC2~_CHSEL_bus\ [4] $end
$var wire 1 : \~QUARTUS_CREATED_ADC2~_CHSEL_bus\ [3] $end
$var wire 1 ; \~QUARTUS_CREATED_ADC2~_CHSEL_bus\ [2] $end
$var wire 1 < \~QUARTUS_CREATED_ADC2~_CHSEL_bus\ [1] $end
$var wire 1 = \~QUARTUS_CREATED_ADC2~_CHSEL_bus\ [0] $end
$var wire 1 > \clk_in~inputclkctrl_INCLK_bus\ [3] $end
$var wire 1 ? \clk_in~inputclkctrl_INCLK_bus\ [2] $end
$var wire 1 @ \clk_in~inputclkctrl_INCLK_bus\ [1] $end
$var wire 1 A \clk_in~inputclkctrl_INCLK_bus\ [0] $end
$var wire 1 B \~QUARTUS_CREATED_GND~I_combout\ $end
$var wire 1 C \~QUARTUS_CREATED_UNVM~~busy\ $end
$var wire 1 D \~QUARTUS_CREATED_ADC1~~eoc\ $end
$var wire 1 E \~QUARTUS_CREATED_ADC2~~eoc\ $end
$var wire 1 F \x~output_o\ $end
$var wire 1 G \y~output_o\ $end
$var wire 1 H \z~output_o\ $end
$var wire 1 I \clk_in~input_o\ $end
$var wire 1 J \clk_in~inputclkctrl_outclk\ $end
$var wire 1 K \Selector30~0_combout\ $end
$var wire 1 L \PB~input_o\ $end
$var wire 1 M \state.S3~q\ $end
$var wire 1 N \tx[2]~2_combout\ $end
$var wire 1 O \state.S0~q\ $end
$var wire 1 P \Add0~0_combout\ $end
$var wire 1 Q \Selector25~0_combout\ $end
$var wire 1 R \Selector28~0_combout\ $end
$var wire 1 S \state.S1~q\ $end
$var wire 1 T \tx[2]~1_combout\ $end
$var wire 1 U \Add0~1\ $end
$var wire 1 V \Add0~2_combout\ $end
$var wire 1 W \Selector24~0_combout\ $end
$var wire 1 X \tx[25]~0_combout\ $end
$var wire 1 Y \Add0~3\ $end
$var wire 1 Z \Add0~4_combout\ $end
$var wire 1 [ \Selector23~0_combout\ $end
$var wire 1 \ \Add0~5\ $end
$var wire 1 ] \Add0~6_combout\ $end
$var wire 1 ^ \Selector22~0_combout\ $end
$var wire 1 _ \Add0~7\ $end
$var wire 1 ` \Add0~8_combout\ $end
$var wire 1 a \Selector21~0_combout\ $end
$var wire 1 b \Add0~9\ $end
$var wire 1 c \Add0~10_combout\ $end
$var wire 1 d \Selector20~0_combout\ $end
$var wire 1 e \Add0~11\ $end
$var wire 1 f \Add0~12_combout\ $end
$var wire 1 g \Selector19~0_combout\ $end
$var wire 1 h \Add0~13\ $end
$var wire 1 i \Add0~14_combout\ $end
$var wire 1 j \Selector18~0_combout\ $end
$var wire 1 k \Add0~15\ $end
$var wire 1 l \Add0~16_combout\ $end
$var wire 1 m \Selector17~0_combout\ $end
$var wire 1 n \Add0~17\ $end
$var wire 1 o \Add0~18_combout\ $end
$var wire 1 p \Selector16~0_combout\ $end
$var wire 1 q \Equal0~5_combout\ $end
$var wire 1 r \Equal0~7_combout\ $end
$var wire 1 s \Equal0~6_combout\ $end
$var wire 1 t \Add0~19\ $end
$var wire 1 u \Add0~20_combout\ $end
$var wire 1 v \Selector15~0_combout\ $end
$var wire 1 w \Add0~21\ $end
$var wire 1 x \Add0~22_combout\ $end
$var wire 1 y \Selector14~0_combout\ $end
$var wire 1 z \Add0~23\ $end
$var wire 1 { \Add0~24_combout\ $end
$var wire 1 | \Selector13~0_combout\ $end
$var wire 1 } \Add0~25\ $end
$var wire 1 ~ \Add0~26_combout\ $end
$var wire 1 !! \Selector12~0_combout\ $end
$var wire 1 "! \Add0~27\ $end
$var wire 1 #! \Add0~28_combout\ $end
$var wire 1 $! \Selector11~0_combout\ $end
$var wire 1 %! \Add0~29\ $end
$var wire 1 &! \Add0~30_combout\ $end
$var wire 1 '! \Selector10~0_combout\ $end
$var wire 1 (! \Add0~31\ $end
$var wire 1 )! \Add0~32_combout\ $end
$var wire 1 *! \Selector9~0_combout\ $end
$var wire 1 +! \Add0~33\ $end
$var wire 1 ,! \Add0~34_combout\ $end
$var wire 1 -! \Selector8~0_combout\ $end
$var wire 1 .! \Add0~35\ $end
$var wire 1 /! \Add0~36_combout\ $end
$var wire 1 0! \Selector7~0_combout\ $end
$var wire 1 1! \Add0~37\ $end
$var wire 1 2! \Add0~38_combout\ $end
$var wire 1 3! \Selector6~0_combout\ $end
$var wire 1 4! \Add0~39\ $end
$var wire 1 5! \Add0~40_combout\ $end
$var wire 1 6! \Selector5~0_combout\ $end
$var wire 1 7! \Add0~41\ $end
$var wire 1 8! \Add0~42_combout\ $end
$var wire 1 9! \Selector4~0_combout\ $end
$var wire 1 :! \Equal0~1_combout\ $end
$var wire 1 ;! \Equal0~2_combout\ $end
$var wire 1 <! \Add0~43\ $end
$var wire 1 =! \Add0~44_combout\ $end
$var wire 1 >! \Selector3~0_combout\ $end
$var wire 1 ?! \Add0~45\ $end
$var wire 1 @! \Add0~46_combout\ $end
$var wire 1 A! \Selector2~0_combout\ $end
$var wire 1 B! \Add0~47\ $end
$var wire 1 C! \Add0~48_combout\ $end
$var wire 1 D! \Selector1~0_combout\ $end
$var wire 1 E! \Add0~49\ $end
$var wire 1 F! \Add0~50_combout\ $end
$var wire 1 G! \Selector0~0_combout\ $end
$var wire 1 H! \Equal0~0_combout\ $end
$var wire 1 I! \Equal0~3_combout\ $end
$var wire 1 J! \Equal0~4_combout\ $end
$var wire 1 K! \Equal0~8_combout\ $end
$var wire 1 L! \Selector29~0_combout\ $end
$var wire 1 M! \state.S2~q\ $end
$var wire 1 N! \Add1~0_combout\ $end
$var wire 1 O! \ty[0]~23_combout\ $end
$var wire 1 P! \Add1~1\ $end
$var wire 1 Q! \Add1~2_combout\ $end
$var wire 1 R! \Selector56~0_combout\ $end
$var wire 1 S! \Selector57~0_combout\ $end
$var wire 1 T! \Add1~3\ $end
$var wire 1 U! \Add1~4_combout\ $end
$var wire 1 V! \Selector56~1_combout\ $end
$var wire 1 W! \Add1~5\ $end
$var wire 1 X! \Add1~6_combout\ $end
$var wire 1 Y! \ty[3]~22_combout\ $end
$var wire 1 Z! \Add1~7\ $end
$var wire 1 [! \Add1~8_combout\ $end
$var wire 1 \! \ty[4]~21_combout\ $end
$var wire 1 ]! \Add1~9\ $end
$var wire 1 ^! \Add1~10_combout\ $end
$var wire 1 _! \ty[5]~20_combout\ $end
$var wire 1 `! \Equal1~6_combout\ $end
$var wire 1 a! \Equal1~7_combout\ $end
$var wire 1 b! \Add1~11\ $end
$var wire 1 c! \Add1~12_combout\ $end
$var wire 1 d! \ty[6]~19_combout\ $end
$var wire 1 e! \Add1~13\ $end
$var wire 1 f! \Add1~14_combout\ $end
$var wire 1 g! \ty[7]~18_combout\ $end
$var wire 1 h! \Add1~15\ $end
$var wire 1 i! \Add1~16_combout\ $end
$var wire 1 j! \ty[8]~17_combout\ $end
$var wire 1 k! \Add1~17\ $end
$var wire 1 l! \Add1~18_combout\ $end
$var wire 1 m! \ty[9]~16_combout\ $end
$var wire 1 n! \Add1~19\ $end
$var wire 1 o! \Add1~20_combout\ $end
$var wire 1 p! \ty[10]~15_combout\ $end
$var wire 1 q! \Add1~21\ $end
$var wire 1 r! \Add1~22_combout\ $end
$var wire 1 s! \ty[11]~14_combout\ $end
$var wire 1 t! \Add1~23\ $end
$var wire 1 u! \Add1~24_combout\ $end
$var wire 1 v! \ty[12]~13_combout\ $end
$var wire 1 w! \Add1~25\ $end
$var wire 1 x! \Add1~26_combout\ $end
$var wire 1 y! \ty[13]~12_combout\ $end
$var wire 1 z! \Add1~27\ $end
$var wire 1 {! \Add1~28_combout\ $end
$var wire 1 |! \ty[14]~11_combout\ $end
$var wire 1 }! \Add1~29\ $end
$var wire 1 ~! \Add1~30_combout\ $end
$var wire 1 !" \ty[15]~10_combout\ $end
$var wire 1 "" \Add1~31\ $end
$var wire 1 #" \Add1~32_combout\ $end
$var wire 1 $" \ty[16]~9_combout\ $end
$var wire 1 %" \Add1~33\ $end
$var wire 1 &" \Add1~34_combout\ $end
$var wire 1 '" \ty[17]~8_combout\ $end
$var wire 1 (" \Add1~35\ $end
$var wire 1 )" \Add1~36_combout\ $end
$var wire 1 *" \ty[18]~7_combout\ $end
$var wire 1 +" \Add1~37\ $end
$var wire 1 ," \Add1~38_combout\ $end
$var wire 1 -" \ty[19]~6_combout\ $end
$var wire 1 ." \Add1~39\ $end
$var wire 1 /" \Add1~40_combout\ $end
$var wire 1 0" \ty[20]~5_combout\ $end
$var wire 1 1" \Add1~41\ $end
$var wire 1 2" \Add1~42_combout\ $end
$var wire 1 3" \ty[21]~4_combout\ $end
$var wire 1 4" \Equal1~1_combout\ $end
$var wire 1 5" \Add1~43\ $end
$var wire 1 6" \Add1~44_combout\ $end
$var wire 1 7" \ty[22]~3_combout\ $end
$var wire 1 8" \Add1~45\ $end
$var wire 1 9" \Add1~46_combout\ $end
$var wire 1 :" \ty[23]~2_combout\ $end
$var wire 1 ;" \Add1~47\ $end
$var wire 1 <" \Add1~48_combout\ $end
$var wire 1 =" \ty[24]~1_combout\ $end
$var wire 1 >" \Add1~49\ $end
$var wire 1 ?" \Add1~50_combout\ $end
$var wire 1 @" \ty[25]~0_combout\ $end
$var wire 1 A" \Equal1~0_combout\ $end
$var wire 1 B" \Equal1~3_combout\ $end
$var wire 1 C" \Equal1~2_combout\ $end
$var wire 1 D" \Equal1~4_combout\ $end
$var wire 1 E" \Equal1~5_combout\ $end
$var wire 1 F" \Equal1~8_combout\ $end
$var wire 1 G" \Selector63~0_combout\ $end
$var wire 1 H" \state2.y4~q\ $end
$var wire 1 I" \Selector60~0_combout\ $end
$var wire 1 J" \state2.y1~q\ $end
$var wire 1 K" \Selector61~0_combout\ $end
$var wire 1 L" \state2.y2~q\ $end
$var wire 1 M" \Selector62~0_combout\ $end
$var wire 1 N" \state2.y3~q\ $end
$var wire 1 O" \x~0_combout\ $end
$var wire 1 P" \x~1_combout\ $end
$var wire 1 Q" \x~reg0_q\ $end
$var wire 1 R" \Selector59~0_combout\ $end
$var wire 1 S" \Selector59~1_combout\ $end
$var wire 1 T" \y~reg0_q\ $end
$var wire 1 U" \Add2~0_combout\ $end
$var wire 1 V" \Add2~2_combout\ $end
$var wire 1 W" \tz[0]~0_combout\ $end
$var wire 1 X" \Add2~1\ $end
$var wire 1 Y" \Add2~3_combout\ $end
$var wire 1 Z" \Add2~77_combout\ $end
$var wire 1 [" \tz[2]~1_combout\ $end
$var wire 1 \" \Add2~4\ $end
$var wire 1 ]" \Add2~5_combout\ $end
$var wire 1 ^" \Add2~76_combout\ $end
$var wire 1 _" \Add2~6\ $end
$var wire 1 `" \Add2~7_combout\ $end
$var wire 1 a" \Add2~75_combout\ $end
$var wire 1 b" \Add2~8\ $end
$var wire 1 c" \Add2~9_combout\ $end
$var wire 1 d" \Add2~74_combout\ $end
$var wire 1 e" \Add2~10\ $end
$var wire 1 f" \Add2~11_combout\ $end
$var wire 1 g" \Add2~73_combout\ $end
$var wire 1 h" \Add2~12\ $end
$var wire 1 i" \Add2~13_combout\ $end
$var wire 1 j" \Add2~72_combout\ $end
$var wire 1 k" \Equal2~6_combout\ $end
$var wire 1 l" \Equal2~7_combout\ $end
$var wire 1 m" \Add2~14\ $end
$var wire 1 n" \Add2~15_combout\ $end
$var wire 1 o" \Add2~71_combout\ $end
$var wire 1 p" \Add2~16\ $end
$var wire 1 q" \Add2~17_combout\ $end
$var wire 1 r" \Add2~70_combout\ $end
$var wire 1 s" \Add2~18\ $end
$var wire 1 t" \Add2~19_combout\ $end
$var wire 1 u" \Add2~69_combout\ $end
$var wire 1 v" \Add2~20\ $end
$var wire 1 w" \Add2~21_combout\ $end
$var wire 1 x" \Add2~68_combout\ $end
$var wire 1 y" \Equal2~5_combout\ $end
$var wire 1 z" \Add2~22\ $end
$var wire 1 {" \Add2~23_combout\ $end
$var wire 1 |" \Add2~67_combout\ $end
$var wire 1 }" \Add2~24\ $end
$var wire 1 ~" \Add2~25_combout\ $end
$var wire 1 !# \Add2~66_combout\ $end
$var wire 1 "# \Add2~26\ $end
$var wire 1 ## \Add2~27_combout\ $end
$var wire 1 $# \Add2~65_combout\ $end
$var wire 1 %# \Add2~28\ $end
$var wire 1 &# \Add2~29_combout\ $end
$var wire 1 '# \Add2~64_combout\ $end
$var wire 1 (# \Add2~30\ $end
$var wire 1 )# \Add2~31_combout\ $end
$var wire 1 *# \Add2~63_combout\ $end
$var wire 1 +# \Add2~32\ $end
$var wire 1 ,# \Add2~33_combout\ $end
$var wire 1 -# \Add2~62_combout\ $end
$var wire 1 .# \Add2~34\ $end
$var wire 1 /# \Add2~35_combout\ $end
$var wire 1 0# \Add2~61_combout\ $end
$var wire 1 1# \Add2~36\ $end
$var wire 1 2# \Add2~37_combout\ $end
$var wire 1 3# \Add2~60_combout\ $end
$var wire 1 4# \Add2~38\ $end
$var wire 1 5# \Add2~39_combout\ $end
$var wire 1 6# \Add2~59_combout\ $end
$var wire 1 7# \Add2~40\ $end
$var wire 1 8# \Add2~41_combout\ $end
$var wire 1 9# \Add2~58_combout\ $end
$var wire 1 :# \Add2~42\ $end
$var wire 1 ;# \Add2~43_combout\ $end
$var wire 1 <# \Add2~57_combout\ $end
$var wire 1 =# \Add2~44\ $end
$var wire 1 ># \Add2~45_combout\ $end
$var wire 1 ?# \Add2~56_combout\ $end
$var wire 1 @# \Add2~46\ $end
$var wire 1 A# \Add2~47_combout\ $end
$var wire 1 B# \Add2~55_combout\ $end
$var wire 1 C# \Add2~48\ $end
$var wire 1 D# \Add2~49_combout\ $end
$var wire 1 E# \Add2~54_combout\ $end
$var wire 1 F# \Add2~50\ $end
$var wire 1 G# \Add2~51_combout\ $end
$var wire 1 H# \Add2~53_combout\ $end
$var wire 1 I# \Equal2~0_combout\ $end
$var wire 1 J# \Equal2~2_combout\ $end
$var wire 1 K# \Equal2~1_combout\ $end
$var wire 1 L# \Equal2~3_combout\ $end
$var wire 1 M# \Equal2~4_combout\ $end
$var wire 1 N# \Equal2~8_combout\ $end
$var wire 1 O# \Selector94~0_combout\ $end
$var wire 1 P# \state3.S3~q\ $end
$var wire 1 Q# \tz[2]~2_combout\ $end
$var wire 1 R# \state3.S0~q\ $end
$var wire 1 S# \Selector92~0_combout\ $end
$var wire 1 T# \state3.S1~q\ $end
$var wire 1 U# \Selector93~0_combout\ $end
$var wire 1 V# \state3.S2~q\ $end
$var wire 1 W# \Selector90~0_combout\ $end
$var wire 1 X# \Selector90~1_combout\ $end
$var wire 1 Y# \z~reg0_q\ $end
$var wire 1 Z# tx [25] $end
$var wire 1 [# tx [24] $end
$var wire 1 \# tx [23] $end
$var wire 1 ]# tx [22] $end
$var wire 1 ^# tx [21] $end
$var wire 1 _# tx [20] $end
$var wire 1 `# tx [19] $end
$var wire 1 a# tx [18] $end
$var wire 1 b# tx [17] $end
$var wire 1 c# tx [16] $end
$var wire 1 d# tx [15] $end
$var wire 1 e# tx [14] $end
$var wire 1 f# tx [13] $end
$var wire 1 g# tx [12] $end
$var wire 1 h# tx [11] $end
$var wire 1 i# tx [10] $end
$var wire 1 j# tx [9] $end
$var wire 1 k# tx [8] $end
$var wire 1 l# tx [7] $end
$var wire 1 m# tx [6] $end
$var wire 1 n# tx [5] $end
$var wire 1 o# tx [4] $end
$var wire 1 p# tx [3] $end
$var wire 1 q# tx [2] $end
$var wire 1 r# tx [1] $end
$var wire 1 s# tx [0] $end
$var wire 1 t# ty [25] $end
$var wire 1 u# ty [24] $end
$var wire 1 v# ty [23] $end
$var wire 1 w# ty [22] $end
$var wire 1 x# ty [21] $end
$var wire 1 y# ty [20] $end
$var wire 1 z# ty [19] $end
$var wire 1 {# ty [18] $end
$var wire 1 |# ty [17] $end
$var wire 1 }# ty [16] $end
$var wire 1 ~# ty [15] $end
$var wire 1 !$ ty [14] $end
$var wire 1 "$ ty [13] $end
$var wire 1 #$ ty [12] $end
$var wire 1 $$ ty [11] $end
$var wire 1 %$ ty [10] $end
$var wire 1 &$ ty [9] $end
$var wire 1 '$ ty [8] $end
$var wire 1 ($ ty [7] $end
$var wire 1 )$ ty [6] $end
$var wire 1 *$ ty [5] $end
$var wire 1 +$ ty [4] $end
$var wire 1 ,$ ty [3] $end
$var wire 1 -$ ty [2] $end
$var wire 1 .$ ty [1] $end
$var wire 1 /$ ty [0] $end
$var wire 1 0$ tz [25] $end
$var wire 1 1$ tz [24] $end
$var wire 1 2$ tz [23] $end
$var wire 1 3$ tz [22] $end
$var wire 1 4$ tz [21] $end
$var wire 1 5$ tz [20] $end
$var wire 1 6$ tz [19] $end
$var wire 1 7$ tz [18] $end
$var wire 1 8$ tz [17] $end
$var wire 1 9$ tz [16] $end
$var wire 1 :$ tz [15] $end
$var wire 1 ;$ tz [14] $end
$var wire 1 <$ tz [13] $end
$var wire 1 =$ tz [12] $end
$var wire 1 >$ tz [11] $end
$var wire 1 ?$ tz [10] $end
$var wire 1 @$ tz [9] $end
$var wire 1 A$ tz [8] $end
$var wire 1 B$ tz [7] $end
$var wire 1 C$ tz [6] $end
$var wire 1 D$ tz [5] $end
$var wire 1 E$ tz [4] $end
$var wire 1 F$ tz [3] $end
$var wire 1 G$ tz [2] $end
$var wire 1 H$ tz [1] $end
$var wire 1 I$ tz [0] $end
$var wire 1 J$ \ALT_INV_x~reg0_q\ $end
$upscope $end
$upscope $end
$enddefinitions $end
#0
$dumpvars
0!
1"
1#
0$
0%
0&
1'
x(
1)
1*
1+
1,
1-
1.
0/
10
11
02
03
0B
zC
zD
zE
1F
0G
0H
0I
0J
0K
1L
0M
1N
0O
1P
0Q
1R
0S
1T
0U
1V
1W
1X
1Y
1Z
0[
0\
1]
0^
1_
1`
0a
0b
1c
0d
1e
1f
0g
0h
1i
0j
1k
1l
0m
0n
1o
0p
1q
1r
1s
1t
1u
0v
0w
1x
0y
1z
1{
0|
0}
1~
0!!
1"!
1#!
0$!
0%!
1&!
0'!
1(!
1)!
0*!
0+!
1,!
0-!
1.!
1/!
00!
01!
12!
03!
14!
15!
06!
07!
18!
09!
1:!
1;!
1<!
1=!
0>!
0?!
1@!
0A!
1B!
1C!
0D!
0E!
1F!
0G!
1H!
1I!
1J!
1K!
0L!
0M!
1N!
1O!
0P!
1Q!
0R!
1S!
1T!
1U!
0V!
0W!
1X!
0Y!
1Z!
1[!
0\!
0]!
1^!
0_!
1`!
1a!
1b!
1c!
0d!
0e!
1f!
0g!
1h!
1i!
0j!
0k!
1l!
0m!
1n!
1o!
0p!
0q!
1r!
0s!
1t!
1u!
0v!
0w!
1x!
0y!
1z!
1{!
0|!
0}!
1~!
0!"
1""
1#"
0$"
0%"
1&"
0'"
1("
1)"
0*"
0+"
1,"
0-"
1."
1/"
00"
01"
12"
03"
14"
15"
16"
07"
08"
19"
0:"
1;"
1<"
0="
0>"
1?"
0@"
1A"
1B"
1C"
1D"
1E"
1F"
0G"
0H"
1I"
0J"
1K"
0L"
0M"
0N"
0O"
1P"
0Q"
0R"
0S"
0T"
1U"
1V"
1W"
0X"
1Y"
1Z"
1["
1\"
1]"
1^"
0_"
1`"
0a"
1b"
1c"
0d"
0e"
1f"
0g"
1h"
1i"
0j"
1k"
1l"
0m"
1n"
0o"
1p"
1q"
0r"
0s"
1t"
0u"
1v"
1w"
0x"
1y"
0z"
1{"
0|"
1}"
1~"
0!#
0"#
1##
0$#
1%#
1&#
0'#
0(#
1)#
0*#
1+#
1,#
0-#
0.#
1/#
00#
11#
12#
03#
04#
15#
06#
17#
18#
09#
0:#
1;#
0<#
1=#
1>#
0?#
0@#
1A#
0B#
1C#
1D#
0E#
0F#
1G#
0H#
1I#
1J#
1K#
1L#
1M#
1N#
0O#
0P#
1Q#
0R#
1S#
0T#
0U#
0V#
0W#
0X#
0Y#
1J$
0Z#
0[#
0\#
0]#
0^#
0_#
0`#
0a#
0b#
0c#
0d#
0e#
0f#
0g#
0h#
0i#
0j#
0k#
0l#
0m#
0n#
0o#
0p#
0q#
0r#
0s#
0t#
0u#
0v#
0w#
0x#
0y#
0z#
0{#
0|#
0}#
0~#
0!$
0"$
0#$
0$$
0%$
0&$
0'$
0($
0)$
0*$
0+$
0,$
0-$
0.$
0/$
00$
01$
02$
03$
04$
05$
06$
07$
08$
09$
0:$
0;$
0<$
0=$
0>$
0?$
0@$
0A$
0B$
0C$
0D$
0E$
0F$
0G$
0H$
0I$
1>
1?
1@
0A
04
05
06
07
08
09
0:
0;
0<
0=
$end
#25000
1!
1/
1I
1A
1J
1O
1S
1r#
1/$
1.$
1J"
1L"
1Q"
1I$
1H$
1G$
1R#
1T#
0J$
0["
1U#
1W#
0W"
1a"
1d"
1g"
1j"
1o"
1r"
1u"
1x"
1|"
1!#
1$#
1'#
1*#
1-#
10#
13#
16#
19#
1<#
1?#
1B#
1E#
1H#
0S#
0]"
1_"
0Y"
0\"
0l"
0U"
1X"
0I#
1M"
1R"
0O!
0S!
0K"
0Q!
0T!
0N!
1P!
0a!
0V
0Y
0r
0T
1L!
1O"
1Q
0R
0X
1[
1^
1a
1d
1g
1j
1m
1p
1v
1y
1|
1!!
1$!
1'!
1*!
1-!
10!
13!
16!
19!
1>!
1A!
1D!
1G!
0F
0P"
0K!
0Z
1\
0W
0F"
1Q!
0U!
1W!
1S"
0M#
1Y"
0V"
0N#
1]"
0Z"
0`"
0b"
0^"
1X#
01
0#
0c"
1e"
0a"
1^"
1W"
1["
1S#
0U#
0W#
1Z"
0X!
0Z!
1R!
1Y!
1\!
1_!
1d!
1g!
1j!
1m!
1p!
1s!
1v!
1y!
1|!
1!"
1$"
1'"
1*"
1-"
10"
13"
17"
1:"
1="
1@"
1K"
0M"
0R"
0]
0_
0[
1R
1T
1X
0L!
0O"
1P"
0`
1b
0^
0S"
1S!
0[!
1]!
0Y!
0X#
0f"
0h"
0d"
0i"
1m"
0g"
0^!
0b!
0\!
0c
0e
0a
0f
1h
0d
0c!
1e!
0_!
0n"
0p"
0j"
0q"
1s"
0o"
0f!
0h!
0d!
0i
0k
0g
0l
1n
0j
0i!
1k!
0g!
0t"
0v"
0r"
0w"
1z"
0u"
0l!
0n!
0j!
0o
0t
0m
0u
1w
0p
0o!
1q!
0m!
0{"
0}"
0x"
0~"
1"#
0|"
0r!
0t!
0p!
0x
0z
0v
0{
1}
0y
0u!
1w!
0s!
0##
0%#
0!#
0&#
1(#
0$#
0x!
0z!
0v!
0~
0"!
0|
0#!
1%!
0!!
0{!
1}!
0y!
0)#
0+#
0'#
0,#
1.#
0*#
0~!
0""
0|!
0&!
0(!
0$!
0)!
1+!
0'!
0#"
1%"
0!"
0/#
01#
0-#
02#
14#
00#
0&"
0("
0$"
0,!
0.!
0*!
0/!
11!
0-!
0)"
1+"
0'"
05#
07#
03#
08#
1:#
06#
0,"
0."
0*"
02!
04!
00!
05!
17!
03!
0/"
11"
0-"
0;#
0=#
09#
0>#
1@#
0<#
02"
05"
00"
08!
0<!
06!
0=!
1?!
09!
06"
18"
03"
0A#
0C#
0?#
0D#
1F#
0B#
09"
0;"
07"
0@!
0B!
0>!
0C!
1E!
0A!
0<"
1>"
0:"
0G#
0E#
0H#
0?"
0="
0F!
0D!
0G!
0@"
#50000
0!
0/
0I
0A
0J
#75000
1!
1/
1I
1A
1J
1s#
0r#
0/$
0I$
1U"
0X"
1I#
1N!
0P!
1V
1Y
0P
1U
0V
0Y
0Q
1Z
0\
1W
0Q!
1O!
1M#
0Y"
1V"
0Z"
0S!
1]
1_
1[
0Z
1\
0W
0]
0_
0[
1`
0b
1^
1c
1e
1a
0`
1b
0^
0c
0e
0a
1f
0h
1d
1i
1k
1g
0f
1h
0d
0i
0k
0g
1l
0n
1j
1o
1t
1m
0l
1n
0j
0o
0t
0m
1u
0w
1p
1x
1z
1v
0u
1w
0p
0x
0z
0v
1{
0}
1y
1~
1"!
1|
0{
1}
0y
0~
0"!
0|
1#!
0%!
1!!
1&!
1(!
1$!
0#!
1%!
0!!
0&!
0(!
0$!
1)!
0+!
1'!
1,!
1.!
1*!
0)!
1+!
0'!
0,!
0.!
0*!
1/!
01!
1-!
12!
14!
10!
0/!
11!
0-!
02!
04!
00!
15!
07!
13!
18!
1<!
16!
05!
17!
03!
08!
0<!
06!
1=!
0?!
19!
1@!
1B!
1>!
0=!
1?!
09!
0@!
0B!
0>!
1C!
0E!
1A!
1F!
1D!
0C!
1E!
0A!
0F!
0D!
1G!
0G!
#100000
0!
0/
0I
0A
0J
#125000
1!
1/
1I
1A
1J
0s#
1/$
0.$
1I$
0H$
1Y"
1\"
0U"
1X"
0I#
1Q!
1T!
0N!
1P!
1P
0U
1r
1K!
1V
1Y
1Q
0Q!
0T!
0O!
1U!
0W!
1S!
0M#
0Y"
0\"
0V"
0]"
1Z"
0^"
1]"
0Z"
1X!
1Z!
1V!
0U!
1W!
0S!
1Z
0\
1W
0R
0T
0X
1L!
1O"
0P"
1]
1_
1[
0X!
0Z!
0V!
1[!
0]!
1Y!
1^"
1^!
1b!
1\!
0[!
1]!
0Y!
1`
0b
1^
1c
1e
1a
0^!
0b!
0\!
1c!
0e!
1_!
1f!
1h!
1d!
0c!
1e!
0_!
1f
0h
1d
1i
1k
1g
0f!
0h!
0d!
1i!
0k!
1g!
1l!
1n!
1j!
0i!
1k!
0g!
1l
0n
1j
1o
1t
1m
0l!
0n!
0j!
1o!
0q!
1m!
1r!
1t!
1p!
0o!
1q!
0m!
1u
0w
1p
1x
1z
1v
0r!
0t!
0p!
1u!
0w!
1s!
1x!
1z!
1v!
0u!
1w!
0s!
1{
0}
1y
1~
1"!
1|
0x!
0z!
0v!
1{!
0}!
1y!
1~!
1""
1|!
0{!
1}!
0y!
1#!
0%!
1!!
1&!
1(!
1$!
0~!
0""
0|!
1#"
0%"
1!"
1&"
1("
1$"
0#"
1%"
0!"
1)!
0+!
1'!
1,!
1.!
1*!
0&"
0("
0$"
1)"
0+"
1'"
1,"
1."
1*"
0)"
1+"
0'"
1/!
01!
1-!
12!
14!
10!
0,"
0."
0*"
1/"
01"
1-"
12"
15"
10"
0/"
11"
0-"
15!
07!
13!
18!
1<!
16!
02"
05"
00"
16"
08"
13"
19"
1;"
17"
06"
18"
03"
1=!
0?!
19!
1@!
1B!
1>!
09"
0;"
07"
1<"
0>"
1:"
1?"
1="
0<"
1>"
0:"
1C!
0E!
1A!
1F!
1D!
0?"
0="
1@"
0@"
1G!
#150000
0!
0/
0I
0A
0J
#175000
1!
1/
1I
1A
1J
0S
1M!
0/$
0Q"
0I$
1J$
1U"
0X"
1I#
1N!
0P!
1a!
1K
1X
0^
0a
0d
0g
0j
0m
0p
0v
0y
0|
0!!
0$!
0'!
0*!
0-!
00!
03!
06!
09!
0>!
0A!
0D!
0G!
1T
0L!
0O"
1F
1F"
1Q!
1T!
1O!
1M#
1Y"
1\"
1V"
11
1#
0]"
1Z"
1U!
0W!
1S!
0O!
0R!
0K"
1M"
1R"
1S"
0S!
1X!
1Z!
0^"
1[!
0]!
1^!
1b!
1c!
0e!
1f!
1h!
1i!
0k!
1l!
1n!
1o!
0q!
1r!
1t!
1u!
0w!
1x!
1z!
1{!
0}!
1~!
1""
1#"
0%"
1&"
1("
1)"
0+"
1,"
1."
1/"
01"
12"
15"
16"
08"
19"
1;"
1<"
0>"
1?"
#200000
0!
0/
0I
0A
0J
