clock_multiplexer/simulation/qsim/clock_multiplexer.msim.vcd
$comment
	File created using the following command:
		vcd file clock_multiplexer.msim.vcd -direction
$end
$date
	Mon Jul 17 14:14:24 2023
$end
$version
	ModelSim Version 2020.1
$end
$timescale
	1ps
$end

$scope module clock_multiplexer_vhd_vec_tst $end
$var wire 1 ! Clk_out $end
$var wire 1 " clk_out_1 $end
$var wire 1 # clk_out_2 $end
$var wire 1 $ clk_out_3 $end
$var wire 1 % clk_out_4 $end
$var wire 1 & Clk_selector [1] $end
$var wire 1 ' Clk_selector [0] $end

$scope module i1 $end
$var wire 1 ( gnd $end
$var wire 1 ) vcc $end
$var wire 1 * unknown $end
$var wire 1 + devoe $end
$var wire 1 , devclrn $end
$var wire 1 - devpor $end
$var wire 1 . ww_devoe $end
$var wire 1 / ww_devclrn $end
$var wire 1 0 ww_devpor $end
$var wire 1 1 ww_clk_out_1 $end
$var wire 1 2 ww_clk_out_2 $end
$var wire 1 3 ww_clk_out_3 $end
$var wire 1 4 ww_clk_out_4 $end
$var wire 1 5 ww_Clk_selector [1] $end
$var wire 1 6 ww_Clk_selector [0] $end
$var wire 1 7 ww_Clk_out $end
$var wire 1 8 \Clk_out~output_o\ $end
$var wire 1 9 \clk_out_3~input_o\ $end
$var wire 1 : \Clk_selector[1]~input_o\ $end
$var wire 1 ; \clk_out_2~input_o\ $end
$var wire 1 < \Clk_selector[0]~input_o\ $end
$var wire 1 = \clk_out_1~input_o\ $end
$var wire 1 > \Clk_out~0_combout\ $end
$var wire 1 ? \clk_out_4~input_o\ $end
$var wire 1 @ \Clk_out~1_combout\ $end
$upscope $end
$upscope $end
$enddefinitions $end
#0
$dumpvars
0!
0"
0#
0$
0%
0(
1)
x*
1+
1,
1-
1.
1/
10
01
02
03
04
07
08
09
1:
0;
1<
0=
1>
0?
0@
1&
1'
15
16
$end
#20000
1"
11
1=
#40000
0"
1#
01
12
1;
0=
#60000
1"
11
1=
#80000
0"
0#
1$
01
02
13
19
0;
0=
#100000
1"
11
1=
#120000
0"
1#
01
12
1;
0=
#140000
1"
11
1=
#160000
0"
0#
0$
1%
01
02
03
14
1?
09
0;
0=
1@
18
17
1!
#180000
1"
11
1=
#200000
0"
1#
01
12
1;
0=
#220000
1"
11
1=
#240000
0"
0#
1$
01
02
13
19
0;
0=
#260000
1"
11
1=
#280000
0"
1#
01
12
1;
0=
#300000
1"
11
1=
#320000
0"
0#
0$
0%
01
02
03
04
0?
09
0;
0=
0@
08
07
0!
#340000
1"
11
1=
#360000
0"
1#
01
12
1;
0=
#380000
1"
11
1=
#400000
0"
0#
1$
01
02
13
19
0;
0=
#420000
1"
11
1=
#440000
0"
1#
01
12
1;
0=
#460000
1"
11
1=
#480000
0"
0#
0$
1%
01
02
03
14
1?
09
0;
0=
1@
18
17
1!
#500000
1"
11
1=
#520000
0"
1#
01
12
1;
0=
#540000
1"
11
1=
#560000
0"
0#
1$
01
02
13
19
0;
0=
#580000
1"
11
1=
#600000
0"
1#
01
12
1;
0=
#620000
1"
11
1=
#640000
0"
0#
0$
0%
01
02
03
04
0?
09
0;
0=
0@
08
07
0!
#660000
1"
11
1=
#680000
0"
1#
01
12
1;
0=
#700000
1"
11
1=
#720000
0"
0#
1$
01
02
13
19
0;
0=
#740000
1"
11
1=
#760000
0"
1#
01
12
1;
0=
#780000
1"
11
1=
#800000
0"
0#
0$
1%
01
02
03
14
1?
09
0;
0=
1@
18
17
1!
#820000
1"
11
1=
#840000
0"
1#
01
12
1;
0=
#860000
1"
11
1=
#880000
0"
0#
1$
01
02
13
19
0;
0=
#900000
1"
11
1=
#920000
0"
1#
01
12
1;
0=
#940000
1"
11
1=
#960000
0"
0#
0$
0%
01
02
03
04
0?
09
0;
0=
0@
08
07
0!
#980000
1"
11
1=
