MCP_3202_Interface/simulation/qsim/MCP_3202_Interface.msim.vcd
$comment
	File created using the following command:
		vcd file MCP_3202_Interface.msim.vcd -direction
$end
$date
	Thu Sep 28 22:08:19 2023
$end
$version
	ModelSim Version 2020.1
$end
$timescale
	1ps
$end

$scope module mcp_3202_interface_vhd_vec_tst $end
$var wire 1 ! CLK $end
$var wire 1 " DONE $end
$var wire 1 # HOLD_SS_N $end
$var wire 1 $ RDATA [11] $end
$var wire 1 % RDATA [10] $end
$var wire 1 & RDATA [9] $end
$var wire 1 ' RDATA [8] $end
$var wire 1 ( RDATA [7] $end
$var wire 1 ) RDATA [6] $end
$var wire 1 * RDATA [5] $end
$var wire 1 + RDATA [4] $end
$var wire 1 , RDATA [3] $end
$var wire 1 - RDATA [2] $end
$var wire 1 . RDATA [1] $end
$var wire 1 / RDATA [0] $end
$var wire 1 0 RST_N $end
$var wire 1 1 S_CH $end
$var wire 1 2 SPI_MISO $end
$var wire 1 3 SPI_MOSI $end
$var wire 1 4 SPI_SCK $end
$var wire 1 5 SPI_SS_N $end
$var wire 1 6 START $end

$scope module i1 $end
$var wire 1 7 gnd $end
$var wire 1 8 vcc $end
$var wire 1 9 unknown $end
$var wire 1 : devoe $end
$var wire 1 ; devclrn $end
$var wire 1 < devpor $end
$var wire 1 = ww_devoe $end
$var wire 1 > ww_devclrn $end
$var wire 1 ? ww_devpor $end
$var wire 1 @ ww_CLK $end
$var wire 1 A ww_HOLD_SS_N $end
$var wire 1 B ww_START $end
$var wire 1 C ww_RST_N $end
$var wire 1 D ww_S_CH $end
$var wire 1 E ww_SPI_MISO $end
$var wire 1 F ww_DONE $end
$var wire 1 G ww_RDATA [11] $end
$var wire 1 H ww_RDATA [10] $end
$var wire 1 I ww_RDATA [9] $end
$var wire 1 J ww_RDATA [8] $end
$var wire 1 K ww_RDATA [7] $end
$var wire 1 L ww_RDATA [6] $end
$var wire 1 M ww_RDATA [5] $end
$var wire 1 N ww_RDATA [4] $end
$var wire 1 O ww_RDATA [3] $end
$var wire 1 P ww_RDATA [2] $end
$var wire 1 Q ww_RDATA [1] $end
$var wire 1 R ww_RDATA [0] $end
$var wire 1 S ww_SPI_MOSI $end
$var wire 1 T ww_SPI_SCK $end
$var wire 1 U ww_SPI_SS_N $end
$var wire 1 V \~QUARTUS_CREATED_ADC1~_CHSEL_bus\ [4] $end
$var wire 1 W \~QUARTUS_CREATED_ADC1~_CHSEL_bus\ [3] $end
$var wire 1 X \~QUARTUS_CREATED_ADC1~_CHSEL_bus\ [2] $end
$var wire 1 Y \~QUARTUS_CREATED_ADC1~_CHSEL_bus\ [1] $end
$var wire 1 Z \~QUARTUS_CREATED_ADC1~_CHSEL_bus\ [0] $end
$var wire 1 [ \~QUARTUS_CREATED_ADC2~_CHSEL_bus\ [4] $end
$var wire 1 \ \~QUARTUS_CREATED_ADC2~_CHSEL_bus\ [3] $end
$var wire 1 ] \~QUARTUS_CREATED_ADC2~_CHSEL_bus\ [2] $end
$var wire 1 ^ \~QUARTUS_CREATED_ADC2~_CHSEL_bus\ [1] $end
$var wire 1 _ \~QUARTUS_CREATED_ADC2~_CHSEL_bus\ [0] $end
$var wire 1 ` \CLK~inputclkctrl_INCLK_bus\ [3] $end
$var wire 1 a \CLK~inputclkctrl_INCLK_bus\ [2] $end
$var wire 1 b \CLK~inputclkctrl_INCLK_bus\ [1] $end
$var wire 1 c \CLK~inputclkctrl_INCLK_bus\ [0] $end
$var wire 1 d \HOLD_SS_N~input_o\ $end
$var wire 1 e \~QUARTUS_CREATED_GND~I_combout\ $end
$var wire 1 f \~QUARTUS_CREATED_UNVM~~busy\ $end
$var wire 1 g \~QUARTUS_CREATED_ADC1~~eoc\ $end
$var wire 1 h \~QUARTUS_CREATED_ADC2~~eoc\ $end
$var wire 1 i \DONE~output_o\ $end
$var wire 1 j \RDATA[0]~output_o\ $end
$var wire 1 k \RDATA[1]~output_o\ $end
$var wire 1 l \RDATA[2]~output_o\ $end
$var wire 1 m \RDATA[3]~output_o\ $end
$var wire 1 n \RDATA[4]~output_o\ $end
$var wire 1 o \RDATA[5]~output_o\ $end
$var wire 1 p \RDATA[6]~output_o\ $end
$var wire 1 q \RDATA[7]~output_o\ $end
$var wire 1 r \RDATA[8]~output_o\ $end
$var wire 1 s \RDATA[9]~output_o\ $end
$var wire 1 t \RDATA[10]~output_o\ $end
$var wire 1 u \RDATA[11]~output_o\ $end
$var wire 1 v \SPI_MOSI~output_o\ $end
$var wire 1 w \SPI_SCK~output_o\ $end
$var wire 1 x \SPI_SS_N~output_o\ $end
$var wire 1 y \CLK~input_o\ $end
$var wire 1 z \CLK~inputclkctrl_outclk\ $end
$var wire 1 { \START~input_o\ $end
$var wire 1 | \bt2~0_combout\ $end
$var wire 1 } \RST_N~input_o\ $end
$var wire 1 ~ \bt2~q\ $end
$var wire 1 !! \Gen_Clk[0]~33_combout\ $end
$var wire 1 "! \Equal0~2_combout\ $end
$var wire 1 #! \Equal0~0_combout\ $end
$var wire 1 $! \Equal0~3_combout\ $end
$var wire 1 %! \Equal0~1_combout\ $end
$var wire 1 &! \Equal0~4_combout\ $end
$var wire 1 '! \Gen_Clk[2]~32_combout\ $end
$var wire 1 (! \Gen_Clk[31]~35_combout\ $end
$var wire 1 )! \Gen_Clk[31]~36_combout\ $end
$var wire 1 *! \Gen_Clk[0]~34\ $end
$var wire 1 +! \Gen_Clk[1]~37_combout\ $end
$var wire 1 ,! \Gen_Clk[1]~38\ $end
$var wire 1 -! \Gen_Clk[2]~39_combout\ $end
$var wire 1 .! \Gen_Clk[2]~40\ $end
$var wire 1 /! \Gen_Clk[3]~41_combout\ $end
$var wire 1 0! \Gen_Clk[3]~42\ $end
$var wire 1 1! \Gen_Clk[4]~43_combout\ $end
$var wire 1 2! \Gen_Clk[4]~44\ $end
$var wire 1 3! \Gen_Clk[5]~45_combout\ $end
$var wire 1 4! \Gen_Clk[5]~46\ $end
$var wire 1 5! \Gen_Clk[6]~47_combout\ $end
$var wire 1 6! \Gen_Clk[6]~48\ $end
$var wire 1 7! \Gen_Clk[7]~49_combout\ $end
$var wire 1 8! \Gen_Clk[7]~50\ $end
$var wire 1 9! \Gen_Clk[8]~51_combout\ $end
$var wire 1 :! \Gen_Clk[8]~52\ $end
$var wire 1 ;! \Gen_Clk[9]~53_combout\ $end
$var wire 1 <! \Gen_Clk[9]~54\ $end
$var wire 1 =! \Gen_Clk[10]~55_combout\ $end
$var wire 1 >! \Gen_Clk[10]~56\ $end
$var wire 1 ?! \Gen_Clk[11]~57_combout\ $end
$var wire 1 @! \Gen_Clk[11]~58\ $end
$var wire 1 A! \Gen_Clk[12]~59_combout\ $end
$var wire 1 B! \Gen_Clk[12]~60\ $end
$var wire 1 C! \Gen_Clk[13]~61_combout\ $end
$var wire 1 D! \Gen_Clk[13]~62\ $end
$var wire 1 E! \Gen_Clk[14]~63_combout\ $end
$var wire 1 F! \Gen_Clk[14]~64\ $end
$var wire 1 G! \Gen_Clk[15]~65_combout\ $end
$var wire 1 H! \Gen_Clk[15]~66\ $end
$var wire 1 I! \Gen_Clk[16]~67_combout\ $end
$var wire 1 J! \Gen_Clk[16]~68\ $end
$var wire 1 K! \Gen_Clk[17]~69_combout\ $end
$var wire 1 L! \Gen_Clk[17]~70\ $end
$var wire 1 M! \Gen_Clk[18]~71_combout\ $end
$var wire 1 N! \Gen_Clk[18]~72\ $end
$var wire 1 O! \Gen_Clk[19]~73_combout\ $end
$var wire 1 P! \Gen_Clk[19]~74\ $end
$var wire 1 Q! \Gen_Clk[20]~75_combout\ $end
$var wire 1 R! \Gen_Clk[20]~76\ $end
$var wire 1 S! \Gen_Clk[21]~77_combout\ $end
$var wire 1 T! \Gen_Clk[21]~78\ $end
$var wire 1 U! \Gen_Clk[22]~79_combout\ $end
$var wire 1 V! \Gen_Clk[22]~80\ $end
$var wire 1 W! \Gen_Clk[23]~81_combout\ $end
$var wire 1 X! \Gen_Clk[23]~82\ $end
$var wire 1 Y! \Gen_Clk[24]~83_combout\ $end
$var wire 1 Z! \Gen_Clk[24]~84\ $end
$var wire 1 [! \Gen_Clk[25]~85_combout\ $end
$var wire 1 \! \Gen_Clk[25]~86\ $end
$var wire 1 ]! \Gen_Clk[26]~87_combout\ $end
$var wire 1 ^! \Gen_Clk[26]~88\ $end
$var wire 1 _! \Gen_Clk[27]~89_combout\ $end
$var wire 1 `! \Gen_Clk[27]~90\ $end
$var wire 1 a! \Gen_Clk[28]~91_combout\ $end
$var wire 1 b! \Gen_Clk[28]~92\ $end
$var wire 1 c! \Gen_Clk[29]~93_combout\ $end
$var wire 1 d! \Gen_Clk[29]~94\ $end
$var wire 1 e! \Gen_Clk[30]~95_combout\ $end
$var wire 1 f! \Gen_Clk[30]~96\ $end
$var wire 1 g! \Gen_Clk[31]~97_combout\ $end
$var wire 1 h! \Equal0~8_combout\ $end
$var wire 1 i! \Equal0~5_combout\ $end
$var wire 1 j! \Equal0~6_combout\ $end
$var wire 1 k! \Equal0~7_combout\ $end
$var wire 1 l! \Equal0~9_combout\ $end
$var wire 1 m! \Equal0~10_combout\ $end
$var wire 1 n! \Selector38~0_combout\ $end
$var wire 1 o! \clock~q\ $end
$var wire 1 p! \Result[0]~0_combout\ $end
$var wire 1 q! \Add3~0_combout\ $end
$var wire 1 r! \Selector138~0_combout\ $end
$var wire 1 s! \Selector138~1_combout\ $end
$var wire 1 t! \Add3~1\ $end
$var wire 1 u! \Add3~2_combout\ $end
$var wire 1 v! \Add3~4_combout\ $end
$var wire 1 w! \Selector137~0_combout\ $end
$var wire 1 x! \Add3~3\ $end
$var wire 1 y! \Add3~5_combout\ $end
$var wire 1 z! \Selector136~0_combout\ $end
$var wire 1 {! \Selector136~1_combout\ $end
$var wire 1 |! \Add3~6\ $end
$var wire 1 }! \Add3~7_combout\ $end
$var wire 1 ~! \Add3~66_combout\ $end
$var wire 1 !" \Selector135~0_combout\ $end
$var wire 1 "" \Add3~8\ $end
$var wire 1 #" \Add3~9_combout\ $end
$var wire 1 $" \Selector134~0_combout\ $end
$var wire 1 %" \Selector134~1_combout\ $end
$var wire 1 &" \Add3~10\ $end
$var wire 1 '" \Add3~11_combout\ $end
$var wire 1 (" \Selector133~0_combout\ $end
$var wire 1 )" \Selector133~1_combout\ $end
$var wire 1 *" \Add3~12\ $end
$var wire 1 +" \Add3~13_combout\ $end
$var wire 1 ," \Selector132~0_combout\ $end
$var wire 1 -" \Selector132~1_combout\ $end
$var wire 1 ." \Equal1~7_combout\ $end
$var wire 1 /" \Add3~14\ $end
$var wire 1 0" \Add3~15_combout\ $end
$var wire 1 1" \Selector131~0_combout\ $end
$var wire 1 2" \Selector131~1_combout\ $end
$var wire 1 3" \Add3~16\ $end
$var wire 1 4" \Add3~17_combout\ $end
$var wire 1 5" \Add3~65_combout\ $end
$var wire 1 6" \Selector130~0_combout\ $end
$var wire 1 7" \Add3~18\ $end
$var wire 1 8" \Add3~19_combout\ $end
$var wire 1 9" \Add3~64_combout\ $end
$var wire 1 :" \Selector129~0_combout\ $end
$var wire 1 ;" \Add3~20\ $end
$var wire 1 <" \Add3~21_combout\ $end
$var wire 1 =" \Selector128~0_combout\ $end
$var wire 1 >" \Selector128~1_combout\ $end
$var wire 1 ?" \Add3~22\ $end
$var wire 1 @" \Add3~23_combout\ $end
$var wire 1 A" \Selector127~0_combout\ $end
$var wire 1 B" \Selector127~1_combout\ $end
$var wire 1 C" \Add3~24\ $end
$var wire 1 D" \Add3~25_combout\ $end
$var wire 1 E" \Selector126~0_combout\ $end
$var wire 1 F" \Selector126~1_combout\ $end
$var wire 1 G" \Add3~26\ $end
$var wire 1 H" \Add3~27_combout\ $end
$var wire 1 I" \Add3~63_combout\ $end
$var wire 1 J" \Selector125~0_combout\ $end
$var wire 1 K" \Add3~28\ $end
$var wire 1 L" \Add3~29_combout\ $end
$var wire 1 M" \Selector107~0_combout\ $end
$var wire 1 N" \Selector124~0_combout\ $end
$var wire 1 O" \Equal1~5_combout\ $end
$var wire 1 P" \Equal1~6_combout\ $end
$var wire 1 Q" \Add3~30\ $end
$var wire 1 R" \Add3~31_combout\ $end
$var wire 1 S" \Selector123~0_combout\ $end
$var wire 1 T" \Add3~32\ $end
$var wire 1 U" \Add3~33_combout\ $end
$var wire 1 V" \Selector122~0_combout\ $end
$var wire 1 W" \Add3~34\ $end
$var wire 1 X" \Add3~35_combout\ $end
$var wire 1 Y" \Selector121~0_combout\ $end
$var wire 1 Z" \Add3~36\ $end
$var wire 1 [" \Add3~37_combout\ $end
$var wire 1 \" \Selector120~0_combout\ $end
$var wire 1 ]" \Add3~38\ $end
$var wire 1 ^" \Add3~39_combout\ $end
$var wire 1 _" \Selector119~0_combout\ $end
$var wire 1 `" \Add3~40\ $end
$var wire 1 a" \Add3~41_combout\ $end
$var wire 1 b" \Selector118~0_combout\ $end
$var wire 1 c" \Add3~42\ $end
$var wire 1 d" \Add3~43_combout\ $end
$var wire 1 e" \Selector117~0_combout\ $end
$var wire 1 f" \Add3~44\ $end
$var wire 1 g" \Add3~45_combout\ $end
$var wire 1 h" \Selector116~0_combout\ $end
$var wire 1 i" \Equal1~2_combout\ $end
$var wire 1 j" \Add3~46\ $end
$var wire 1 k" \Add3~47_combout\ $end
$var wire 1 l" \Selector115~0_combout\ $end
$var wire 1 m" \Add3~48\ $end
$var wire 1 n" \Add3~49_combout\ $end
$var wire 1 o" \Selector114~0_combout\ $end
$var wire 1 p" \Add3~50\ $end
$var wire 1 q" \Add3~51_combout\ $end
$var wire 1 r" \Selector113~0_combout\ $end
$var wire 1 s" \Add3~52\ $end
$var wire 1 t" \Add3~53_combout\ $end
$var wire 1 u" \Selector112~0_combout\ $end
$var wire 1 v" \Add3~54\ $end
$var wire 1 w" \Add3~55_combout\ $end
$var wire 1 x" \Selector111~0_combout\ $end
$var wire 1 y" \Add3~56\ $end
$var wire 1 z" \Add3~57_combout\ $end
$var wire 1 {" \Selector110~0_combout\ $end
$var wire 1 |" \Add3~58\ $end
$var wire 1 }" \Add3~59_combout\ $end
$var wire 1 ~" \Selector109~0_combout\ $end
$var wire 1 !# \Add3~60\ $end
$var wire 1 "# \Add3~61_combout\ $end
$var wire 1 ## \Selector108~0_combout\ $end
$var wire 1 $# \Equal1~0_combout\ $end
$var wire 1 %# \Equal1~1_combout\ $end
$var wire 1 &# \Equal1~3_combout\ $end
$var wire 1 '# \Equal1~4_combout\ $end
$var wire 1 (# \Equal1~8_combout\ $end
$var wire 1 )# \Add3~62\ $end
$var wire 1 *# \Add3~67_combout\ $end
$var wire 1 +# \Selector107~1_combout\ $end
$var wire 1 ,# \Equal1~9_combout\ $end
$var wire 1 -# \Equal1~10_combout\ $end
$var wire 1 .# \Selector37~0_combout\ $end
$var wire 1 /# \state.s0~0_combout\ $end
$var wire 1 0# \state.s0~q\ $end
$var wire 1 1# \Selector40~0_combout\ $end
$var wire 1 2# \Selector36~0_combout\ $end
$var wire 1 3# \state.s2~q\ $end
$var wire 1 4# \Selector35~0_combout\ $end
$var wire 1 5# \state.s1~q\ $end
$var wire 1 6# \rise~0_combout\ $end
$var wire 1 7# \DONE~0_combout\ $end
$var wire 1 8# \DONE~reg0_q\ $end
$var wire 1 9# \SPI_MISO~input_o\ $end
$var wire 1 :# \Result[0]~2_combout\ $end
$var wire 1 ;# \Result[0]~3_combout\ $end
$var wire 1 <# \LessThan0~0_combout\ $end
$var wire 1 =# \SPI_MOSI~2_combout\ $end
$var wire 1 ># \Result[0]~1_combout\ $end
$var wire 1 ?# \Result[0]~4_combout\ $end
$var wire 1 @# \rise~1_combout\ $end
$var wire 1 A# \rise~q\ $end
$var wire 1 B# \RDATA~0_combout\ $end
$var wire 1 C# \RDATA[0]~reg0_q\ $end
$var wire 1 D# \Result[1]~feeder_combout\ $end
$var wire 1 E# \RDATA~1_combout\ $end
$var wire 1 F# \RDATA[1]~reg0_q\ $end
$var wire 1 G# \Result[2]~feeder_combout\ $end
$var wire 1 H# \RDATA~2_combout\ $end
$var wire 1 I# \RDATA[2]~reg0_q\ $end
$var wire 1 J# \Result[3]~feeder_combout\ $end
$var wire 1 K# \RDATA~3_combout\ $end
$var wire 1 L# \RDATA[3]~reg0_q\ $end
$var wire 1 M# \Result[4]~feeder_combout\ $end
$var wire 1 N# \RDATA~4_combout\ $end
$var wire 1 O# \RDATA[4]~reg0_q\ $end
$var wire 1 P# \Result[5]~feeder_combout\ $end
$var wire 1 Q# \RDATA~5_combout\ $end
$var wire 1 R# \RDATA[5]~reg0_q\ $end
$var wire 1 S# \Result[6]~feeder_combout\ $end
$var wire 1 T# \RDATA~6_combout\ $end
$var wire 1 U# \RDATA[6]~reg0_q\ $end
$var wire 1 V# \Result[7]~feeder_combout\ $end
$var wire 1 W# \RDATA~7_combout\ $end
$var wire 1 X# \RDATA[7]~reg0_q\ $end
$var wire 1 Y# \Result[8]~feeder_combout\ $end
$var wire 1 Z# \RDATA~8_combout\ $end
$var wire 1 [# \RDATA[8]~reg0_q\ $end
$var wire 1 \# \Result[9]~feeder_combout\ $end
$var wire 1 ]# \RDATA~9_combout\ $end
$var wire 1 ^# \RDATA[9]~reg0_q\ $end
$var wire 1 _# \Result[10]~feeder_combout\ $end
$var wire 1 `# \RDATA~10_combout\ $end
$var wire 1 a# \RDATA[10]~reg0_q\ $end
$var wire 1 b# \Result[11]~feeder_combout\ $end
$var wire 1 c# \RDATA~11_combout\ $end
$var wire 1 d# \RDATA[11]~reg0_q\ $end
$var wire 1 e# \SPI_MOSI~3_combout\ $end
$var wire 1 f# \SPI_MOSI~0_combout\ $end
$var wire 1 g# \S_CH~input_o\ $end
$var wire 1 h# \WDATA[2]~0_combout\ $end
$var wire 1 i# \SPI_MOSI~1_combout\ $end
$var wire 1 j# \SPI_MOSI~4_combout\ $end
$var wire 1 k# \SPI_MOSI~5_combout\ $end
$var wire 1 l# \SPI_MOSI~6_combout\ $end
$var wire 1 m# \SPI_MOSI~7_combout\ $end
$var wire 1 n# \SPI_MOSI~reg0_q\ $end
$var wire 1 o# \Selector42~0_combout\ $end
$var wire 1 p# \Selector42~1_combout\ $end
$var wire 1 q# \SPI_SCK~reg0_q\ $end
$var wire 1 r# Gen_Clk [31] $end
$var wire 1 s# Gen_Clk [30] $end
$var wire 1 t# Gen_Clk [29] $end
$var wire 1 u# Gen_Clk [28] $end
$var wire 1 v# Gen_Clk [27] $end
$var wire 1 w# Gen_Clk [26] $end
$var wire 1 x# Gen_Clk [25] $end
$var wire 1 y# Gen_Clk [24] $end
$var wire 1 z# Gen_Clk [23] $end
$var wire 1 {# Gen_Clk [22] $end
$var wire 1 |# Gen_Clk [21] $end
$var wire 1 }# Gen_Clk [20] $end
$var wire 1 ~# Gen_Clk [19] $end
$var wire 1 !$ Gen_Clk [18] $end
$var wire 1 "$ Gen_Clk [17] $end
$var wire 1 #$ Gen_Clk [16] $end
$var wire 1 $$ Gen_Clk [15] $end
$var wire 1 %$ Gen_Clk [14] $end
$var wire 1 &$ Gen_Clk [13] $end
$var wire 1 '$ Gen_Clk [12] $end
$var wire 1 ($ Gen_Clk [11] $end
$var wire 1 )$ Gen_Clk [10] $end
$var wire 1 *$ Gen_Clk [9] $end
$var wire 1 +$ Gen_Clk [8] $end
$var wire 1 ,$ Gen_Clk [7] $end
$var wire 1 -$ Gen_Clk [6] $end
$var wire 1 .$ Gen_Clk [5] $end
$var wire 1 /$ Gen_Clk [4] $end
$var wire 1 0$ Gen_Clk [3] $end
$var wire 1 1$ Gen_Clk [2] $end
$var wire 1 2$ Gen_Clk [1] $end
$var wire 1 3$ Gen_Clk [0] $end
$var wire 1 4$ Result [11] $end
$var wire 1 5$ Result [10] $end
$var wire 1 6$ Result [9] $end
$var wire 1 7$ Result [8] $end
$var wire 1 8$ Result [7] $end
$var wire 1 9$ Result [6] $end
$var wire 1 :$ Result [5] $end
$var wire 1 ;$ Result [4] $end
$var wire 1 <$ Result [3] $end
$var wire 1 =$ Result [2] $end
$var wire 1 >$ Result [1] $end
$var wire 1 ?$ Result [0] $end
$var wire 1 @$ Count_12 [31] $end
$var wire 1 A$ Count_12 [30] $end
$var wire 1 B$ Count_12 [29] $end
$var wire 1 C$ Count_12 [28] $end
$var wire 1 D$ Count_12 [27] $end
$var wire 1 E$ Count_12 [26] $end
$var wire 1 F$ Count_12 [25] $end
$var wire 1 G$ Count_12 [24] $end
$var wire 1 H$ Count_12 [23] $end
$var wire 1 I$ Count_12 [22] $end
$var wire 1 J$ Count_12 [21] $end
$var wire 1 K$ Count_12 [20] $end
$var wire 1 L$ Count_12 [19] $end
$var wire 1 M$ Count_12 [18] $end
$var wire 1 N$ Count_12 [17] $end
$var wire 1 O$ Count_12 [16] $end
$var wire 1 P$ Count_12 [15] $end
$var wire 1 Q$ Count_12 [14] $end
$var wire 1 R$ Count_12 [13] $end
$var wire 1 S$ Count_12 [12] $end
$var wire 1 T$ Count_12 [11] $end
$var wire 1 U$ Count_12 [10] $end
$var wire 1 V$ Count_12 [9] $end
$var wire 1 W$ Count_12 [8] $end
$var wire 1 X$ Count_12 [7] $end
$var wire 1 Y$ Count_12 [6] $end
$var wire 1 Z$ Count_12 [5] $end
$var wire 1 [$ Count_12 [4] $end
$var wire 1 \$ Count_12 [3] $end
$var wire 1 ]$ Count_12 [2] $end
$var wire 1 ^$ Count_12 [1] $end
$var wire 1 _$ Count_12 [0] $end
$var wire 1 `$ WDATA [0] $end
$var wire 1 a$ WDATA [1] $end
$var wire 1 b$ WDATA [2] $end
$var wire 1 c$ WDATA [3] $end
$var wire 1 d$ \ALT_INV_DONE~reg0_q\ $end
$upscope $end
$upscope $end
$enddefinitions $end
#0
$dumpvars
0!
1"
1#
10
11
02
03
04
15
16
07
18
x9
1:
1;
1<
1=
1>
1?
0@
1A
1B
1C
1D
0E
1F
0S
0T
1U
1d
0e
zf
zg
zh
1i
0j
0k
0l
0m
0n
0o
0p
0q
0r
0s
0t
0u
0v
0w
1x
0y
0z
1{
0|
1}
0~
1!!
0"!
1#!
0$!
1%!
1&!
1'!
0(!
0)!
0*!
0+!
1,!
0-!
0.!
0/!
10!
01!
02!
03!
14!
05!
06!
07!
18!
09!
0:!
0;!
1<!
0=!
0>!
0?!
1@!
0A!
0B!
0C!
1D!
0E!
0F!
0G!
1H!
0I!
0J!
0K!
1L!
0M!
0N!
0O!
1P!
0Q!
0R!
0S!
1T!
0U!
0V!
0W!
1X!
0Y!
0Z!
0[!
1\!
0]!
0^!
0_!
1`!
0a!
0b!
0c!
1d!
0e!
0f!
0g!
0h!
0i!
0j!
0k!
0l!
1m!
0n!
0o!
0p!
1q!
0r!
0s!
0t!
0u!
0v!
0w!
1x!
0y!
0z!
0{!
0|!
0}!
0~!
0!"
1""
0#"
0$"
0%"
0&"
0'"
0("
0)"
1*"
0+"
0,"
0-"
1."
0/"
00"
01"
02"
13"
04"
05"
06"
07"
08"
09"
0:"
1;"
0<"
0="
0>"
0?"
0@"
0A"
0B"
1C"
0D"
0E"
0F"
0G"
0H"
0I"
0J"
1K"
0L"
1M"
0N"
1O"
1P"
0Q"
0R"
0S"
1T"
0U"
0V"
0W"
0X"
0Y"
1Z"
0["
0\"
0]"
0^"
0_"
1`"
0a"
0b"
0c"
0d"
0e"
1f"
0g"
0h"
1i"
0j"
0k"
0l"
1m"
0n"
0o"
0p"
0q"
0r"
1s"
0t"
0u"
0v"
0w"
0x"
1y"
0z"
0{"
0|"
0}"
0~"
1!#
0"#
0##
1$#
1%#
1&#
1'#
1(#
0)#
0*#
0+#
1,#
0-#
0.#
0/#
00#
01#
02#
03#
04#
05#
16#
07#
08#
09#
1:#
1;#
1<#
0=#
0>#
0?#
0@#
0A#
0B#
0C#
0D#
0E#
0F#
0G#
0H#
0I#
0J#
0K#
0L#
0M#
0N#
0O#
0P#
0Q#
0R#
0S#
0T#
0U#
0V#
0W#
0X#
0Y#
0Z#
0[#
0\#
0]#
0^#
0_#
0`#
0a#
0b#
0c#
0d#
0e#
1f#
1g#
0h#
1i#
0j#
0k#
0l#
0m#
0n#
0o#
0p#
0q#
1d$
0G
0H
0I
0J
0K
0L
0M
0N
0O
0P
0Q
0R
0r#
0s#
0t#
0u#
0v#
0w#
0x#
0y#
0z#
0{#
0|#
0}#
0~#
0!$
0"$
0#$
0$$
0%$
0&$
0'$
0($
0)$
0*$
0+$
0,$
0-$
0.$
0/$
00$
01$
02$
03$
04$
05$
06$
07$
08$
09$
0:$
0;$
0<$
0=$
0>$
0?$
0@$
0A$
0B$
0C$
0D$
0E$
0F$
0G$
0H$
0I$
0J$
0K$
0L$
0M$
0N$
0O$
0P$
0Q$
0R$
0S$
0T$
0U$
0V$
0W$
0X$
0Y$
0Z$
0[$
0\$
0]$
0^$
0_$
x`$
xa$
0b$
xc$
1`
1a
1b
0c
0V
0W
0X
0Y
0Z
0[
0\
0]
0^
0_
0$
0%
0&
0'
0(
0)
0*
0+
0,
0-
0.
0/
$end
#5000
1!
1@
1y
1c
1z
#10000
0!
0@
0y
0c
0z
#15000
1!
1@
1y
1c
1z
#20000
0!
0@
0y
0c
0z
#25000
1!
1@
1y
1c
1z
#30000
0!
0@
0y
0c
0z
#35000
1!
1@
1y
1c
1z
#40000
0!
0@
0y
0c
0z
#45000
1!
1@
1y
1c
1z
#50000
0!
0@
0y
0c
0z
#55000
1!
1@
1y
1c
1z
#60000
0!
0@
0y
0c
0z
#65000
1!
1@
1y
1c
1z
#70000
0!
0@
0y
0c
0z
#75000
1!
1@
1y
1c
1z
#80000
0!
0@
0y
0c
0z
#85000
1!
1@
1y
1c
1z
#90000
0!
0@
0y
0c
0z
#95000
1!
1@
1y
1c
1z
#100000
0!
0@
0y
0c
0z
#105000
1!
1@
1y
1c
1z
#110000
0!
0@
0y
0c
0z
#115000
1!
1@
1y
1c
1z
#120000
0!
0@
0y
0c
0z
#125000
1!
1@
1y
1c
1z
#130000
0!
0@
0y
0c
0z
#135000
1!
1@
1y
1c
1z
#140000
0!
0@
0y
0c
0z
#145000
1!
1@
1y
1c
1z
#150000
0!
0@
0y
0c
0z
#155000
1!
1@
1y
1c
1z
#160000
0!
0@
0y
0c
0z
#165000
1!
1@
1y
1c
1z
#170000
0!
0@
0y
0c
0z
#175000
1!
1@
1y
1c
1z
#180000
0!
0@
0y
0c
0z
#185000
1!
1@
1y
1c
1z
#190000
0!
0@
0y
0c
0z
#195000
1!
1@
1y
1c
1z
#200000
0!
0@
0y
0c
0z
#205000
1!
1@
1y
1c
1z
#210000
0!
0@
0y
0c
0z
#215000
1!
1@
1y
1c
1z
#220000
0!
0@
0y
0c
0z
#225000
1!
1@
1y
1c
1z
#230000
0!
0@
0y
0c
0z
#235000
1!
1@
1y
1c
1z
#240000
0!
0@
0y
0c
0z
#245000
1!
1@
1y
1c
1z
#250000
0!
0@
0y
0c
0z
#255000
1!
1@
1y
1c
1z
#260000
0!
0@
0y
0c
0z
#265000
1!
1@
1y
1c
1z
#270000
0!
0@
0y
0c
0z
#275000
1!
1@
1y
1c
1z
#280000
0!
0@
0y
0c
0z
#285000
1!
1@
1y
1c
1z
#290000
0!
0@
0y
0c
0z
#295000
1!
1@
1y
1c
1z
#300000
0!
0@
0y
0c
0z
#305000
1!
1@
1y
1c
1z
#310000
0!
0@
0y
0c
0z
#315000
1!
1@
1y
1c
1z
#320000
0!
0@
0y
0c
0z
#325000
1!
1@
1y
1c
1z
#330000
0!
0@
0y
0c
0z
#335000
1!
1@
1y
1c
1z
#340000
0!
0@
0y
0c
0z
#345000
1!
1@
1y
1c
1z
#350000
0!
0@
0y
0c
0z
#355000
1!
1@
1y
1c
1z
#360000
0!
0@
0y
0c
0z
#365000
1!
1@
1y
1c
1z
#370000
0!
0@
0y
0c
0z
#375000
1!
1@
1y
1c
1z
#380000
0!
0@
0y
0c
0z
#385000
1!
1@
1y
1c
1z
#390000
0!
0@
0y
0c
0z
#395000
1!
1@
1y
1c
1z
#400000
0!
0@
0y
0c
0z
#405000
1!
1@
1y
1c
1z
#410000
0!
0@
0y
0c
0z
#415000
1!
1@
1y
1c
1z
#420000
0!
0@
0y
0c
0z
#425000
1!
1@
1y
1c
1z
#430000
0!
0@
0y
0c
0z
#435000
1!
1@
1y
1c
1z
#440000
0!
0@
0y
0c
0z
#445000
1!
1@
1y
1c
1z
#450000
0!
0@
0y
0c
0z
#455000
1!
1@
1y
1c
1z
#460000
0!
0@
0y
0c
0z
#465000
1!
1@
1y
1c
1z
#470000
0!
0@
0y
0c
0z
#475000
1!
1@
1y
1c
1z
#480000
0!
0@
0y
0c
0z
#485000
1!
1@
1y
1c
1z
#490000
0!
0@
0y
0c
0z
#495000
1!
1@
1y
1c
1z
#500000
0!
0@
0y
0c
0z
#505000
1!
1@
1y
1c
1z
#510000
0!
0@
0y
0c
0z
#515000
1!
1@
1y
1c
1z
#520000
0!
0@
0y
0c
0z
#525000
1!
1@
1y
1c
1z
#530000
0!
0@
0y
0c
0z
#535000
1!
1@
1y
1c
1z
#540000
0!
0@
0y
0c
0z
#545000
1!
1@
1y
1c
1z
#550000
0!
0@
0y
0c
0z
#555000
1!
1@
1y
1c
1z
#560000
0!
0@
0y
0c
0z
#565000
1!
1@
1y
1c
1z
#570000
0!
0@
0y
0c
0z
#575000
1!
1@
1y
1c
1z
#580000
0!
0@
0y
0c
0z
#585000
1!
1@
1y
1c
1z
#590000
0!
0@
0y
0c
0z
#595000
1!
1@
1y
1c
1z
#600000
0!
0@
0y
0c
0z
#605000
1!
1@
1y
1c
1z
#610000
0!
0@
0y
0c
0z
#615000
1!
1@
1y
1c
1z
#620000
0!
0@
0y
0c
0z
#625000
1!
1@
1y
1c
1z
#630000
0!
0@
0y
0c
0z
