UART_TX/simulation/qsim/UART_TX.msim.vcd
$comment
	File created using the following command:
		vcd file UART_TX.msim.vcd -direction
$end
$date
	Thu Sep 07 23:07:20 2023
$end
$version
	ModelSim Version 2020.1
$end
$timescale
	1ps
$end

$scope module uart_tx_vhd_vec_tst $end
$var wire 1 ! clk_i $end
$var wire 1 " Data_TX [7] $end
$var wire 1 # Data_TX [6] $end
$var wire 1 $ Data_TX [5] $end
$var wire 1 % Data_TX [4] $end
$var wire 1 & Data_TX [3] $end
$var wire 1 ' Data_TX [2] $end
$var wire 1 ( Data_TX [1] $end
$var wire 1 ) Data_TX [0] $end
$var wire 1 * rst_i $end
$var wire 1 + send_data $end
$var wire 1 , tx $end

$scope module i1 $end
$var wire 1 - gnd $end
$var wire 1 . vcc $end
$var wire 1 / unknown $end
$var wire 1 0 devoe $end
$var wire 1 1 devclrn $end
$var wire 1 2 devpor $end
$var wire 1 3 ww_devoe $end
$var wire 1 4 ww_devclrn $end
$var wire 1 5 ww_devpor $end
$var wire 1 6 ww_clk_i $end
$var wire 1 7 ww_rst_i $end
$var wire 1 8 ww_send_data $end
$var wire 1 9 ww_Data_TX [7] $end
$var wire 1 : ww_Data_TX [6] $end
$var wire 1 ; ww_Data_TX [5] $end
$var wire 1 < ww_Data_TX [4] $end
$var wire 1 = ww_Data_TX [3] $end
$var wire 1 > ww_Data_TX [2] $end
$var wire 1 ? ww_Data_TX [1] $end
$var wire 1 @ ww_Data_TX [0] $end
$var wire 1 A ww_tx $end
$var wire 1 B \tx~output_o\ $end
$var wire 1 C \clk_i~input_o\ $end
$var wire 1 D \rst_i~input_o\ $end
$var wire 1 E \send_data~input_o\ $end
$var wire 1 F \send_pause~0_combout\ $end
$var wire 1 G \send_pause~q\ $end
$var wire 1 H \baudrate_counter[0]~1_combout\ $end
$var wire 1 I \baudrate_counter[0]~3_combout\ $end
$var wire 1 J \baudrate_counter[0]~6_combout\ $end
$var wire 1 K \baudrate_counter[1]~7_combout\ $end
$var wire 1 L \Equal0~0_combout\ $end
$var wire 1 M \baudrate_counter[2]~2_combout\ $end
$var wire 1 N \baudrate_counter[2]~4_combout\ $end
$var wire 1 O \baudrate_counter[2]~5_combout\ $end
$var wire 1 P \bit_counter[3]~0_combout\ $end
$var wire 1 Q \bit_counter~4_combout\ $end
$var wire 1 R \bit_counter[3]~2_combout\ $end
$var wire 1 S \bit_counter[2]~3_combout\ $end
$var wire 1 T \bit_counter~5_combout\ $end
$var wire 1 U \bit_counter~1_combout\ $end
$var wire 1 V \Equal1~0_combout\ $end
$var wire 1 W \state~14_combout\ $end
$var wire 1 X \state~11_combout\ $end
$var wire 1 Y \state~15_combout\ $end
$var wire 1 Z \state~16_combout\ $end
$var wire 1 [ \state~17_combout\ $end
$var wire 1 \ \state.WAIT_FOR_SEND_STOP_BIT~q\ $end
$var wire 1 ] \baudrate_counter[0]~0_combout\ $end
$var wire 1 ^ \state~19_combout\ $end
$var wire 1 _ \state~12_combout\ $end
$var wire 1 ` \state~20_combout\ $end
$var wire 1 a \state.WAIT_FOR_TX_START~q\ $end
$var wire 1 b \sending_register[9]~0_combout\ $end
$var wire 1 c \state~18_combout\ $end
$var wire 1 d \state.SEND_START_BIT~q\ $end
$var wire 1 e \state~10_combout\ $end
$var wire 1 f \state~13_combout\ $end
$var wire 1 g \state.SENDING_BITS~q\ $end
$var wire 1 h \tx~0_combout\ $end
$var wire 1 i \tx~1_combout\ $end
$var wire 1 j \tx~2_combout\ $end
$var wire 1 k \tx~3_combout\ $end
$var wire 1 l \tx~4_combout\ $end
$var wire 1 m \Data_TX[1]~input_o\ $end
$var wire 1 n \Data_TX[2]~input_o\ $end
$var wire 1 o \tx~5_combout\ $end
$var wire 1 p \Data_TX[7]~input_o\ $end
$var wire 1 q \Data_TX[0]~input_o\ $end
$var wire 1 r \tx~6_combout\ $end
$var wire 1 s \tx~7_combout\ $end
$var wire 1 t \Data_TX[5]~input_o\ $end
$var wire 1 u \Data_TX[4]~input_o\ $end
$var wire 1 v \Data_TX[3]~input_o\ $end
$var wire 1 w \Mux0~0_combout\ $end
$var wire 1 x \Data_TX[6]~input_o\ $end
$var wire 1 y \Mux0~1_combout\ $end
$var wire 1 z \tx~8_combout\ $end
$var wire 1 { \tx~9_combout\ $end
$var wire 1 | \tx~reg0_q\ $end
$var wire 1 } bit_counter [3] $end
$var wire 1 ~ bit_counter [2] $end
$var wire 1 !! bit_counter [1] $end
$var wire 1 "! bit_counter [0] $end
$var wire 1 #! baudrate_counter [2] $end
$var wire 1 $! baudrate_counter [1] $end
$var wire 1 %! baudrate_counter [0] $end
$var wire 1 &! sending_register [9] $end
$var wire 1 '! sending_register [8] $end
$var wire 1 (! sending_register [7] $end
$var wire 1 )! sending_register [6] $end
$var wire 1 *! sending_register [5] $end
$var wire 1 +! sending_register [4] $end
$var wire 1 ,! sending_register [3] $end
$var wire 1 -! sending_register [2] $end
$var wire 1 .! sending_register [1] $end
$var wire 1 /! sending_register [0] $end
$upscope $end
$upscope $end
$enddefinitions $end
#0
$dumpvars
0!
1*
0+
0,
0-
1.
x/
10
11
12
13
14
15
06
17
08
0A
0B
0C
1D
0E
0F
0G
0H
0I
0J
0K
1L
0M
0N
0O
0P
1Q
0R
0S
1T
0U
0V
0W
1X
1Y
1Z
0[
0\
0]
1^
1_
0`
0a
0b
0c
0d
0e
0f
0g
0h
0i
0j
1k
1l
0m
0n
0o
0p
1q
0r
0s
1t
0u
0v
0w
1x
0y
0z
1{
0|
0"
1#
1$
0%
0&
0'
0(
1)
09
1:
1;
0<
0=
0>
0?
1@
0}
0~
0!!
0"!
0#!
0$!
0%!
0&!
0'!
0(!
0)!
0*!
0+!
0,!
0-!
0.!
x/!
$end
#5000
1!
16
1C
1|
1B
1j
1A
1,
#10000
0!
06
0C
#15000
1!
16
1C
#20000
0!
06
0C
#25000
1!
16
1C
#30000
0!
06
0C
#35000
1!
16
1C
#40000
0!
06
0C
#45000
1!
16
1C
#50000
0!
06
0C
#55000
1!
16
1C
#60000
0!
1+
06
18
1E
0C
1F
1H
1b
0k
0l
1c
1I
0X
0Z
0_
1J
1K
1`
#65000
1!
16
1C
1G
1%!
1$!
1a
1d
1&!
1.!
1)!
1(!
1r
0Y
1h
1X
0^
0j
0J
0L
1N
0H
0b
0c
0{
1_
1i
1Z
1s
1z
1c
1j
1{
#70000
0!
06
0C
#75000
1!
16
1C
0%!
1J
0K
#80000
0!
06
0C
#85000
1!
16
1C
1%!
0$!
0J
#90000
0!
06
0C
#95000
1!
16
1C
0%!
1J
1K
1L
0N
1e
1^
0_
0Z
0i
0j
0c
1f
0{
#100000
0!
0+
06
08
0E
0C
#105000
1!
16
1C
1%!
1$!
0d
1g
0|
0B
1Y
0J
0L
1N
0e
0A
0^
1_
0f
1i
1Z
0,
1f
#110000
0!
06
0C
#115000
1!
16
1C
0%!
1J
0K
#120000
0!
06
0C
#125000
1!
16
1C
1%!
0$!
0J
#130000
0!
06
0C
#135000
1!
16
1C
0%!
1J
1K
1L
0N
1P
1R
1{
0i
#140000
0!
06
0C
#145000
1!
16
1C
1%!
1$!
1!!
1"!
1|
1B
0r
0T
0s
1y
0J
0L
1N
0P
1A
0R
0{
1i
0z
1,
1j
1{
#150000
0!
06
0C
#155000
1!
16
1C
0%!
1J
0K
#160000
0!
06
0C
#165000
1!
16
1C
1%!
0$!
0J
#170000
0!
06
0C
#175000
1!
16
1C
0%!
1J
1K
1L
0N
1P
1R
0i
0j
0{
#180000
0!
06
0C
#185000
1!
16
1C
1%!
1$!
0"!
0|
0B
0Q
1S
1T
1r
1w
0J
0L
1N
0P
0A
0R
1i
0,
0S
#190000
0!
06
0C
#195000
1!
16
1C
0%!
1J
0K
#200000
0!
06
0C
#205000
1!
16
1C
1%!
0$!
0J
#210000
0!
06
0C
#215000
1!
16
1C
0%!
1J
1K
1L
0N
1P
1R
0i
1S
#220000
0!
06
0C
#225000
1!
16
1C
1%!
1$!
0!!
1~
1"!
0r
1z
0T
1s
0w
0J
0L
1N
0P
0R
1i
0y
0s
0z
#230000
0!
06
0C
#235000
1!
16
1C
0%!
1J
0K
#240000
0!
06
0C
#245000
1!
16
1C
1%!
0$!
0J
#250000
0!
06
0C
#255000
1!
16
1C
0%!
1J
1K
1L
0N
1P
1R
0i
#260000
0!
06
0C
#265000
1!
16
1C
1%!
1$!
0"!
1Q
1T
1r
0J
0L
1N
0P
0R
1i
1s
#270000
0!
06
0C
#275000
1!
16
1C
0%!
1J
0K
#280000
0!
06
0C
#285000
1!
16
1C
1%!
0$!
0J
#290000
0!
06
0C
#295000
1!
16
1C
0%!
1J
1K
1L
0N
1P
1R
0i
#300000
0!
06
0C
#305000
1!
16
1C
1%!
1$!
1!!
1"!
0r
0T
0s
1y
0J
0L
1N
0P
0R
1i
1z
#310000
0!
06
0C
#315000
1!
16
1C
0%!
1J
0K
#320000
0!
06
0C
#325000
1!
16
1C
1%!
0$!
0J
#330000
0!
06
0C
#335000
1!
16
1C
0%!
1J
1K
1L
0N
1P
1R
1{
0i
#340000
0!
06
0C
#345000
1!
16
1C
1%!
1$!
0"!
1|
1B
0Q
0S
1T
1U
1r
1w
0J
0L
1N
0P
1A
0R
0{
1i
1,
1j
1S
1{
#350000
0!
06
0C
#355000
1!
16
1C
0%!
1J
0K
#360000
0!
06
0C
#365000
1!
16
1C
1%!
0$!
0J
#370000
0!
06
0C
#375000
1!
16
1C
0%!
1J
1K
1L
0N
1P
1R
0i
0j
0S
#380000
0!
06
0C
#385000
1!
16
1C
1%!
1$!
0!!
0~
1"!
1}
0r
0z
0T
1s
0w
0J
0L
1N
0P
0R
1i
0y
1z
0{
0s
0z
1j
1{
#390000
0!
06
0C
#395000
1!
16
1C
0%!
1J
0K
#400000
0!
06
0C
#405000
1!
16
1C
1%!
0$!
0J
#410000
0!
06
0C
#415000
1!
16
1C
0%!
1J
1K
1L
0N
1P
1R
0i
0j
0{
#420000
0!
06
0C
#425000
1!
16
1C
1%!
1$!
0"!
0|
0B
0U
1V
0J
0L
1N
0P
0A
0R
1i
0,
#430000
0!
06
0C
#435000
1!
16
1C
0%!
1J
0K
#440000
0!
06
0C
#445000
1!
16
1C
1%!
0$!
0J
#450000
0!
06
0C
#455000
1!
16
1C
0%!
1J
1K
1L
0N
1P
1R
1W
0X
0Z
0_
1[
1^
0f
#460000
0!
06
0C
#465000
1!
16
1C
1%!
1$!
0}
1\
0g
1M
0i
0Y
1Q
1T
0V
1r
0J
0L
1N
0P
0R
0M
1s
0W
1X
1i
1O
1Z
1_
0[
0^
1z
0O
1[
#470000
0!
06
0C
#475000
1!
16
1C
0%!
1J
0K
#480000
0!
0$
1(
0)
06
0@
1?
0;
0t
1m
0q
0C
#485000
1!
16
1C
1%!
0$!
0J
#490000
0!
06
0C
#495000
1!
16
1C
0%!
1J
1K
1L
0N
1]
0I
0_
0`
1l
1M
0Z
0i
0[
1{
0J
0K
#500000
0!
06
0C
#505000
1!
16
1C
0\
0a
1|
1B
0F
0M
1^
1j
1k
1Y
0]
0h
1A
1_
1Z
1`
1,
0`
#510000
0!
06
0C
#515000
1!
16
1C
0G
#520000
0!
1+
06
18
1E
0C
1F
1H
1b
0k
0l
1c
1I
0X
0Z
0_
1J
1K
1`
#525000
1!
16
1C
1G
1%!
1$!
1a
1d
1-!
0.!
0)!
0r
0Y
1h
1X
0^
0j
0J
0L
1N
0H
0b
0c
0{
1_
1i
1Z
0s
0z
1c
1j
1{
#530000
0!
06
0C
#535000
1!
16
1C
0%!
1J
0K
#540000
0!
06
0C
#545000
1!
16
1C
1%!
0$!
0J
#550000
0!
06
0C
#555000
1!
16
1C
0%!
1J
1K
1L
0N
1e
1^
0_
0Z
0i
0j
0c
1f
0{
#560000
0!
0+
06
08
0E
0C
#565000
1!
16
1C
1%!
1$!
0d
1g
0|
0B
1Y
0J
0L
1N
0e
0A
0^
1_
0f
1i
1Z
0,
1f
#570000
0!
06
0C
#575000
1!
16
1C
0%!
1J
0K
#580000
0!
06
0C
#585000
1!
16
1C
1%!
0$!
0J
#590000
0!
06
0C
#595000
1!
16
1C
0%!
1J
1K
1L
0N
1P
1R
0i
#600000
0!
06
0C
#605000
1!
16
1C
1%!
1$!
1!!
1"!
1o
0T
0J
0L
1N
0P
0R
1i
1s
1z
#610000
0!
06
0C
#615000
1!
16
1C
0%!
1J
0K
#620000
0!
06
0C
#625000
1!
16
1C
1%!
0$!
0J
#630000
0!
06
0C
#635000
1!
16
1C
0%!
1J
1K
1L
0N
1P
1R
1{
0i
#640000
0!
06
0C
#645000
1!
16
1C
1%!
1$!
0"!
1|
1B
0Q
1S
1T
0o
1w
0J
0L
1N
0P
1A
0R
0{
1i
1y
0s
1,
0z
1j
0S
1{
#650000
0!
06
0C
#655000
1!
16
1C
0%!
1J
0K
#660000
0!
06
0C
#665000
1!
16
1C
1%!
0$!
0J
#670000
0!
06
0C
#675000
1!
16
1C
0%!
1J
1K
1L
0N
1P
1R
0i
0j
1S
0{
#680000
0!
06
0C
#685000
1!
16
1C
1%!
1$!
0!!
1~
1"!
0|
0B
1o
1z
0T
0w
0J
0L
1N
0P
0A
0R
1i
0y
0,
0z
#690000
0!
06
0C
#695000
1!
16
1C
0%!
1J
0K
#700000
0!
06
0C
#705000
1!
16
1C
1%!
0$!
0J
#710000
0!
06
0C
#715000
1!
16
1C
0%!
1J
1K
1L
0N
1P
1R
0i
#720000
0!
06
0C
#725000
1!
16
1C
1%!
1$!
0"!
1Q
1T
0o
0J
0L
1N
0P
0R
1i
#730000
0!
06
0C
#735000
1!
16
1C
0%!
1J
0K
#740000
0!
06
0C
#745000
1!
16
1C
1%!
0$!
0J
#750000
0!
06
0C
#755000
1!
16
1C
0%!
1J
1K
1L
0N
1P
1R
0i
#760000
0!
06
0C
#765000
1!
16
1C
1%!
1$!
1!!
1"!
1o
0T
0J
0L
1N
0P
0R
1i
1s
#770000
0!
06
0C
#775000
1!
16
1C
0%!
1J
0K
#780000
0!
06
0C
#785000
1!
16
1C
1%!
0$!
0J
#790000
0!
06
0C
#795000
1!
16
1C
0%!
1J
1K
1L
0N
1P
1R
0i
#800000
0!
06
0C
#805000
1!
16
1C
1%!
1$!
0"!
0Q
0S
1T
1U
0o
1w
0J
0L
1N
0P
0R
1i
1y
0s
1z
1S
#810000
0!
06
0C
#815000
1!
16
1C
0%!
1J
0K
#820000
0!
06
0C
#825000
1!
16
1C
1%!
0$!
0J
#830000
0!
06
0C
#835000
1!
16
1C
0%!
1J
1K
1L
0N
1P
1R
1{
0i
0S
#840000
0!
06
0C
#845000
1!
16
1C
1%!
1$!
0!!
0~
1"!
1}
1|
1B
1o
0z
0T
0w
0J
0L
1N
0P
1A
0R
1i
0y
0{
1,
1j
1{
#850000
0!
06
0C
#855000
1!
16
1C
0%!
1J
0K
#860000
0!
06
0C
#865000
1!
16
1C
1%!
0$!
0J
#870000
0!
06
0C
#875000
1!
16
1C
0%!
1J
1K
1L
0N
1P
1R
0i
0j
0{
#880000
0!
06
0C
#885000
1!
16
1C
1%!
1$!
0"!
0|
0B
0U
1V
0o
0J
0L
1N
0P
0A
0R
1i
0,
#890000
0!
06
0C
#895000
1!
16
1C
0%!
1J
0K
#900000
0!
06
0C
#905000
1!
16
1C
1%!
0$!
0J
#910000
0!
06
0C
#915000
1!
16
1C
0%!
1J
1K
1L
0N
1P
1R
1W
0X
0Z
0_
1[
1^
0f
#920000
0!
06
0C
#925000
1!
16
1C
1%!
1$!
0}
1\
0g
1M
0i
0Y
1Q
1T
0V
0J
0L
1N
0P
0R
0M
0W
1X
1i
1O
1Z
1_
0[
0^
0O
1[
#930000
0!
06
0C
#935000
1!
16
1C
0%!
1J
0K
#940000
0!
06
0C
#945000
1!
16
1C
1%!
0$!
0J
#950000
0!
06
0C
#955000
1!
16
1C
0%!
1J
1K
1L
0N
1]
0I
0_
0`
1l
1M
0Z
0i
0[
1{
0J
0K
#960000
0!
06
0C
#965000
1!
16
1C
0\
0a
1|
1B
0F
0M
1^
1j
1k
1Y
0]
0h
1A
1_
1Z
1`
1,
0`
#970000
0!
06
0C
#975000
1!
16
1C
0G
#980000
0!
06
0C
#985000
1!
16
1C
#990000
0!
06
0C
#995000
1!
16
1C
