UART/simulation/qsim/UART.msim.vcd
$comment
	File created using the following command:
		vcd file UART.msim.vcd -direction
$end
$date
	Fri Sep 08 08:39:57 2023
$end
$version
	ModelSim Version 2020.1
$end
$timescale
	1ps
$end

$scope module uart_vhd_vec_tst $end
$var wire 1 ! Clk_I $end
$var wire 1 " Req_O $end
$var wire 1 # Rst_I $end
$var wire 1 $ Rx $end
$var wire 1 % Sampling_Rx $end
$var wire 1 & Send_data $end
$var wire 1 ' Tx $end

$scope module i1 $end
$var wire 1 ( gnd $end
$var wire 1 ) vcc $end
$var wire 1 * unknown $end
$var wire 1 + devoe $end
$var wire 1 , devclrn $end
$var wire 1 - devpor $end
$var wire 1 . ww_devoe $end
$var wire 1 / ww_devclrn $end
$var wire 1 0 ww_devpor $end
$var wire 1 1 ww_Clk_I $end
$var wire 1 2 ww_Rst_I $end
$var wire 1 3 ww_Rx $end
$var wire 1 4 ww_Req_O $end
$var wire 1 5 ww_Sampling_Rx $end
$var wire 1 6 ww_Send_data $end
$var wire 1 7 ww_Tx $end
$var wire 1 8 \Req_O~output_o\ $end
$var wire 1 9 \Sampling_Rx~output_o\ $end
$var wire 1 : \Tx~output_o\ $end
$var wire 1 ; \Clk_I~input_o\ $end
$var wire 1 < \Rst_I~input_o\ $end
$var wire 1 = \Rx~input_o\ $end
$var wire 1 > \UartRX|Selector7~2_combout\ $end
$var wire 1 ? \UartRX|state~13_combout\ $end
$var wire 1 @ \UartRX|state~20_combout\ $end
$var wire 1 A \UartRX|state~19_combout\ $end
$var wire 1 B \UartRX|state.WAIT_HALF_BIT~q\ $end
$var wire 1 C \UartRX|baudrate_counter[0]~0_combout\ $end
$var wire 1 D \UartRX|baudrate_counter[0]~4_combout\ $end
$var wire 1 E \UartRX|baudrate_counter[1]~5_combout\ $end
$var wire 1 F \UartRX|state~14_combout\ $end
$var wire 1 G \UartRX|state~15_combout\ $end
$var wire 1 H \UartRX|state~17_combout\ $end
$var wire 1 I \UartRX|state.WAIT_FOR_RX_START~q\ $end
$var wire 1 J \UartRX|baudrate_counter[2]~1_combout\ $end
$var wire 1 K \UartRX|baudrate_counter[2]~2_combout\ $end
$var wire 1 L \UartRX|state~18_combout\ $end
$var wire 1 M \UartRX|state.RECEIVE_BITS~q\ $end
$var wire 1 N \UartRX|baudrate_counter[2]~3_combout\ $end
$var wire 1 O \UartRX|Equal1~0_combout\ $end
$var wire 1 P \UartRX|bit_counter[2]~4_combout\ $end
$var wire 1 Q \UartRX|bit_counter[0]~0_combout\ $end
$var wire 1 R \UartRX|bit_counter[0]~1_combout\ $end
$var wire 1 S \UartRX|bit_counter[0]~2_combout\ $end
$var wire 1 T \UartRX|bit_counter[1]~3_combout\ $end
$var wire 1 U \UartRX|Add1~0_combout\ $end
$var wire 1 V \UartRX|state~12_combout\ $end
$var wire 1 W \UartRX|state~16_combout\ $end
$var wire 1 X \UartRX|state.WAIT_FOR_STOP_BIT~q\ $end
$var wire 1 Y \UartRX|Selector7~0_combout\ $end
$var wire 1 Z \UartRX|Selector7~1_combout\ $end
$var wire 1 [ \UartRX|req_o~q\ $end
$var wire 1 \ \UartRX|sampling_rx~0_combout\ $end
$var wire 1 ] \UartRX|sampling_rx~q\ $end
$var wire 1 ^ \Send_data~input_o\ $end
$var wire 1 _ \UartTx|send_pause~0_combout\ $end
$var wire 1 ` \UartTx|send_pause~q\ $end
$var wire 1 a \UartTx|bit_counter[0]~0_combout\ $end
$var wire 1 b \UartTx|state~13_combout\ $end
$var wire 1 c \UartTx|state.SET_FOR_TX_START~q\ $end
$var wire 1 d \UartTx|Selector2~0_combout\ $end
$var wire 1 e \UartTx|Selector2~1_combout\ $end
$var wire 1 f \UartTx|state.SENDING_BITS~q\ $end
$var wire 1 g \UartTx|baudrate_counter[0]~6_combout\ $end
$var wire 1 h \UartTx|baudrate_counter[1]~5_combout\ $end
$var wire 1 i \UartTx|Selector4~0_combout\ $end
$var wire 1 j \UartTx|state~14_combout\ $end
$var wire 1 k \UartTx|state.COUNT_BIT~q\ $end
$var wire 1 l \UartTx|baudrate_counter[1]~0_combout\ $end
$var wire 1 m \UartTx|baudrate_counter[1]~1_combout\ $end
$var wire 1 n \UartTx|baudrate_counter[2]~2_combout\ $end
$var wire 1 o \UartTx|baudrate_counter[2]~3_combout\ $end
$var wire 1 p \UartTx|baudrate_counter[2]~4_combout\ $end
$var wire 1 q \UartTx|Equal0~0_combout\ $end
$var wire 1 r \UartTx|baudrate_counter[1]~7_combout\ $end
$var wire 1 s \UartTx|state~12_combout\ $end
$var wire 1 t \UartTx|state.WAIT_FOR_SEND_STOP_BIT~q\ $end
$var wire 1 u \UartTx|bit_counter[0]~1_combout\ $end
$var wire 1 v \UartTx|bit_counter[0]~5_combout\ $end
$var wire 1 w \UartTx|bit_counter[0]~2_combout\ $end
$var wire 1 x \UartTx|bit_counter[1]~4_combout\ $end
$var wire 1 y \UartTx|Add1~0_combout\ $end
$var wire 1 z \UartTx|bit_counter[2]~3_combout\ $end
$var wire 1 { \UartTx|Add1~1_combout\ $end
$var wire 1 | \UartTx|bit_counter[3]~6_combout\ $end
$var wire 1 } \UartTx|Equal1~0_combout\ $end
$var wire 1 ~ \UartRX|receive_register[7]~0_combout\ $end
$var wire 1 !! \UartRX|data_o~0_combout\ $end
$var wire 1 "! \UartRX|data_o[7]~1_combout\ $end
$var wire 1 #! \UartTx|sending_register[7]~0_combout\ $end
$var wire 1 $! \UartRX|data_o~2_combout\ $end
$var wire 1 %! \UartRX|data_o~3_combout\ $end
$var wire 1 &! \UartTx|Mux0~0_combout\ $end
$var wire 1 '! \UartRX|data_o~4_combout\ $end
$var wire 1 (! \UartTx|Mux0~1_combout\ $end
$var wire 1 )! \UartRX|data_o~5_combout\ $end
$var wire 1 *! \UartRX|data_o~6_combout\ $end
$var wire 1 +! \UartRX|data_o~7_combout\ $end
$var wire 1 ,! \UartTx|Mux0~2_combout\ $end
$var wire 1 -! \UartRX|data_o~8_combout\ $end
$var wire 1 .! \UartTx|Mux0~3_combout\ $end
$var wire 1 /! \UartTx|Selector4~5_combout\ $end
$var wire 1 0! \UartTx|Selector4~6_combout\ $end
$var wire 1 1! \UartTx|Selector4~1_combout\ $end
$var wire 1 2! \UartTx|Selector4~2_combout\ $end
$var wire 1 3! \UartTx|Selector4~3_combout\ $end
$var wire 1 4! \UartTx|Selector4~4_combout\ $end
$var wire 1 5! \UartTx|tx~q\ $end
$var wire 1 6! \UartRX|baudrate_counter\ [2] $end
$var wire 1 7! \UartRX|baudrate_counter\ [1] $end
$var wire 1 8! \UartRX|baudrate_counter\ [0] $end
$var wire 1 9! \UartRX|data_o\ [7] $end
$var wire 1 :! \UartRX|data_o\ [6] $end
$var wire 1 ;! \UartRX|data_o\ [5] $end
$var wire 1 <! \UartRX|data_o\ [4] $end
$var wire 1 =! \UartRX|data_o\ [3] $end
$var wire 1 >! \UartRX|data_o\ [2] $end
$var wire 1 ?! \UartRX|data_o\ [1] $end
$var wire 1 @! \UartRX|data_o\ [0] $end
$var wire 1 A! \UartTx|bit_counter\ [3] $end
$var wire 1 B! \UartTx|bit_counter\ [2] $end
$var wire 1 C! \UartTx|bit_counter\ [1] $end
$var wire 1 D! \UartTx|bit_counter\ [0] $end
$var wire 1 E! \UartRX|bit_counter\ [2] $end
$var wire 1 F! \UartRX|bit_counter\ [1] $end
$var wire 1 G! \UartRX|bit_counter\ [0] $end
$var wire 1 H! \UartTx|baudrate_counter\ [2] $end
$var wire 1 I! \UartTx|baudrate_counter\ [1] $end
$var wire 1 J! \UartTx|baudrate_counter\ [0] $end
$var wire 1 K! \UartRX|receive_register\ [7] $end
$var wire 1 L! \UartRX|receive_register\ [6] $end
$var wire 1 M! \UartRX|receive_register\ [5] $end
$var wire 1 N! \UartRX|receive_register\ [4] $end
$var wire 1 O! \UartRX|receive_register\ [3] $end
$var wire 1 P! \UartRX|receive_register\ [2] $end
$var wire 1 Q! \UartRX|receive_register\ [1] $end
$var wire 1 R! \UartRX|receive_register\ [0] $end
$var wire 1 S! \UartTx|sending_register\ [7] $end
$var wire 1 T! \UartTx|sending_register\ [6] $end
$var wire 1 U! \UartTx|sending_register\ [5] $end
$var wire 1 V! \UartTx|sending_register\ [4] $end
$var wire 1 W! \UartTx|sending_register\ [3] $end
$var wire 1 X! \UartTx|sending_register\ [2] $end
$var wire 1 Y! \UartTx|sending_register\ [1] $end
$var wire 1 Z! \UartTx|sending_register\ [0] $end
$var wire 1 [! \ALT_INV_Rst_I~input_o\ $end
$upscope $end
$upscope $end
$enddefinitions $end
#0
$dumpvars
0!
0"
1#
1$
0%
0&
0'
0(
1)
x*
1+
1,
1-
1.
1/
10
01
12
13
04
05
06
07
08
09
0:
0;
1<
1=
0>
0?
1@
0A
0B
0C
0D
0E
0F
0G
0H
0I
1J
0K
0L
0M
0N
1O
0P
0Q
0R
0S
0T
1U
0V
0W
0X
0Y
0Z
0[
0\
0]
0^
0_
0`
0a
0b
0c
0d
0e
0f
0g
0h
0i
0j
0k
0l
0m
0n
0o
0p
1q
1r
0s
0t
0u
0v
0w
0x
0y
0z
0{
0|
0}
0~
0!!
0"!
0#!
0$!
0%!
0&!
0'!
0(!
0)!
0*!
0+!
0,!
0-!
0.!
0/!
00!
11!
02!
03!
14!
05!
0[!
06!
07!
08!
09!
0:!
0;!
0<!
0=!
0>!
0?!
0@!
0A!
0B!
0C!
0D!
0E!
0F!
0G!
0H!
0I!
0J!
0K!
0L!
0M!
0N!
0O!
0P!
0Q!
0R!
0S!
0T!
0U!
0V!
0W!
0X!
0Y!
0Z!
$end
#5000
1!
11
1;
15!
1:
17
1'
#10000
0!
01
0;
#15000
1!
11
1;
#20000
0!
01
0;
#25000
1!
11
1;
#30000
0!
01
0;
#35000
1!
11
1;
#40000
0!
01
0;
#45000
1!
11
1;
#50000
0!
01
0;
#55000
1!
11
1;
#60000
0!
01
0;
#65000
1!
11
1;
#70000
0!
0$
01
03
0=
0;
1?
1C
1Z
1D
0J
1G
1A
1H
#75000
1!
11
1;
1B
18!
1I
1[
18
0?
0D
1J
0O
14
0G
1"
#80000
0!
01
0;
#85000
1!
11
1;
08!
1D
1E
1F
0J
1O
0@
1G
1R
1P
1S
1T
1L
0A
#90000
0!
01
0;
#95000
1!
11
1;
0B
18!
17!
1M
1E!
1G!
1F!
0U
0P
1Q
0S
1\
1~
0D
1J
0O
0F
1K
1@
0G
0L
0K
0\
0~
1P
0Q
0R
1L
1S
#100000
0!
01
0;
#105000
1!
11
1;
08!
1D
0E
#110000
0!
1$
01
13
1=
0;
#115000
1!
11
1;
18!
07!
0D
#120000
0!
01
0;
#125000
1!
11
1;
08!
1D
1E
0J
1O
1K
1Q
1\
1~
1R
0S
#130000
0!
01
0;
#135000
1!
11
1;
18!
17!
0G!
1]
1K!
19
1'!
1S
0T
0D
1J
0O
15
0K
0Q
0\
0~
1%
0R
0S
1T
#140000
0!
01
0;
#145000
1!
11
1;
08!
0]
09
1D
0E
05
0%
#150000
0!
01
0;
#155000
1!
11
1;
18!
07!
0D
#160000
0!
01
0;
#165000
1!
11
1;
08!
1D
1E
0J
1O
1K
1Q
1\
1~
1R
1S
0T
#170000
0!
01
0;
#175000
1!
11
1;
18!
17!
1G!
0F!
1]
1L!
19
1!!
0S
0D
1J
0O
15
0K
0Q
0\
0~
1%
0R
1S
#180000
0!
01
0;
#185000
1!
11
1;
08!
0]
09
1D
0E
05
0%
#190000
0!
0$
01
03
0=
0;
#195000
1!
11
1;
18!
07!
0D
#200000
0!
01
0;
#205000
1!
11
1;
08!
1D
1E
0J
1O
1K
1Q
1\
1~
1R
0S
#210000
0!
01
0;
#215000
1!
11
1;
18!
17!
0G!
1]
0K!
1M!
19
1$!
0'!
1S
1T
1U
0D
1J
0O
15
0K
0\
0~
0P
0Q
1%
0R
1P
0S
0T
#220000
0!
01
0;
#225000
1!
11
1;
08!
0]
09
1D
0E
05
0%
#230000
0!
01
0;
#235000
1!
11
1;
18!
07!
0D
#240000
0!
01
0;
#245000
1!
11
1;
08!
1D
1E
0J
1O
1K
1Q
1\
1~
1R
0P
1S
1T
#250000
0!
01
0;
#255000
1!
11
1;
18!
17!
0E!
1G!
1F!
1]
0L!
1N!
19
1%!
0!!
0S
0U
1P
0Q
1V
0D
1J
0O
15
0K
0\
0~
0@
1G
0R
0P
0V
1%
1@
0G
1S
0L
1L
#260000
0!
01
0;
#265000
1!
11
1;
08!
0]
09
1D
0E
05
0%
#270000
0!
01
0;
#275000
1!
11
1;
18!
07!
0D
#280000
0!
01
0;
#285000
1!
11
1;
08!
1D
1E
0J
1O
1K
1Q
1\
1~
1R
0S
#290000
0!
01
0;
#295000
1!
11
1;
18!
17!
0G!
1]
0M!
1O!
19
1-!
0$!
1S
0T
0D
1J
0O
15
0K
0Q
0\
0~
1%
0R
0S
1T
#300000
0!
01
0;
#305000
1!
11
1;
08!
0]
09
1D
0E
05
0%
#310000
0!
01
0;
#315000
1!
11
1;
18!
07!
0D
#320000
0!
01
0;
#325000
1!
11
1;
08!
1D
1E
0J
1O
1K
1Q
1\
1~
1R
1S
0T
#330000
0!
01
0;
#335000
1!
11
1;
18!
17!
1G!
0F!
1]
0N!
1P!
19
1)!
0%!
0S
0D
1J
0O
15
0K
0Q
0\
0~
1%
0R
1S
#340000
0!
01
0;
#345000
1!
11
1;
08!
0]
09
1D
0E
05
0%
#350000
0!
1$
01
13
1=
0;
#355000
1!
11
1;
18!
07!
0D
#360000
0!
01
0;
#365000
1!
11
1;
08!
1D
1E
0J
1O
1K
1Q
1\
1~
1R
0S
#370000
0!
01
0;
#375000
1!
11
1;
18!
17!
0G!
1]
1K!
0O!
1Q!
19
1*!
0-!
1'!
1S
1T
1U
0D
1J
0O
15
0K
0\
0~
1P
0Q
1%
0R
0P
0S
0T
#380000
0!
01
0;
#385000
1!
11
1;
08!
0]
09
1D
0E
05
0%
#390000
0!
01
0;
#395000
1!
11
1;
18!
07!
0D
#400000
0!
01
0;
#405000
1!
11
1;
08!
1D
1E
0J
1O
1K
1V
1\
1~
0@
1G
0L
1W
#410000
0!
01
0;
#415000
1!
11
1;
18!
17!
0M
1X
1]
1L!
0P!
1R!
19
1+!
0)!
1!!
1N
0V
0~
0D
1J
0O
15
0K
1@
0G
0W
1%
1W
0N
#420000
0!
01
0;
#425000
1!
11
1;
08!
1D
0E
#430000
0!
01
0;
#435000
1!
11
1;
18!
07!
0D
#440000
0!
01
0;
#445000
1!
11
1;
08!
1D
1E
0J
1O
1Y
1>
0@
0C
0Z
1"!
1K
1N
0D
0E
1J
0K
1G
0H
0W
0N
#450000
0!
01
0;
#455000
1!
11
1;
0I
0X
0[
1:!
19!
1?!
1@!
08
0Y
04
0>
1@
0"!
0"
1A
0G
1H
0A
0H
#460000
0!
01
0;
#465000
1!
11
1;
#470000
0!
01
0;
#475000
1!
11
1;
#480000
0!
01
0;
#485000
1!
11
1;
#490000
0!
01
0;
#495000
1!
11
1;
#500000
0!
1&
01
16
1^
0;
1_
1a
1d
1l
1#!
01!
04!
1m
1e
1b
1u
1w
1g
1h
#505000
1!
11
1;
1`
1c
1f
1J!
1I!
1T!
1S!
1Y!
1Z!
05!
0:
1,!
0q
0u
0g
1o
0d
0#!
07
0w
13!
1.!
0'
1/!
#510000
0!
01
0;
#515000
1!
11
1;
0J!
1g
0h
#520000
0!
01
0;
#525000
1!
11
1;
1J!
0I!
0g
#530000
0!
01
0;
#535000
1!
11
1;
0J!
1g
1h
1i
0o
1q
0e
03!
1j
10!
14!
#540000
0!
01
0;
#545000
1!
11
1;
0f
1J!
1I!
1k
15!
1:
1d
0m
0r
12!
0g
1o
0q
0i
1n
1u
17
1v
1w
00!
13!
0j
1g
0n
1p
1e
1'
0p
#550000
0!
01
0;
#555000
1!
11
1;
1f
0k
1D!
0d
1m
1r
0v
02!
0u
1v
0w
0g
#560000
0!
01
0;
#565000
1!
11
1;
0J!
1g
0h
#570000
0!
0&
01
06
0^
0;
#575000
1!
11
1;
1J!
0I!
0g
#580000
0!
01
0;
#585000
1!
11
1;
0J!
1g
1h
1i
0o
1q
0e
03!
1j
10!
#590000
0!
01
0;
#595000
1!
11
1;
0f
1J!
1I!
1k
1d
0m
0r
12!
0g
1o
0q
0i
1n
1u
0v
1w
00!
13!
0j
1g
0n
1p
1e
0p
1x
#600000
0!
01
0;
#605000
1!
11
1;
1f
0k
0D!
1C!
1(!
0.!
0,!
0d
1m
1r
0x
02!
0u
0w
0g
0/!
1x
#610000
0!
01
0;
#615000
1!
11
1;
0J!
1g
0h
#620000
0!
01
0;
#625000
1!
11
1;
1J!
0I!
0g
#630000
0!
01
0;
#635000
1!
11
1;
0J!
1g
1h
1i
0o
1q
0e
03!
1j
04!
#640000
0!
01
0;
#645000
1!
11
1;
0f
1J!
1I!
1k
05!
0:
1d
0m
0r
12!
0g
1o
0q
0i
1n
1u
07
1v
1w
13!
0j
1g
0n
1p
1e
0'
0p
#650000
0!
01
0;
#655000
1!
11
1;
1f
0k
1D!
1y
1&!
1,!
0d
1m
1r
0v
0x
02!
0u
1v
0w
0g
1x
#660000
0!
01
0;
#665000
1!
11
1;
0J!
1g
0h
#670000
0!
01
0;
#675000
1!
11
1;
1J!
0I!
0g
#680000
0!
01
0;
#685000
1!
11
1;
0J!
1g
1h
1i
0o
1q
0e
03!
1j
#690000
0!
01
0;
#695000
1!
11
1;
0f
1J!
1I!
1k
1d
0m
0r
12!
0g
1o
0q
0i
1n
1u
0v
1w
13!
0j
1g
0n
1p
1e
0p
0x
1z
#700000
0!
01
0;
#705000
1!
11
1;
1f
0k
0D!
0C!
1B!
1/!
1.!
0&!
0d
1m
1r
0z
02!
0u
0w
0g
0(!
0/!
1z
#710000
0!
01
0;
#715000
1!
11
1;
0J!
1g
0h
#720000
0!
01
0;
#725000
1!
11
1;
1J!
0I!
0g
#730000
0!
01
0;
#735000
1!
11
1;
0J!
1g
1h
1i
0o
1q
0e
03!
1j
#740000
0!
01
0;
#745000
1!
11
1;
0f
1J!
1I!
1k
1d
0m
0r
12!
0g
1o
0q
0i
1n
1u
1v
1w
13!
0j
1g
0n
1p
1e
0p
#750000
0!
01
0;
#755000
1!
11
1;
1f
0k
1D!
0d
1m
1r
0v
0z
02!
0u
1v
0w
0g
1z
#760000
0!
01
0;
#765000
1!
11
1;
0J!
1g
0h
#770000
0!
01
0;
#775000
1!
11
1;
1J!
0I!
0g
#780000
0!
01
0;
#785000
1!
11
1;
0J!
1g
1h
1i
0o
1q
0e
03!
1j
#790000
0!
01
0;
#795000
1!
11
1;
0f
1J!
1I!
1k
1d
0m
0r
12!
0g
1o
0q
0i
1n
1u
0v
1w
13!
0j
1g
0n
1p
1e
0p
1x
#800000
0!
01
0;
#805000
1!
11
1;
1f
0k
0D!
1C!
1(!
0.!
0,!
0d
1m
1r
0x
0z
02!
0u
0w
0g
1/!
1x
1z
#810000
0!
01
0;
#815000
1!
11
1;
0J!
1g
0h
#820000
0!
01
0;
#825000
1!
11
1;
1J!
0I!
0g
#830000
0!
01
0;
#835000
1!
11
1;
0J!
1g
1h
1i
0o
1q
0e
03!
1j
10!
14!
#840000
0!
01
0;
#845000
1!
11
1;
0f
1J!
1I!
1k
15!
1:
1d
0m
0r
12!
0g
1o
0q
0i
1n
1u
17
1v
1w
00!
13!
0j
1g
0n
1p
1e
1'
0p
#850000
0!
01
0;
#855000
1!
11
1;
1f
0k
1D!
0y
1{
1&!
1,!
0d
1m
1r
0v
0x
0z
02!
0u
1v
0w
0g
1x
1z
#860000
0!
01
0;
#865000
1!
11
1;
0J!
1g
0h
#870000
0!
01
0;
#875000
1!
11
1;
1J!
0I!
0g
#880000
0!
01
0;
#885000
1!
11
1;
0J!
1g
1h
1i
0o
1q
0e
03!
1j
10!
#890000
0!
01
0;
#895000
1!
11
1;
0f
1J!
1I!
1k
1d
0m
0r
12!
0g
1o
0q
0i
1n
1u
0v
1w
00!
13!
0j
1g
0n
1p
1e
0p
0x
0z
1|
#900000
0!
01
0;
#905000
1!
11
1;
1f
0k
0D!
0C!
0B!
1A!
0/!
1.!
0&!
0d
1m
1r
0|
02!
0u
0w
0g
0(!
1/!
1|
#910000
0!
01
0;
#915000
1!
11
1;
0J!
1g
0h
#920000
0!
01
0;
#925000
1!
11
1;
1J!
0I!
0g
#930000
0!
01
0;
#935000
1!
11
1;
0J!
1g
1h
1i
0o
1q
0e
03!
1j
10!
#940000
0!
01
0;
#945000
1!
11
1;
0f
1J!
1I!
1k
1d
0m
0r
12!
0g
1o
0q
0i
1n
1u
1v
1w
00!
13!
0j
1g
0n
1p
1e
0p
#950000
0!
01
0;
#955000
1!
11
1;
1f
0k
1D!
1}
0d
1m
1r
0v
0|
02!
0u
1v
0w
0g
0/!
1|
#960000
0!
01
0;
#965000
1!
11
1;
0J!
1g
0h
#970000
0!
01
0;
#975000
1!
11
1;
1J!
0I!
0g
#980000
0!
01
0;
#985000
1!
11
1;
0J!
1g
1h
1i
0o
1q
0e
1u
1s
0v
1w
0|
#990000
0!
01
0;
#995000
1!
11
1;
0f
1J!
1I!
1t
0D!
0A!
0{
0}
0b
0m
0r
0w
11!
12!
0g
1o
0q
0i
1n
03!
1b
1m
1r
01!
1g
0n
1p
0s
1/!
13!
1s
0g
0p
