WS2812_RGB_LED_1/simulation/qsim/WS2812_RGB_LED_1.msim.vcd
$comment
	File created using the following command:
		vcd file WS2812_RGB_LED_1.msim.vcd -direction
$end
$date
	Sun Aug 06 08:59:05 2023
$end
$version
	ModelSim Version 2020.1
$end
$timescale
	1ps
$end

$scope module ws2812_rgb_led_1_vhd_vec_tst $end
$var wire 1 ! CLK $end
$var wire 1 " PB $end
$var wire 1 # Q $end
$var wire 1 $ RST_N $end

$scope module i1 $end
$var wire 1 % gnd $end
$var wire 1 & vcc $end
$var wire 1 ' unknown $end
$var wire 1 ( devoe $end
$var wire 1 ) devclrn $end
$var wire 1 * devpor $end
$var wire 1 + ww_devoe $end
$var wire 1 , ww_devclrn $end
$var wire 1 - ww_devpor $end
$var wire 1 . ww_CLK $end
$var wire 1 / ww_RST_N $end
$var wire 1 0 ww_PB $end
$var wire 1 1 ww_Q $end
$var wire 1 2 \Q~output_o\ $end
$var wire 1 3 \CLK~input_o\ $end
$var wire 1 4 \PB~input_o\ $end
$var wire 1 5 \RST_N~input_o\ $end
$var wire 1 6 \Selector34~0_combout\ $end
$var wire 1 7 \state.S4~q\ $end
$var wire 1 8 \Selector35~0_combout\ $end
$var wire 1 9 \Add1~0_combout\ $end
$var wire 1 : \Selector34~1_combout\ $end
$var wire 1 ; \rgb_bits~0_combout\ $end
$var wire 1 < \state.S0~q\ $end
$var wire 1 = \bit_cnt[2]~0_combout\ $end
$var wire 1 > \bit_cnt[2]~1_combout\ $end
$var wire 1 ? \bit_cnt[0]~2_combout\ $end
$var wire 1 @ \Selector25~0_combout\ $end
$var wire 1 A \Add1~1\ $end
$var wire 1 B \Add1~2_combout\ $end
$var wire 1 C \bit_cnt[1]~5_combout\ $end
$var wire 1 D \Add1~3\ $end
$var wire 1 E \Add1~4_combout\ $end
$var wire 1 F \bit_cnt[2]~4_combout\ $end
$var wire 1 G \Add1~5\ $end
$var wire 1 H \Add1~6_combout\ $end
$var wire 1 I \Selector25~1_combout\ $end
$var wire 1 J \Add1~7\ $end
$var wire 1 K \Add1~8_combout\ $end
$var wire 1 L \bit_cnt[4]~3_combout\ $end
$var wire 1 M \Equal1~0_combout\ $end
$var wire 1 N \Equal1~1_combout\ $end
$var wire 1 O \Selector35~1_combout\ $end
$var wire 1 P \state.s5~q\ $end
$var wire 1 Q \bt~0_combout\ $end
$var wire 1 R \bt~q\ $end
$var wire 1 S \color_index[0]~0_combout\ $end
$var wire 1 T \color_index[1]~1_combout\ $end
$var wire 1 U \Selector0~0_combout\ $end
$var wire 1 V \Selector8~0_combout\ $end
$var wire 1 W \Selector16~0_combout\ $end
$var wire 1 X \Selector23~0_combout\ $end
$var wire 1 Y \Selector23~1_combout\ $end
$var wire 1 Z \Selector22~0_combout\ $end
$var wire 1 [ \Selector21~0_combout\ $end
$var wire 1 \ \Selector20~0_combout\ $end
$var wire 1 ] \Selector19~0_combout\ $end
$var wire 1 ^ \Selector18~0_combout\ $end
$var wire 1 _ \Selector17~0_combout\ $end
$var wire 1 ` \Selector16~1_combout\ $end
$var wire 1 a \Selector15~0_combout\ $end
$var wire 1 b \Selector14~0_combout\ $end
$var wire 1 c \Selector13~0_combout\ $end
$var wire 1 d \Selector12~0_combout\ $end
$var wire 1 e \Selector11~0_combout\ $end
$var wire 1 f \Selector10~0_combout\ $end
$var wire 1 g \Selector9~0_combout\ $end
$var wire 1 h \Selector8~1_combout\ $end
$var wire 1 i \Selector7~0_combout\ $end
$var wire 1 j \Selector6~0_combout\ $end
$var wire 1 k \Selector5~0_combout\ $end
$var wire 1 l \Selector4~0_combout\ $end
$var wire 1 m \Selector3~0_combout\ $end
$var wire 1 n \Selector2~0_combout\ $end
$var wire 1 o \Selector1~0_combout\ $end
$var wire 1 p \Selector0~1_combout\ $end
$var wire 1 q \Add0~1\ $end
$var wire 1 r \Add0~2_combout\ $end
$var wire 1 s \Selector60~0_combout\ $end
$var wire 1 t \baudrate_counter[0]~0_combout\ $end
$var wire 1 u \Equal0~8_combout\ $end
$var wire 1 v \baudrate_counter[0]~1_combout\ $end
$var wire 1 w \Add0~3\ $end
$var wire 1 x \Add0~4_combout\ $end
$var wire 1 y \Selector59~0_combout\ $end
$var wire 1 z \Add0~5\ $end
$var wire 1 { \Add0~6_combout\ $end
$var wire 1 | \Selector58~0_combout\ $end
$var wire 1 } \Add0~7\ $end
$var wire 1 ~ \Add0~8_combout\ $end
$var wire 1 !! \Selector57~0_combout\ $end
$var wire 1 "! \Add0~9\ $end
$var wire 1 #! \Add0~10_combout\ $end
$var wire 1 $! \Selector56~0_combout\ $end
$var wire 1 %! \Add0~11\ $end
$var wire 1 &! \Add0~12_combout\ $end
$var wire 1 '! \Selector55~0_combout\ $end
$var wire 1 (! \Add0~13\ $end
$var wire 1 )! \Add0~14_combout\ $end
$var wire 1 *! \Selector54~0_combout\ $end
$var wire 1 +! \Add0~15\ $end
$var wire 1 ,! \Add0~16_combout\ $end
$var wire 1 -! \Selector53~0_combout\ $end
$var wire 1 .! \Add0~17\ $end
$var wire 1 /! \Add0~18_combout\ $end
$var wire 1 0! \Selector52~0_combout\ $end
$var wire 1 1! \Add0~19\ $end
$var wire 1 2! \Add0~20_combout\ $end
$var wire 1 3! \Selector51~0_combout\ $end
$var wire 1 4! \Equal0~5_combout\ $end
$var wire 1 5! \Equal0~6_combout\ $end
$var wire 1 6! \Equal0~7_combout\ $end
$var wire 1 7! \Selector32~0_combout\ $end
$var wire 1 8! \state.S2~q\ $end
$var wire 1 9! \Selector33~0_combout\ $end
$var wire 1 :! \state.S3~q\ $end
$var wire 1 ;! \Add0~0_combout\ $end
$var wire 1 <! \Selector61~0_combout\ $end
$var wire 1 =! \Add0~21\ $end
$var wire 1 >! \Add0~22_combout\ $end
$var wire 1 ?! \Selector50~0_combout\ $end
$var wire 1 @! \Add0~23\ $end
$var wire 1 A! \Add0~24_combout\ $end
$var wire 1 B! \Selector49~0_combout\ $end
$var wire 1 C! \Add0~25\ $end
$var wire 1 D! \Add0~26_combout\ $end
$var wire 1 E! \Selector48~0_combout\ $end
$var wire 1 F! \Add0~27\ $end
$var wire 1 G! \Add0~28_combout\ $end
$var wire 1 H! \Selector47~0_combout\ $end
$var wire 1 I! \Add0~29\ $end
$var wire 1 J! \Add0~30_combout\ $end
$var wire 1 K! \Selector46~0_combout\ $end
$var wire 1 L! \Add0~31\ $end
$var wire 1 M! \Add0~32_combout\ $end
$var wire 1 N! \Selector45~0_combout\ $end
$var wire 1 O! \Add0~33\ $end
$var wire 1 P! \Add0~34_combout\ $end
$var wire 1 Q! \Selector44~0_combout\ $end
$var wire 1 R! \Add0~35\ $end
$var wire 1 S! \Add0~36_combout\ $end
$var wire 1 T! \Selector43~0_combout\ $end
$var wire 1 U! \Add0~37\ $end
$var wire 1 V! \Add0~38_combout\ $end
$var wire 1 W! \Selector42~0_combout\ $end
$var wire 1 X! \Add0~39\ $end
$var wire 1 Y! \Add0~40_combout\ $end
$var wire 1 Z! \Selector41~0_combout\ $end
$var wire 1 [! \Add0~41\ $end
$var wire 1 \! \Add0~42_combout\ $end
$var wire 1 ]! \Selector40~0_combout\ $end
$var wire 1 ^! \Add0~43\ $end
$var wire 1 _! \Add0~44_combout\ $end
$var wire 1 `! \Selector39~0_combout\ $end
$var wire 1 a! \Add0~45\ $end
$var wire 1 b! \Add0~46_combout\ $end
$var wire 1 c! \Selector38~0_combout\ $end
$var wire 1 d! \Add0~47\ $end
$var wire 1 e! \Add0~48_combout\ $end
$var wire 1 f! \Selector37~0_combout\ $end
$var wire 1 g! \Add0~49\ $end
$var wire 1 h! \Add0~50_combout\ $end
$var wire 1 i! \Selector36~0_combout\ $end
$var wire 1 j! \Equal0~0_combout\ $end
$var wire 1 k! \Equal0~1_combout\ $end
$var wire 1 l! \Equal0~2_combout\ $end
$var wire 1 m! \Equal0~3_combout\ $end
$var wire 1 n! \Equal0~4_combout\ $end
$var wire 1 o! \Selector31~0_combout\ $end
$var wire 1 p! \Selector31~1_combout\ $end
$var wire 1 q! \state.S1~q\ $end
$var wire 1 r! \Selector29~0_combout\ $end
$var wire 1 s! \Selector29~1_combout\ $end
$var wire 1 t! \Selector29~2_combout\ $end
$var wire 1 u! \Q~reg0_q\ $end
$var wire 1 v! baudrate_counter [25] $end
$var wire 1 w! baudrate_counter [24] $end
$var wire 1 x! baudrate_counter [23] $end
$var wire 1 y! baudrate_counter [22] $end
$var wire 1 z! baudrate_counter [21] $end
$var wire 1 {! baudrate_counter [20] $end
$var wire 1 |! baudrate_counter [19] $end
$var wire 1 }! baudrate_counter [18] $end
$var wire 1 ~! baudrate_counter [17] $end
$var wire 1 !" baudrate_counter [16] $end
$var wire 1 "" baudrate_counter [15] $end
$var wire 1 #" baudrate_counter [14] $end
$var wire 1 $" baudrate_counter [13] $end
$var wire 1 %" baudrate_counter [12] $end
$var wire 1 &" baudrate_counter [11] $end
$var wire 1 '" baudrate_counter [10] $end
$var wire 1 (" baudrate_counter [9] $end
$var wire 1 )" baudrate_counter [8] $end
$var wire 1 *" baudrate_counter [7] $end
$var wire 1 +" baudrate_counter [6] $end
$var wire 1 ," baudrate_counter [5] $end
$var wire 1 -" baudrate_counter [4] $end
$var wire 1 ." baudrate_counter [3] $end
$var wire 1 /" baudrate_counter [2] $end
$var wire 1 0" baudrate_counter [1] $end
$var wire 1 1" baudrate_counter [0] $end
$var wire 1 2" bit_cnt [4] $end
$var wire 1 3" bit_cnt [3] $end
$var wire 1 4" bit_cnt [2] $end
$var wire 1 5" bit_cnt [1] $end
$var wire 1 6" bit_cnt [0] $end
$var wire 1 7" rgb_bits [23] $end
$var wire 1 8" rgb_bits [22] $end
$var wire 1 9" rgb_bits [21] $end
$var wire 1 :" rgb_bits [20] $end
$var wire 1 ;" rgb_bits [19] $end
$var wire 1 <" rgb_bits [18] $end
$var wire 1 =" rgb_bits [17] $end
$var wire 1 >" rgb_bits [16] $end
$var wire 1 ?" rgb_bits [15] $end
$var wire 1 @" rgb_bits [14] $end
$var wire 1 A" rgb_bits [13] $end
$var wire 1 B" rgb_bits [12] $end
$var wire 1 C" rgb_bits [11] $end
$var wire 1 D" rgb_bits [10] $end
$var wire 1 E" rgb_bits [9] $end
$var wire 1 F" rgb_bits [8] $end
$var wire 1 G" rgb_bits [7] $end
$var wire 1 H" rgb_bits [6] $end
$var wire 1 I" rgb_bits [5] $end
$var wire 1 J" rgb_bits [4] $end
$var wire 1 K" rgb_bits [3] $end
$var wire 1 L" rgb_bits [2] $end
$var wire 1 M" rgb_bits [1] $end
$var wire 1 N" rgb_bits [0] $end
$var wire 1 O" color_index [1] $end
$var wire 1 P" color_index [0] $end
$upscope $end
$upscope $end
$enddefinitions $end
#0
$dumpvars
0!
1"
0#
1$
0%
1&
x'
1(
1)
1*
1+
1,
1-
0.
1/
10
01
02
03
14
15
06
07
08
09
0:
1;
0<
0=
1>
0?
0@
1A
1B
0C
0D
1E
0F
1G
0H
0I
0J
1K
0L
0M
0N
0O
0P
0Q
0R
0S
0T
0U
0V
0W
0X
0Y
0Z
0[
0\
0]
0^
0_
0`
0a
0b
0c
0d
0e
0f
0g
0h
0i
0j
0k
0l
0m
0n
0o
0p
0q
1r
1s
0t
1u
0v
1w
1x
1y
0z
1{
1|
1}
1~
1!!
0"!
1#!
1$!
1%!
1&!
1'!
0(!
1)!
1*!
1+!
1,!
1-!
0.!
1/!
10!
11!
12!
13!
14!
15!
16!
07!
08!
09!
0:!
1;!
1<!
0=!
1>!
1?!
1@!
1A!
1B!
0C!
1D!
1E!
1F!
1G!
1H!
0I!
1J!
1K!
1L!
1M!
1N!
0O!
1P!
1Q!
1R!
1S!
1T!
0U!
1V!
1W!
1X!
1Y!
1Z!
0[!
1\!
1]!
1^!
1_!
1`!
0a!
1b!
1c!
1d!
1e!
1f!
0g!
1h!
1i!
1j!
1k!
1l!
1m!
1n!
0o!
1p!
0q!
0r!
0s!
0t!
0u!
0v!
0w!
0x!
0y!
0z!
0{!
0|!
0}!
0~!
0!"
0""
0#"
0$"
0%"
0&"
0'"
0("
0)"
0*"
0+"
0,"
0-"
0."
0/"
00"
01"
02"
03"
04"
05"
06"
07"
08"
09"
0:"
0;"
0<"
0="
0>"
0?"
0@"
0A"
0B"
0C"
0D"
0E"
0F"
0G"
0H"
0I"
0J"
0K"
0L"
0M"
0N"
0O"
0P"
$end
#25000
1!
1.
13
1<
1q!
0s
0y
0|
0!!
0$!
0'!
0*!
0-!
00!
03!
17!
0?!
0B!
0E!
0H!
0K!
0N!
0Q!
0T!
0W!
0Z!
0]!
0`!
0c!
0f!
0i!
1s!
1=
1X
1t
0p!
1v
0>
1t!
#50000
0!
0.
03
#75000
1!
1.
13
18!
11"
0q!
1u!
12
1r!
1s
1y
1|
1!!
1$!
1'!
1*!
1-!
10!
13!
1?!
1B!
1E!
1H!
1K!
1N!
1Q!
1T!
1W!
1Z!
1]!
1`!
1c!
1f!
1i!
0s!
0;!
1q
0j!
0v
07!
19!
11
0n!
0r
0w
0<!
0t!
1#
0x
1z
0s
0u
17!
09!
1v
1t!
0{
0}
0y
0~
1"!
0|
0#!
0%!
0!!
0&!
1(!
0$!
0)!
0+!
0'!
0,!
1.!
0*!
0/!
01!
0-!
02!
1=!
00!
0>!
0@!
03!
0A!
1C!
0?!
0D!
0F!
0B!
0G!
1I!
0E!
0J!
0L!
0H!
0M!
1O!
0K!
0P!
0R!
0N!
0S!
1U!
0Q!
0V!
0X!
0T!
0Y!
1[!
0W!
0\!
0^!
0Z!
0_!
1a!
0]!
0b!
0d!
0`!
0e!
1g!
0c!
0h!
0f!
0i!
#100000
0!
0.
03
#125000
1!
1.
13
01"
1;!
0q
1j!
1n!
1r
1w
1<!
1x
0z
1s
1u
07!
19!
0v
0t!
1{
1}
1y
1~
0"!
1|
1#!
1%!
1!!
1&!
0(!
1$!
1)!
1+!
1'!
1,!
0.!
1*!
1/!
11!
1-!
12!
0=!
10!
1>!
1@!
13!
1A!
0C!
1?!
1D!
1F!
1B!
1G!
0I!
1E!
1J!
1L!
1H!
1M!
0O!
1K!
1P!
1R!
1N!
1S!
0U!
1Q!
1V!
1X!
1T!
1Y!
0[!
1W!
1\!
1^!
1Z!
1_!
0a!
1]!
1b!
1d!
1`!
1e!
0g!
1c!
1h!
1f!
1i!
#150000
0!
0.
03
#175000
1!
1.
13
08!
1:!
0u!
02
0r!
16
0s
0y
0|
0!!
0$!
0'!
0*!
0-!
00!
03!
0?!
0B!
0E!
0H!
0K!
0N!
0Q!
0T!
0W!
0Z!
0]!
0`!
0c!
0f!
0i!
1s!
1v
09!
01
0s!
1t!
0#
0t!
#200000
0!
0.
03
#225000
1!
1.
13
17
0:!
11"
0;!
1q
0j!
1s
1y
1|
1!!
1$!
1'!
1*!
1-!
10!
13!
1?!
1B!
1E!
1H!
1K!
1N!
1Q!
1T!
1W!
1Z!
1]!
1`!
1c!
1f!
1i!
06
18
0=
1o!
1p!
1>
0v
0n!
0r
0w
0<!
0x
1z
0s
16
08
1:
0u
0o!
1?
0?
0p!
0>
1v
0{
0}
0y
0~
1"!
0|
0#!
0%!
0!!
0&!
1(!
0$!
0)!
0+!
0'!
0,!
1.!
0*!
0/!
01!
0-!
02!
1=!
00!
0>!
0@!
03!
0A!
1C!
0?!
0D!
0F!
0B!
0G!
1I!
0E!
0J!
0L!
0H!
0M!
1O!
0K!
0P!
0R!
0N!
0S!
1U!
0Q!
0V!
0X!
0T!
0Y!
1[!
0W!
0\!
0^!
0Z!
0_!
1a!
0]!
0b!
0d!
0`!
0e!
1g!
0c!
0h!
0f!
0i!
#250000
0!
0.
03
#275000
1!
1.
13
01"
1;!
0q
1j!
1n!
1r
1w
1<!
1x
0z
1s
06
18
0:
1u
1o!
1p!
1>
0v
1{
1}
1y
1~
0"!
1|
1?
1#!
1%!
1!!
1&!
0(!
1$!
1)!
1+!
1'!
1,!
0.!
1*!
1/!
11!
1-!
12!
0=!
10!
1>!
1@!
13!
1A!
0C!
1?!
1D!
1F!
1B!
1G!
0I!
1E!
1J!
1L!
1H!
1M!
0O!
1K!
1P!
1R!
1N!
1S!
0U!
1Q!
1V!
1X!
1T!
1Y!
0[!
1W!
1\!
1^!
1Z!
1_!
0a!
1]!
1b!
1d!
1`!
1e!
0g!
1c!
1h!
1f!
1i!
#300000
0!
0.
03
#325000
1!
1.
13
07
16"
1q!
0s
0y
0|
0!!
0$!
0'!
0*!
0-!
00!
03!
17!
0?!
0B!
0E!
0H!
0K!
0N!
0Q!
0T!
0W!
0Z!
0]!
0`!
0c!
0f!
0i!
19
0A
08
1=
0o!
1s!
1t!
0p!
0>
1v
0B
0?
1?
#350000
0!
0.
03
#375000
1!
1.
13
18!
11"
0q!
1u!
12
1r!
1s
1y
1|
1!!
1$!
1'!
1*!
1-!
10!
13!
1?!
1B!
1E!
1H!
1K!
1N!
1Q!
1T!
1W!
1Z!
1]!
1`!
1c!
1f!
1i!
0s!
0;!
1q
0j!
0v
07!
19!
11
0n!
0r
0w
0<!
0t!
1#
0x
1z
0s
0u
17!
09!
1v
1t!
0{
0}
0y
0~
1"!
0|
0#!
0%!
0!!
0&!
1(!
0$!
0)!
0+!
0'!
0,!
1.!
0*!
0/!
01!
0-!
02!
1=!
00!
0>!
0@!
03!
0A!
1C!
0?!
0D!
0F!
0B!
0G!
1I!
0E!
0J!
0L!
0H!
0M!
1O!
0K!
0P!
0R!
0N!
0S!
1U!
0Q!
0V!
0X!
0T!
0Y!
1[!
0W!
0\!
0^!
0Z!
0_!
1a!
0]!
0b!
0d!
0`!
0e!
1g!
0c!
0h!
0f!
0i!
#400000
0!
0.
03
#425000
1!
1.
13
01"
1;!
0q
1j!
1n!
1r
1w
1<!
1x
0z
1s
1u
07!
19!
0v
0t!
1{
1}
1y
1~
0"!
1|
1#!
1%!
1!!
1&!
0(!
1$!
1)!
1+!
1'!
1,!
0.!
1*!
1/!
11!
1-!
12!
0=!
10!
1>!
1@!
13!
1A!
0C!
1?!
1D!
1F!
1B!
1G!
0I!
1E!
1J!
1L!
1H!
1M!
0O!
1K!
1P!
1R!
1N!
1S!
0U!
1Q!
1V!
1X!
1T!
1Y!
0[!
1W!
1\!
1^!
1Z!
1_!
0a!
1]!
1b!
1d!
1`!
1e!
0g!
1c!
1h!
1f!
1i!
#450000
0!
0.
03
#475000
1!
1.
13
08!
1:!
0u!
02
0r!
16
0s
0y
0|
0!!
0$!
0'!
0*!
0-!
00!
03!
0?!
0B!
0E!
0H!
0K!
0N!
0Q!
0T!
0W!
0Z!
0]!
0`!
0c!
0f!
0i!
1s!
1v
09!
01
0s!
1t!
0#
0t!
#500000
0!
0.
03
#525000
1!
1.
13
17
0:!
11"
0;!
1q
0j!
1s
1y
1|
1!!
1$!
1'!
1*!
1-!
10!
13!
1?!
1B!
1E!
1H!
1K!
1N!
1Q!
1T!
1W!
1Z!
1]!
1`!
1c!
1f!
1i!
06
18
0=
1o!
1p!
1>
0v
0n!
0r
0w
0<!
0x
1z
0s
16
08
1:
0u
0o!
0?
1C
0C
0p!
0>
1v
0{
0}
0y
0~
1"!
0|
1?
0#!
0%!
0!!
0&!
1(!
0$!
0)!
0+!
0'!
0,!
1.!
0*!
0/!
01!
0-!
02!
1=!
00!
0>!
0@!
03!
0A!
1C!
0?!
0D!
0F!
0B!
0G!
1I!
0E!
0J!
0L!
0H!
0M!
1O!
0K!
0P!
0R!
0N!
0S!
1U!
0Q!
0V!
0X!
0T!
0Y!
1[!
0W!
0\!
0^!
0Z!
0_!
1a!
0]!
0b!
0d!
0`!
0e!
1g!
0c!
0h!
0f!
0i!
#550000
0!
0.
03
#575000
1!
1.
13
01"
1;!
0q
1j!
1n!
1r
1w
1<!
1x
0z
1s
06
18
0:
1u
1o!
1p!
1>
0v
1{
1}
1y
1~
0"!
1|
0?
1C
1#!
1%!
1!!
1&!
0(!
1$!
1)!
1+!
1'!
1,!
0.!
1*!
1/!
11!
1-!
12!
0=!
10!
1>!
1@!
13!
1A!
0C!
1?!
1D!
1F!
1B!
1G!
0I!
1E!
1J!
1L!
1H!
1M!
0O!
1K!
1P!
1R!
1N!
1S!
0U!
1Q!
1V!
1X!
1T!
1Y!
0[!
1W!
1\!
1^!
1Z!
1_!
0a!
1]!
1b!
1d!
1`!
1e!
0g!
1c!
1h!
1f!
1i!
#600000
0!
0.
03
#625000
1!
1.
13
07
06"
15"
1q!
0s
0y
0|
0!!
0$!
0'!
0*!
0-!
00!
03!
17!
0?!
0B!
0E!
0H!
0K!
0N!
0Q!
0T!
0W!
0Z!
0]!
0`!
0c!
0f!
0i!
1B
1D
09
1A
08
1=
0o!
1s!
1t!
0p!
0>
1v
0B
0D
0E
0C
1E
1C
#650000
0!
0.
03
#675000
1!
1.
13
18!
11"
0q!
1u!
12
1r!
1s
1y
1|
1!!
1$!
1'!
1*!
1-!
10!
13!
1?!
1B!
1E!
1H!
1K!
1N!
1Q!
1T!
1W!
1Z!
1]!
1`!
1c!
1f!
1i!
0s!
0;!
1q
0j!
0v
07!
19!
11
0n!
0r
0w
0<!
0t!
1#
0x
1z
0s
0u
17!
09!
1v
1t!
0{
0}
0y
0~
1"!
0|
0#!
0%!
0!!
0&!
1(!
0$!
0)!
0+!
0'!
0,!
1.!
0*!
0/!
01!
0-!
02!
1=!
00!
0>!
0@!
03!
0A!
1C!
0?!
0D!
0F!
0B!
0G!
1I!
0E!
0J!
0L!
0H!
0M!
1O!
0K!
0P!
0R!
0N!
0S!
1U!
0Q!
0V!
0X!
0T!
0Y!
1[!
0W!
0\!
0^!
0Z!
0_!
1a!
0]!
0b!
0d!
0`!
0e!
1g!
0c!
0h!
0f!
0i!
#700000
0!
0.
03
#725000
1!
1.
13
01"
1;!
0q
1j!
1n!
1r
1w
1<!
1x
0z
1s
1u
07!
19!
0v
0t!
1{
1}
1y
1~
0"!
1|
1#!
1%!
1!!
1&!
0(!
1$!
1)!
1+!
1'!
1,!
0.!
1*!
1/!
11!
1-!
12!
0=!
10!
1>!
1@!
13!
1A!
0C!
1?!
1D!
1F!
1B!
1G!
0I!
1E!
1J!
1L!
1H!
1M!
0O!
1K!
1P!
1R!
1N!
1S!
0U!
1Q!
1V!
1X!
1T!
1Y!
0[!
1W!
1\!
1^!
1Z!
1_!
0a!
1]!
1b!
1d!
1`!
1e!
0g!
1c!
1h!
1f!
1i!
#750000
0!
0.
03
#775000
1!
1.
13
08!
1:!
0u!
02
0r!
16
0s
0y
0|
0!!
0$!
0'!
0*!
0-!
00!
03!
0?!
0B!
0E!
0H!
0K!
0N!
0Q!
0T!
0W!
0Z!
0]!
0`!
0c!
0f!
0i!
1s!
1v
09!
01
0s!
1t!
0#
0t!
#800000
0!
0.
03
#825000
1!
1.
13
17
0:!
11"
0;!
1q
0j!
1s
1y
1|
1!!
1$!
1'!
1*!
1-!
10!
13!
1?!
1B!
1E!
1H!
1K!
1N!
1Q!
1T!
1W!
1Z!
1]!
1`!
1c!
1f!
1i!
06
18
0=
1o!
1p!
1>
0v
0n!
0r
0w
0<!
0x
1z
0s
16
08
1:
0u
0o!
1?
0?
0C
0p!
0>
1v
0{
0}
0y
0~
1"!
0|
1C
0#!
0%!
0!!
0&!
1(!
0$!
0)!
0+!
0'!
0,!
1.!
0*!
0/!
01!
0-!
02!
1=!
00!
0>!
0@!
03!
0A!
1C!
0?!
0D!
0F!
0B!
0G!
1I!
0E!
0J!
0L!
0H!
0M!
1O!
0K!
0P!
0R!
0N!
0S!
1U!
0Q!
0V!
0X!
0T!
0Y!
1[!
0W!
0\!
0^!
0Z!
0_!
1a!
0]!
0b!
0d!
0`!
0e!
1g!
0c!
0h!
0f!
0i!
#850000
0!
0.
03
#875000
1!
1.
13
01"
1;!
0q
1j!
1n!
1r
1w
1<!
1x
0z
1s
06
18
0:
1u
1o!
1p!
1>
0v
1{
1}
1y
1~
0"!
1|
1?
1#!
1%!
1!!
1&!
0(!
1$!
1)!
1+!
1'!
1,!
0.!
1*!
1/!
11!
1-!
12!
0=!
10!
1>!
1@!
13!
1A!
0C!
1?!
1D!
1F!
1B!
1G!
0I!
1E!
1J!
1L!
1H!
1M!
0O!
1K!
1P!
1R!
1N!
1S!
0U!
1Q!
1V!
1X!
1T!
1Y!
0[!
1W!
1\!
1^!
1Z!
1_!
0a!
1]!
1b!
1d!
1`!
1e!
0g!
1c!
1h!
1f!
1i!
#900000
0!
0.
03
#925000
1!
1.
13
07
16"
1q!
0s
0y
0|
0!!
0$!
0'!
0*!
0-!
00!
03!
17!
0?!
0B!
0E!
0H!
0K!
0N!
0Q!
0T!
0W!
0Z!
0]!
0`!
0c!
0f!
0i!
19
0A
08
1=
0o!
1s!
1t!
0C
0p!
0>
1v
1B
1D
0?
0E
1?
1C
#950000
0!
0.
03
#975000
1!
1.
13
18!
11"
0q!
1u!
12
1r!
1s
1y
1|
1!!
1$!
1'!
1*!
1-!
10!
13!
1?!
1B!
1E!
1H!
1K!
1N!
1Q!
1T!
1W!
1Z!
1]!
1`!
1c!
1f!
1i!
0s!
0;!
1q
0j!
0v
07!
19!
11
0n!
0r
0w
0<!
0t!
1#
0x
1z
0s
0u
17!
09!
1v
1t!
0{
0}
0y
0~
1"!
0|
0#!
0%!
0!!
0&!
1(!
0$!
0)!
0+!
0'!
0,!
1.!
0*!
0/!
01!
0-!
02!
1=!
00!
0>!
0@!
03!
0A!
1C!
0?!
0D!
0F!
0B!
0G!
1I!
0E!
0J!
0L!
0H!
0M!
1O!
0K!
0P!
0R!
0N!
0S!
1U!
0Q!
0V!
0X!
0T!
0Y!
1[!
0W!
0\!
0^!
0Z!
0_!
1a!
0]!
0b!
0d!
0`!
0e!
1g!
0c!
0h!
0f!
0i!
#1000000
0!
0.
03
#1025000
1!
1.
13
01"
1;!
0q
1j!
1n!
1r
1w
1<!
1x
0z
1s
1u
07!
19!
0v
0t!
1{
1}
1y
1~
0"!
1|
1#!
1%!
1!!
1&!
0(!
1$!
1)!
1+!
1'!
1,!
0.!
1*!
1/!
11!
1-!
12!
0=!
10!
1>!
1@!
13!
1A!
0C!
1?!
1D!
1F!
1B!
1G!
0I!
1E!
1J!
1L!
1H!
1M!
0O!
1K!
1P!
1R!
1N!
1S!
0U!
1Q!
1V!
1X!
1T!
1Y!
0[!
1W!
1\!
1^!
1Z!
1_!
0a!
1]!
1b!
1d!
1`!
1e!
0g!
1c!
1h!
1f!
1i!
#1050000
0!
0.
03
#1075000
1!
1.
13
08!
1:!
0u!
02
0r!
16
0s
0y
0|
0!!
0$!
0'!
0*!
0-!
00!
03!
0?!
0B!
0E!
0H!
0K!
0N!
0Q!
0T!
0W!
0Z!
0]!
0`!
0c!
0f!
0i!
1s!
1v
09!
01
0s!
1t!
0#
0t!
#1100000
0!
0.
03
#1125000
1!
1.
13
17
0:!
11"
0;!
1q
0j!
1s
1y
1|
1!!
1$!
1'!
1*!
1-!
10!
13!
1?!
1B!
1E!
1H!
1K!
1N!
1Q!
1T!
1W!
1Z!
1]!
1`!
1c!
1f!
1i!
06
18
0=
1o!
1p!
1>
0v
0n!
0r
0w
0<!
0x
1z
0s
16
08
1:
0u
0o!
0?
0C
1F
0F
0p!
0>
1v
0{
0}
0y
0~
1"!
0|
1?
1C
0#!
0%!
0!!
0&!
1(!
0$!
0)!
0+!
0'!
0,!
1.!
0*!
0/!
01!
0-!
02!
1=!
00!
0>!
0@!
03!
0A!
1C!
0?!
0D!
0F!
0B!
0G!
1I!
0E!
0J!
0L!
0H!
0M!
1O!
0K!
0P!
0R!
0N!
0S!
1U!
0Q!
0V!
0X!
0T!
0Y!
1[!
0W!
0\!
0^!
0Z!
0_!
1a!
0]!
0b!
0d!
0`!
0e!
1g!
0c!
0h!
0f!
0i!
#1150000
0!
0.
03
#1175000
1!
1.
13
01"
1;!
0q
1j!
1n!
1r
1w
1<!
1x
0z
1s
06
18
0:
1u
1o!
1p!
1>
0v
1{
1}
1y
1~
0"!
1|
0?
0C
1F
1#!
1%!
1!!
1&!
0(!
1$!
1)!
1+!
1'!
1,!
0.!
1*!
1/!
11!
1-!
12!
0=!
10!
1>!
1@!
13!
1A!
0C!
1?!
1D!
1F!
1B!
1G!
0I!
1E!
1J!
1L!
1H!
1M!
0O!
1K!
1P!
1R!
1N!
1S!
0U!
1Q!
1V!
1X!
1T!
1Y!
0[!
1W!
1\!
1^!
1Z!
1_!
0a!
1]!
1b!
1d!
1`!
1e!
0g!
1c!
1h!
1f!
1i!
#1200000
0!
0.
03
#1225000
1!
1.
13
07
06"
05"
14"
1q!
0s
0y
0|
0!!
0$!
0'!
0*!
0-!
00!
03!
17!
0?!
0B!
0E!
0H!
0K!
0N!
0Q!
0T!
0W!
0Z!
0]!
0`!
0c!
0f!
0i!
1E
0G
0B
0D
09
1A
08
1=
0o!
1s!
1t!
0p!
0>
1v
1B
0E
1G
1H
1J
0F
0K
0H
0J
1F
1K
#1250000
0!
0.
03
