clock_scaler/simulation/qsim/clock_scaler.msim.vcd
$comment
	File created using the following command:
		vcd file clock_scaler.msim.vcd -direction
$end
$date
	Thu Sep 07 21:29:22 2023
$end
$version
	ModelSim Version 2020.1
$end
$timescale
	1ps
$end

$scope module clock_scaler_vhd_vec_tst $end
$var wire 1 ! clk_in $end
$var wire 1 " clk_out_1 $end
$var wire 1 # clk_out_2 $end
$var wire 1 $ clk_out_3 $end
$var wire 1 % clk_out_4 $end
$var wire 1 & enable $end

$scope module i1 $end
$var wire 1 ' gnd $end
$var wire 1 ( vcc $end
$var wire 1 ) unknown $end
$var wire 1 * devoe $end
$var wire 1 + devclrn $end
$var wire 1 , devpor $end
$var wire 1 - ww_devoe $end
$var wire 1 . ww_devclrn $end
$var wire 1 / ww_devpor $end
$var wire 1 0 ww_clk_in $end
$var wire 1 1 ww_enable $end
$var wire 1 2 ww_clk_out_1 $end
$var wire 1 3 ww_clk_out_2 $end
$var wire 1 4 ww_clk_out_3 $end
$var wire 1 5 ww_clk_out_4 $end
$var wire 1 6 \clk_out_1~output_o\ $end
$var wire 1 7 \clk_out_2~output_o\ $end
$var wire 1 8 \clk_out_3~output_o\ $end
$var wire 1 9 \clk_out_4~output_o\ $end
$var wire 1 : \clk_in~input_o\ $end
$var wire 1 ; \counter_value1[0]~32_combout\ $end
$var wire 1 < \enable~input_o\ $end
$var wire 1 = \counter_value1[0]~33\ $end
$var wire 1 > \counter_value1[1]~34_combout\ $end
$var wire 1 ? \counter_value1[1]~35\ $end
$var wire 1 @ \counter_value1[2]~36_combout\ $end
$var wire 1 A \counter_value1[2]~37\ $end
$var wire 1 B \counter_value1[3]~38_combout\ $end
$var wire 1 C \LessThan0~0_combout\ $end
$var wire 1 D \counter_value1[3]~39\ $end
$var wire 1 E \counter_value1[4]~40_combout\ $end
$var wire 1 F \counter_value1[4]~41\ $end
$var wire 1 G \counter_value1[5]~42_combout\ $end
$var wire 1 H \counter_value1[5]~43\ $end
$var wire 1 I \counter_value1[6]~44_combout\ $end
$var wire 1 J \counter_value1[6]~45\ $end
$var wire 1 K \counter_value1[7]~46_combout\ $end
$var wire 1 L \LessThan0~1_combout\ $end
$var wire 1 M \counter_value1[7]~47\ $end
$var wire 1 N \counter_value1[8]~48_combout\ $end
$var wire 1 O \counter_value1[8]~49\ $end
$var wire 1 P \counter_value1[9]~50_combout\ $end
$var wire 1 Q \counter_value1[9]~51\ $end
$var wire 1 R \counter_value1[10]~52_combout\ $end
$var wire 1 S \counter_value1[10]~53\ $end
$var wire 1 T \counter_value1[11]~54_combout\ $end
$var wire 1 U \LessThan0~2_combout\ $end
$var wire 1 V \counter_value1[11]~55\ $end
$var wire 1 W \counter_value1[12]~56_combout\ $end
$var wire 1 X \counter_value1[12]~57\ $end
$var wire 1 Y \counter_value1[13]~58_combout\ $end
$var wire 1 Z \counter_value1[13]~59\ $end
$var wire 1 [ \counter_value1[14]~60_combout\ $end
$var wire 1 \ \counter_value1[14]~61\ $end
$var wire 1 ] \counter_value1[15]~62_combout\ $end
$var wire 1 ^ \LessThan0~3_combout\ $end
$var wire 1 _ \LessThan0~4_combout\ $end
$var wire 1 ` \counter_value1[15]~63\ $end
$var wire 1 a \counter_value1[16]~64_combout\ $end
$var wire 1 b \counter_value1[16]~65\ $end
$var wire 1 c \counter_value1[17]~66_combout\ $end
$var wire 1 d \counter_value1[17]~67\ $end
$var wire 1 e \counter_value1[18]~68_combout\ $end
$var wire 1 f \counter_value1[18]~69\ $end
$var wire 1 g \counter_value1[19]~70_combout\ $end
$var wire 1 h \LessThan0~5_combout\ $end
$var wire 1 i \counter_value1[19]~71\ $end
$var wire 1 j \counter_value1[20]~72_combout\ $end
$var wire 1 k \counter_value1[20]~73\ $end
$var wire 1 l \counter_value1[21]~74_combout\ $end
$var wire 1 m \counter_value1[21]~75\ $end
$var wire 1 n \counter_value1[22]~76_combout\ $end
$var wire 1 o \counter_value1[22]~77\ $end
$var wire 1 p \counter_value1[23]~78_combout\ $end
$var wire 1 q \LessThan0~6_combout\ $end
$var wire 1 r \counter_value1[23]~79\ $end
$var wire 1 s \counter_value1[24]~80_combout\ $end
$var wire 1 t \counter_value1[24]~81\ $end
$var wire 1 u \counter_value1[25]~82_combout\ $end
$var wire 1 v \counter_value1[25]~83\ $end
$var wire 1 w \counter_value1[26]~84_combout\ $end
$var wire 1 x \counter_value1[26]~85\ $end
$var wire 1 y \counter_value1[27]~86_combout\ $end
$var wire 1 z \LessThan0~7_combout\ $end
$var wire 1 { \counter_value1[27]~87\ $end
$var wire 1 | \counter_value1[28]~88_combout\ $end
$var wire 1 } \counter_value1[28]~89\ $end
$var wire 1 ~ \counter_value1[29]~90_combout\ $end
$var wire 1 !! \counter_value1[29]~91\ $end
$var wire 1 "! \counter_value1[30]~92_combout\ $end
$var wire 1 #! \LessThan0~8_combout\ $end
$var wire 1 $! \LessThan0~9_combout\ $end
$var wire 1 %! \counter_value1[30]~93\ $end
$var wire 1 &! \counter_value1[31]~94_combout\ $end
$var wire 1 '! \Toggle4~0_combout\ $end
$var wire 1 (! \Toggle1~0_combout\ $end
$var wire 1 )! \Toggle1~q\ $end
$var wire 1 *! \Toggle2~0_combout\ $end
$var wire 1 +! \Toggle2~q\ $end
$var wire 1 ,! \Toggle3~0_combout\ $end
$var wire 1 -! \Toggle3~q\ $end
$var wire 1 .! \Toggle4~1_combout\ $end
$var wire 1 /! \Toggle4~2_combout\ $end
$var wire 1 0! \Toggle4~q\ $end
$var wire 1 1! counter_value1 [31] $end
$var wire 1 2! counter_value1 [30] $end
$var wire 1 3! counter_value1 [29] $end
$var wire 1 4! counter_value1 [28] $end
$var wire 1 5! counter_value1 [27] $end
$var wire 1 6! counter_value1 [26] $end
$var wire 1 7! counter_value1 [25] $end
$var wire 1 8! counter_value1 [24] $end
$var wire 1 9! counter_value1 [23] $end
$var wire 1 :! counter_value1 [22] $end
$var wire 1 ;! counter_value1 [21] $end
$var wire 1 <! counter_value1 [20] $end
$var wire 1 =! counter_value1 [19] $end
$var wire 1 >! counter_value1 [18] $end
$var wire 1 ?! counter_value1 [17] $end
$var wire 1 @! counter_value1 [16] $end
$var wire 1 A! counter_value1 [15] $end
$var wire 1 B! counter_value1 [14] $end
$var wire 1 C! counter_value1 [13] $end
$var wire 1 D! counter_value1 [12] $end
$var wire 1 E! counter_value1 [11] $end
$var wire 1 F! counter_value1 [10] $end
$var wire 1 G! counter_value1 [9] $end
$var wire 1 H! counter_value1 [8] $end
$var wire 1 I! counter_value1 [7] $end
$var wire 1 J! counter_value1 [6] $end
$var wire 1 K! counter_value1 [5] $end
$var wire 1 L! counter_value1 [4] $end
$var wire 1 M! counter_value1 [3] $end
$var wire 1 N! counter_value1 [2] $end
$var wire 1 O! counter_value1 [1] $end
$var wire 1 P! counter_value1 [0] $end
$var wire 1 Q! \ALT_INV_enable~input_o\ $end
$upscope $end
$upscope $end
$enddefinitions $end
#0
$dumpvars
0!
0"
0#
0$
0%
1&
0'
1(
x)
1*
1+
1,
1-
1.
1/
00
11
02
03
04
05
06
07
08
09
0:
1;
1<
0=
0>
1?
0@
0A
0B
0C
1D
0E
0F
0G
1H
0I
0J
0K
0L
1M
0N
0O
0P
1Q
0R
0S
0T
0U
1V
0W
0X
0Y
1Z
0[
0\
0]
0^
0_
1`
0a
0b
0c
1d
0e
0f
0g
0h
1i
0j
0k
0l
1m
0n
0o
0p
0q
1r
0s
0t
0u
1v
0w
0x
0y
0z
1{
0|
0}
0~
1!!
0"!
0#!
0$!
0%!
0&!
0'!
0(!
0)!
0*!
0+!
0,!
0-!
1.!
0/!
00!
0Q!
01!
02!
03!
04!
05!
06!
07!
08!
09!
0:!
0;!
0<!
0=!
0>!
0?!
0@!
0A!
0B!
0C!
0D!
0E!
0F!
0G!
0H!
0I!
0J!
0K!
0L!
0M!
0N!
0O!
0P!
$end
#15000
1!
10
1:
1P!
0;
1=
1C
1_
1>
1$!
#30000
0!
00
0:
#45000
1!
10
1:
0P!
1O!
0>
0?
0.!
1;
0=
1'!
1(!
1>
1?
1@
0@
#60000
0!
00
0:
#75000
1!
10
1:
1P!
1)!
16
0(!
0;
1=
0'!
12
1(!
0>
0?
1"
1@
#90000
0!
00
0:
#105000
1!
10
1:
0P!
0O!
1N!
0@
1A
1>
1?
1;
0=
1'!
0(!
1*!
0>
1@
0A
1B
0B
#120000
0!
00
0:
#135000
1!
10
1:
1P!
0)!
1+!
17
06
0*!
1(!
0;
1=
0'!
13
02
0(!
1*!
1>
1#
0"
#150000
0!
00
0:
#165000
1!
10
1:
0P!
1O!
0>
0?
1;
0=
1'!
1(!
1>
1?
0@
1A
1B
1@
0A
0B
#180000
0!
00
0:
#195000
1!
10
1:
1P!
1)!
16
0(!
0;
1=
0'!
12
1(!
0>
0?
1"
0@
1A
1B
#210000
0!
00
0:
#225000
1!
10
1:
0P!
0O!
0N!
1M!
0B
0D
1@
0A
1>
1?
1;
0=
1'!
0(!
0*!
1,!
0>
0@
1B
1D
1E
0E
#240000
0!
00
0:
#255000
1!
10
1:
1P!
0)!
0+!
1-!
18
07
06
0,!
1*!
1(!
0;
1=
0'!
14
03
02
0(!
0*!
1,!
1>
1$
0#
0"
#270000
0!
00
0:
#285000
1!
10
1:
0P!
1O!
0>
0?
1;
0=
1'!
1(!
1>
1?
1@
0@
#300000
0!
00
0:
#315000
1!
10
1:
1P!
1)!
16
0(!
0;
1=
0'!
12
1(!
0>
0?
1"
1@
#330000
0!
00
0:
#345000
1!
10
1:
0P!
0O!
1N!
0@
1A
1>
1?
1;
0=
1'!
0(!
1*!
0>
1@
0A
0B
0D
1E
1B
1D
0E
#360000
0!
00
0:
#375000
1!
10
1:
1P!
0)!
1+!
17
06
0*!
1(!
0;
1=
0'!
13
02
0(!
1*!
1>
1#
0"
#390000
0!
00
0:
#405000
1!
10
1:
0P!
1O!
0>
0?
1;
0=
1'!
1(!
1>
1?
0@
1A
0B
0D
1@
0A
1B
1D
1E
0E
#420000
0!
00
0:
#435000
1!
10
1:
1P!
1)!
16
0(!
0;
1=
0'!
12
1(!
0>
0?
1"
0@
1A
0B
0D
1E
#450000
0!
00
0:
#465000
1!
10
1:
0P!
0O!
0N!
0M!
1L!
0E
1F
1L
1B
1D
1@
0A
1>
1?
1.!
1;
0=
0C
1'!
0(!
0*!
0,!
0>
1/!
0@
0B
1E
0F
1G
0G
#480000
0!
00
0:
#495000
1!
10
1:
1P!
0)!
0+!
0-!
10!
19
08
07
06
0/!
1,!
1*!
1(!
0;
1=
1C
0'!
15
04
03
02
0(!
0*!
0,!
1/!
1>
1%
0$
0#
0"
#510000
0!
00
0:
#525000
1!
10
1:
0P!
1O!
0>
0?
0.!
1;
0=
1'!
1(!
1>
1?
1@
0@
#540000
0!
00
0:
#555000
1!
10
1:
1P!
1)!
16
0(!
0;
1=
0'!
12
1(!
0>
0?
1"
1@
#570000
0!
00
0:
#585000
1!
10
1:
0P!
0O!
1N!
0@
1A
1>
1?
1;
0=
1'!
0(!
1*!
0>
1@
0A
1B
0B
#600000
0!
00
0:
#615000
1!
10
1:
1P!
0)!
1+!
17
06
0*!
1(!
0;
1=
0'!
13
02
0(!
1*!
1>
1#
0"
#630000
0!
00
0:
#645000
1!
10
1:
0P!
1O!
0>
0?
1;
0=
1'!
1(!
1>
1?
0@
1A
1B
1@
0A
0B
#660000
0!
00
0:
#675000
1!
10
1:
1P!
1)!
16
0(!
0;
1=
0'!
12
1(!
0>
0?
1"
0@
1A
1B
#690000
0!
00
0:
#705000
1!
10
1:
0P!
0O!
0N!
1M!
0B
0D
1@
0A
1>
1?
1;
0=
1'!
0(!
0*!
1,!
0>
0@
1B
1D
0E
1F
1G
1E
0F
0G
#720000
0!
00
0:
#735000
1!
10
1:
1P!
0)!
0+!
1-!
18
07
06
0,!
1*!
1(!
0;
1=
0'!
14
03
02
0(!
0*!
1,!
1>
1$
0#
0"
#750000
0!
00
0:
#765000
1!
10
1:
0P!
1O!
0>
0?
1;
0=
1'!
1(!
1>
1?
1@
0@
#780000
0!
00
0:
#795000
1!
10
1:
1P!
1)!
16
0(!
0;
1=
0'!
12
1(!
0>
0?
1"
1@
#810000
0!
00
0:
#825000
1!
10
1:
0P!
0O!
1N!
0@
1A
1>
1?
1;
0=
1'!
0(!
1*!
0>
1@
0A
0B
0D
0E
1F
1B
1D
1E
0F
1G
0G
#840000
0!
00
0:
#855000
1!
10
1:
1P!
0)!
1+!
17
06
0*!
1(!
0;
1=
0'!
13
02
0(!
1*!
1>
1#
0"
#870000
0!
00
0:
#885000
1!
10
1:
0P!
1O!
0>
0?
1;
0=
1'!
1(!
1>
1?
0@
1A
0B
0D
1@
0A
1B
1D
0E
1F
1G
1E
0F
0G
#900000
0!
00
0:
#915000
1!
10
1:
1P!
1)!
16
0(!
0;
1=
0'!
12
1(!
0>
0?
1"
0@
1A
0B
0D
0E
1F
1G
#930000
0!
00
0:
#945000
1!
10
1:
0P!
0O!
0N!
0M!
0L!
1K!
0G
0H
1E
0F
1B
1D
1@
0A
1>
1?
1.!
1;
0=
0C
1'!
0(!
0*!
0,!
0>
0/!
0@
0B
0E
1G
1H
1I
0I
#960000
0!
00
0:
#975000
1!
10
1:
1P!
0)!
0+!
0-!
00!
09
08
07
06
1/!
1,!
1*!
1(!
0;
1=
1C
0'!
05
04
03
02
0(!
0*!
0,!
0/!
1>
0%
0$
0#
0"
#990000
0!
00
0:
