spi_controller/simulation/qsim/spi_controller.msim.vcd
$comment
	File created using the following command:
		vcd file spi_controller.msim.vcd -direction
$end
$date
	Mon Sep 18 09:28:12 2023
$end
$version
	ModelSim Version 2020.1
$end
$timescale
	1ps
$end

$scope module spi_controller_vhd_vec_tst $end
$var wire 1 ! i_clk $end
$var wire 1 " i_data_parallel [7] $end
$var wire 1 # i_data_parallel [6] $end
$var wire 1 $ i_data_parallel [5] $end
$var wire 1 % i_data_parallel [4] $end
$var wire 1 & i_data_parallel [3] $end
$var wire 1 ' i_data_parallel [2] $end
$var wire 1 ( i_data_parallel [1] $end
$var wire 1 ) i_data_parallel [0] $end
$var wire 1 * i_miso $end
$var wire 1 + i_rstb $end
$var wire 1 , i_tx_start $end
$var wire 1 - o_data_parallel [7] $end
$var wire 1 . o_data_parallel [6] $end
$var wire 1 / o_data_parallel [5] $end
$var wire 1 0 o_data_parallel [4] $end
$var wire 1 1 o_data_parallel [3] $end
$var wire 1 2 o_data_parallel [2] $end
$var wire 1 3 o_data_parallel [1] $end
$var wire 1 4 o_data_parallel [0] $end
$var wire 1 5 o_mosi $end
$var wire 1 6 o_sclk $end
$var wire 1 7 o_ss $end
$var wire 1 8 o_tx_end $end

$scope module i1 $end
$var wire 1 9 gnd $end
$var wire 1 : vcc $end
$var wire 1 ; unknown $end
$var wire 1 < devoe $end
$var wire 1 = devclrn $end
$var wire 1 > devpor $end
$var wire 1 ? ww_devoe $end
$var wire 1 @ ww_devclrn $end
$var wire 1 A ww_devpor $end
$var wire 1 B ww_i_clk $end
$var wire 1 C ww_i_rstb $end
$var wire 1 D ww_i_tx_start $end
$var wire 1 E ww_o_tx_end $end
$var wire 1 F ww_i_data_parallel [7] $end
$var wire 1 G ww_i_data_parallel [6] $end
$var wire 1 H ww_i_data_parallel [5] $end
$var wire 1 I ww_i_data_parallel [4] $end
$var wire 1 J ww_i_data_parallel [3] $end
$var wire 1 K ww_i_data_parallel [2] $end
$var wire 1 L ww_i_data_parallel [1] $end
$var wire 1 M ww_i_data_parallel [0] $end
$var wire 1 N ww_o_data_parallel [7] $end
$var wire 1 O ww_o_data_parallel [6] $end
$var wire 1 P ww_o_data_parallel [5] $end
$var wire 1 Q ww_o_data_parallel [4] $end
$var wire 1 R ww_o_data_parallel [3] $end
$var wire 1 S ww_o_data_parallel [2] $end
$var wire 1 T ww_o_data_parallel [1] $end
$var wire 1 U ww_o_data_parallel [0] $end
$var wire 1 V ww_o_sclk $end
$var wire 1 W ww_o_ss $end
$var wire 1 X ww_o_mosi $end
$var wire 1 Y ww_i_miso $end
$var wire 1 Z \o_tx_end~output_o\ $end
$var wire 1 [ \o_data_parallel[0]~output_o\ $end
$var wire 1 \ \o_data_parallel[1]~output_o\ $end
$var wire 1 ] \o_data_parallel[2]~output_o\ $end
$var wire 1 ^ \o_data_parallel[3]~output_o\ $end
$var wire 1 _ \o_data_parallel[4]~output_o\ $end
$var wire 1 ` \o_data_parallel[5]~output_o\ $end
$var wire 1 a \o_data_parallel[6]~output_o\ $end
$var wire 1 b \o_data_parallel[7]~output_o\ $end
$var wire 1 c \o_sclk~output_o\ $end
$var wire 1 d \o_ss~output_o\ $end
$var wire 1 e \o_mosi~output_o\ $end
$var wire 1 f \i_clk~input_o\ $end
$var wire 1 g \r_counter_clock[0]~8_combout\ $end
$var wire 1 h \i_rstb~input_o\ $end
$var wire 1 i \i_tx_start~input_o\ $end
$var wire 1 j \r_tx_start~q\ $end
$var wire 1 k \r_counter_clock[6]~21\ $end
$var wire 1 l \r_counter_clock[7]~23_combout\ $end
$var wire 1 m \Equal1~0_combout\ $end
$var wire 1 n \r_sclk_fall~0_combout\ $end
$var wire 1 o \r_sclk_rise~0_combout\ $end
$var wire 1 p \r_sclk_rise~q\ $end
$var wire 1 q \r_counter_data[2]~1_combout\ $end
$var wire 1 r \r_counter_data[0]~3_combout\ $end
$var wire 1 s \r_counter_data[1]~2_combout\ $end
$var wire 1 t \Add0~0_combout\ $end
$var wire 1 u \r_counter_data[2]~0_combout\ $end
$var wire 1 v \p_comb~0_combout\ $end
$var wire 1 w \Selector1~0_combout\ $end
$var wire 1 x \r_st_present.ST_TX_RX~q\ $end
$var wire 1 y \Selector2~0_combout\ $end
$var wire 1 z \r_st_present.ST_END~q\ $end
$var wire 1 { \Selector0~0_combout\ $end
$var wire 1 | \r_st_present.ST_RESET~q\ $end
$var wire 1 } \r_counter_clock_ena~q\ $end
$var wire 1 ~ \r_counter_clock[7]~22_combout\ $end
$var wire 1 !! \r_counter_clock[0]~9\ $end
$var wire 1 "! \r_counter_clock[1]~10_combout\ $end
$var wire 1 #! \r_counter_clock[1]~11\ $end
$var wire 1 $! \r_counter_clock[2]~12_combout\ $end
$var wire 1 %! \r_counter_clock[2]~13\ $end
$var wire 1 &! \r_counter_clock[3]~14_combout\ $end
$var wire 1 '! \r_counter_clock[3]~15\ $end
$var wire 1 (! \r_counter_clock[4]~16_combout\ $end
$var wire 1 )! \r_counter_clock[4]~17\ $end
$var wire 1 *! \r_counter_clock[5]~18_combout\ $end
$var wire 1 +! \r_counter_clock[5]~19\ $end
$var wire 1 ,! \r_counter_clock[6]~20_combout\ $end
$var wire 1 -! \r_sclk_fall~1_combout\ $end
$var wire 1 .! \r_sclk_fall~2_combout\ $end
$var wire 1 /! \r_sclk_fall~q\ $end
$var wire 1 0! \o_tx_end~0_combout\ $end
$var wire 1 1! \o_tx_end~reg0_q\ $end
$var wire 1 2! \i_miso~input_o\ $end
$var wire 1 3! \r_rx_data[0]~0_combout\ $end
$var wire 1 4! \o_data_parallel[0]~reg0_q\ $end
$var wire 1 5! \o_data_parallel[1]~reg0_q\ $end
$var wire 1 6! \o_data_parallel[2]~reg0_q\ $end
$var wire 1 7! \o_data_parallel[3]~reg0_q\ $end
$var wire 1 8! \o_data_parallel[4]~reg0_q\ $end
$var wire 1 9! \o_data_parallel[5]~reg0_q\ $end
$var wire 1 :! \o_data_parallel[6]~reg0_q\ $end
$var wire 1 ;! \o_data_parallel[7]~reg0_q\ $end
$var wire 1 <! \Selector3~0_combout\ $end
$var wire 1 =! \Selector3~1_combout\ $end
$var wire 1 >! \o_sclk~reg0_q\ $end
$var wire 1 ?! \o_ss~reg0_q\ $end
$var wire 1 @! \Selector12~0_combout\ $end
$var wire 1 A! \i_data_parallel[0]~input_o\ $end
$var wire 1 B! \Selector12~1_combout\ $end
$var wire 1 C! \i_data_parallel[1]~input_o\ $end
$var wire 1 D! \Selector11~0_combout\ $end
$var wire 1 E! \r_tx_data[7]~0_combout\ $end
$var wire 1 F! \i_data_parallel[2]~input_o\ $end
$var wire 1 G! \Selector10~0_combout\ $end
$var wire 1 H! \i_data_parallel[3]~input_o\ $end
$var wire 1 I! \Selector9~0_combout\ $end
$var wire 1 J! \i_data_parallel[4]~input_o\ $end
$var wire 1 K! \Selector8~0_combout\ $end
$var wire 1 L! \i_data_parallel[5]~input_o\ $end
$var wire 1 M! \Selector7~0_combout\ $end
$var wire 1 N! \i_data_parallel[6]~input_o\ $end
$var wire 1 O! \Selector6~0_combout\ $end
$var wire 1 P! \i_data_parallel[7]~input_o\ $end
$var wire 1 Q! \Selector5~0_combout\ $end
$var wire 1 R! \Selector4~0_combout\ $end
$var wire 1 S! \Selector4~1_combout\ $end
$var wire 1 T! \o_mosi~reg0_q\ $end
$var wire 1 U! r_counter_clock [7] $end
$var wire 1 V! r_counter_clock [6] $end
$var wire 1 W! r_counter_clock [5] $end
$var wire 1 X! r_counter_clock [4] $end
$var wire 1 Y! r_counter_clock [3] $end
$var wire 1 Z! r_counter_clock [2] $end
$var wire 1 [! r_counter_clock [1] $end
$var wire 1 \! r_counter_clock [0] $end
$var wire 1 ]! r_rx_data [7] $end
$var wire 1 ^! r_rx_data [6] $end
$var wire 1 _! r_rx_data [5] $end
$var wire 1 `! r_rx_data [4] $end
$var wire 1 a! r_rx_data [3] $end
$var wire 1 b! r_rx_data [2] $end
$var wire 1 c! r_rx_data [1] $end
$var wire 1 d! r_rx_data [0] $end
$var wire 1 e! r_tx_data [7] $end
$var wire 1 f! r_tx_data [6] $end
$var wire 1 g! r_tx_data [5] $end
$var wire 1 h! r_tx_data [4] $end
$var wire 1 i! r_tx_data [3] $end
$var wire 1 j! r_tx_data [2] $end
$var wire 1 k! r_tx_data [1] $end
$var wire 1 l! r_tx_data [0] $end
$var wire 1 m! r_counter_data [3] $end
$var wire 1 n! r_counter_data [2] $end
$var wire 1 o! r_counter_data [1] $end
$var wire 1 p! r_counter_data [0] $end
$var wire 1 q! \ALT_INV_o_mosi~reg0_q\ $end
$var wire 1 r! \ALT_INV_o_ss~reg0_q\ $end
$var wire 1 s! \ALT_INV_o_sclk~reg0_q\ $end
$upscope $end
$upscope $end
$enddefinitions $end
#0
$dumpvars
0!
0*
1+
0,
15
16
17
08
09
1:
x;
1<
1=
1>
1?
1@
1A
0B
1C
0D
0E
1V
1W
1X
0Y
0Z
0[
0\
0]
0^
0_
0`
0a
0b
1c
1d
1e
0f
1g
1h
0i
0j
0k
0l
1m
0n
0o
0p
0q
0r
0s
0t
0u
0v
0w
0x
0y
0z
0{
0|
0}
1~
0!!
0"!
1#!
0$!
0%!
0&!
1'!
0(!
0)!
0*!
1+!
0,!
0-!
0.!
0/!
00!
01!
02!
03!
04!
05!
06!
07!
08!
09!
0:!
0;!
1<!
0=!
0>!
0?!
0@!
0A!
0B!
0C!
0D!
1E!
0F!
0G!
0H!
0I!
0J!
0K!
0L!
0M!
0N!
0O!
0P!
0Q!
0R!
0S!
0T!
1q!
1r!
1s!
0"
0#
0$
0%
0&
0'
0(
0)
0F
0G
0H
0I
0J
0K
0L
0M
0N
0O
0P
0Q
0R
0S
0T
0U
0U!
0V!
0W!
0X!
0Y!
0Z!
0[!
0\!
0]!
0^!
0_!
0`!
0a!
0b!
0c!
0d!
0e!
0f!
0g!
0h!
0i!
0j!
0k!
0l!
xm!
0n!
0o!
0p!
0-
0.
0/
00
01
02
03
04
$end
#5000
1!
1B
1f
#10000
0!
0B
0f
#15000
1!
1B
1f
#20000
0!
0B
0f
#25000
1!
1B
1f
#30000
0!
0B
0f
#35000
1!
1B
1f
#40000
0!
0B
0f
#45000
1!
1B
1f
#50000
0!
0B
0f
#55000
1!
1B
1f
#60000
0!
0B
0f
#65000
1!
1B
1f
#70000
0!
0B
0f
#75000
1!
1B
1f
#80000
0!
0B
0f
#85000
1!
1B
1f
#90000
0!
0B
0f
#95000
1!
1B
1f
#100000
0!
0B
0f
#105000
1!
1B
1f
#110000
0!
0B
0f
#115000
1!
1B
1f
#120000
0!
0B
0f
#125000
1!
1B
1f
#130000
0!
0B
0f
#135000
1!
1B
1f
#140000
0!
0B
0f
#145000
1!
1B
1f
#150000
0!
0B
0f
#155000
1!
1B
1f
#160000
0!
0B
0f
#165000
1!
1B
1f
#170000
0!
0B
0f
#175000
1!
1B
1f
#180000
0!
0B
0f
#185000
1!
1B
1f
#190000
0!
0B
0f
#195000
1!
1B
1f
#200000
0!
0B
0f
#205000
1!
1B
1f
#210000
0!
0B
0f
#215000
1!
1B
1f
#220000
0!
0B
0f
#225000
1!
1B
1f
#230000
0!
0B
0f
#235000
1!
1B
1f
#240000
0!
0B
0f
#245000
1!
1B
1f
#250000
0!
0B
0f
#255000
1!
1B
1f
#260000
0!
0B
0f
#265000
1!
1B
1f
#270000
0!
0B
0f
#275000
1!
1B
1f
#280000
0!
0B
0f
#285000
1!
1B
1f
#290000
0!
0B
0f
#295000
1!
1B
1f
#300000
0!
0B
0f
#305000
1!
1B
1f
#310000
0!
0B
0f
#315000
1!
1B
1f
#320000
0!
1,
0B
1D
1i
0f
#325000
1!
1B
1f
1j
1w
1{
#330000
0!
0B
0f
#335000
1!
1B
1f
1x
1|
1q
1r
0E!
0r
#340000
0!
0B
0f
#345000
1!
1B
1f
1}
1?!
0r!
0~
0d
0W
07
#350000
0!
0B
0f
#355000
1!
1B
1f
1\!
0g
1!!
1"!
#360000
0!
0B
0f
#365000
1!
1B
1f
0\!
1[!
0"!
0#!
1g
0!!
1"!
1#!
1$!
0$!
#370000
0!
0B
0f
#375000
1!
1B
1f
1\!
0g
1!!
1n
0"!
0#!
1$!
#380000
0!
0B
0f
#385000
1!
1B
1f
0\!
0[!
1Z!
0$!
1%!
1"!
1#!
1g
0!!
0n
0"!
1$!
0%!
1&!
0&!
#390000
0!
0B
0f
#395000
1!
1B
1f
1\!
0g
1!!
1"!
#400000
0!
0B
0f
#405000
1!
1B
1f
0\!
1[!
0"!
0#!
1g
0!!
1"!
1#!
0$!
1%!
1&!
1$!
0%!
0&!
#410000
0!
0B
0f
#415000
1!
1B
1f
1\!
0g
1!!
1n
0"!
0#!
0$!
1%!
1&!
#420000
0!
0B
0f
#425000
1!
1B
1f
0\!
0[!
0Z!
1Y!
0&!
0'!
1$!
0%!
1"!
1#!
1g
0!!
0n
0"!
0$!
1&!
1'!
1(!
0(!
#430000
0!
0B
0f
#435000
1!
1B
1f
1\!
0g
1!!
1"!
#440000
0!
0B
0f
#445000
1!
1B
1f
0\!
1[!
0"!
0#!
1g
0!!
1"!
1#!
1$!
0$!
#450000
0!
0B
0f
#455000
1!
1B
1f
1\!
0g
1!!
0"!
0#!
1$!
#460000
0!
0B
0f
#465000
1!
1B
1f
0\!
0[!
1Z!
0$!
1%!
1"!
1#!
1g
0!!
0"!
1$!
0%!
0&!
0'!
1(!
1&!
1'!
0(!
#470000
0!
0B
0f
#475000
1!
1B
1f
1\!
0g
1!!
1"!
#480000
0!
0B
0f
#485000
1!
1B
1f
0\!
1[!
0"!
0#!
1g
0!!
1"!
1#!
0$!
1%!
0&!
0'!
1$!
0%!
1&!
1'!
1(!
0(!
#490000
0!
0B
0f
#495000
1!
1B
1f
1\!
0g
1!!
0"!
0#!
0$!
1%!
0&!
0'!
1(!
#500000
0!
0B
0f
#505000
1!
1B
1f
0\!
0[!
0Z!
0Y!
1X!
0(!
1)!
1&!
1'!
1$!
0%!
1"!
1#!
1g
0!!
0"!
0$!
0&!
1(!
0)!
1*!
0*!
#510000
0!
0B
0f
#515000
1!
1B
1f
1\!
0g
1!!
1"!
#520000
0!
0B
0f
#525000
1!
1B
1f
0\!
1[!
0"!
0#!
1g
0!!
1"!
1#!
1$!
0$!
#530000
0!
0B
0f
#535000
1!
1B
1f
1\!
0g
1!!
0"!
0#!
1$!
#540000
0!
0B
0f
#545000
1!
1B
1f
0\!
0[!
1Z!
0$!
1%!
1"!
1#!
1g
0!!
0"!
1$!
0%!
1&!
0&!
#550000
0!
0B
0f
#555000
1!
1B
1f
1\!
0g
1!!
1"!
#560000
0!
0B
0f
#565000
1!
1B
1f
0\!
1[!
0"!
0#!
1g
0!!
1"!
1#!
0$!
1%!
1&!
1$!
0%!
0&!
#570000
0!
0B
0f
#575000
1!
1B
1f
1\!
0g
1!!
0"!
0#!
0$!
1%!
1&!
#580000
0!
0B
0f
#585000
1!
1B
1f
0\!
0[!
0Z!
1Y!
0&!
0'!
1$!
0%!
1"!
1#!
1g
0!!
0"!
0$!
1&!
1'!
0(!
1)!
1*!
1(!
0)!
0*!
#590000
0!
0B
0f
#595000
1!
1B
1f
1\!
0g
1!!
1"!
#600000
0!
0B
0f
#605000
1!
1B
1f
0\!
1[!
0"!
0#!
1g
0!!
1"!
1#!
1$!
0$!
#610000
0!
0B
0f
#615000
1!
1B
1f
1\!
0g
1!!
0"!
0#!
1$!
#620000
0!
0B
0f
#625000
1!
1B
1f
0\!
0[!
1Z!
0$!
1%!
1"!
1#!
1g
0!!
0"!
1$!
0%!
0&!
0'!
0(!
1)!
1&!
1'!
1(!
0)!
1*!
0*!
#630000
0!
0B
0f
#635000
1!
1B
1f
1\!
0g
1!!
1"!
#640000
0!
0B
0f
#645000
1!
1B
1f
0\!
1[!
0"!
0#!
1g
0!!
1"!
1#!
0$!
1%!
0&!
0'!
1$!
0%!
1&!
1'!
0(!
1)!
1*!
1(!
0)!
0*!
#650000
0!
0B
0f
#655000
1!
1B
1f
1\!
0g
1!!
0"!
0#!
0$!
1%!
0&!
0'!
0(!
1)!
1*!
#660000
0!
0B
0f
#665000
1!
1B
1f
0\!
0[!
0Z!
0Y!
0X!
1W!
0*!
0+!
1(!
0)!
1&!
1'!
1$!
0%!
1-!
1"!
1#!
1g
0!!
0"!
0$!
0&!
0(!
1*!
1+!
1,!
0,!
#670000
0!
0B
0f
#675000
1!
1B
1f
1\!
0g
1!!
1"!
#680000
0!
0B
0f
#685000
1!
1B
1f
0\!
1[!
0"!
0#!
1g
0!!
1"!
1#!
1$!
0$!
#690000
0!
0B
0f
#695000
1!
1B
1f
1\!
0g
1!!
1n
0"!
0#!
1$!
#700000
0!
0B
0f
#705000
1!
1B
1f
0\!
0[!
1Z!
0$!
1%!
0-!
1"!
1#!
1g
0!!
0n
0"!
1$!
0%!
1&!
0&!
#710000
0!
0B
0f
#715000
1!
1B
1f
1\!
0g
1!!
1"!
#720000
0!
0B
0f
#725000
1!
1B
1f
0\!
1[!
0"!
0#!
1g
0!!
1"!
1#!
0$!
1%!
1&!
1$!
0%!
0&!
#730000
0!
0B
0f
#735000
1!
1B
1f
1\!
0g
1!!
1n
0"!
0#!
0$!
1%!
1&!
#740000
0!
0B
0f
#745000
1!
1B
1f
0\!
0[!
0Z!
1Y!
0&!
0'!
1$!
0%!
1-!
1"!
1#!
1g
0!!
0n
0"!
0$!
1&!
1'!
1(!
0(!
#750000
0!
0B
0f
#755000
1!
1B
1f
1\!
0g
1!!
1"!
#760000
0!
0B
0f
#765000
1!
1B
1f
0\!
1[!
0"!
0#!
1g
0!!
1"!
1#!
1$!
0$!
#770000
0!
0B
0f
#775000
1!
1B
1f
1\!
0g
1!!
0"!
0#!
1$!
#780000
0!
0B
0f
#785000
1!
1B
1f
0\!
0[!
1Z!
0$!
1%!
0-!
1"!
1#!
1g
0!!
0"!
1$!
0%!
0&!
0'!
1(!
1&!
1'!
0(!
#790000
0!
0B
0f
#795000
1!
1B
1f
1\!
0g
1!!
1"!
#800000
0!
0B
0f
#805000
1!
1B
1f
0\!
1[!
0"!
0#!
1g
0!!
1"!
1#!
0$!
1%!
0&!
0'!
1$!
0%!
1&!
1'!
1(!
0(!
#810000
0!
0B
0f
#815000
1!
1B
1f
1\!
0g
1!!
0"!
0#!
0$!
1%!
0&!
0'!
1(!
#820000
0!
0B
0f
#825000
1!
1B
1f
0\!
0[!
0Z!
0Y!
1X!
0(!
1)!
1&!
1'!
1$!
0%!
1-!
1"!
1#!
1g
0!!
0"!
0$!
0&!
1(!
0)!
0*!
0+!
1,!
1*!
1+!
0,!
#830000
0!
0B
0f
#835000
1!
1B
1f
1\!
0g
1!!
1"!
#840000
0!
0B
0f
#845000
1!
1B
1f
0\!
1[!
0"!
0#!
1g
0!!
1"!
1#!
1$!
0$!
#850000
0!
0B
0f
#855000
1!
1B
1f
1\!
0g
1!!
0"!
0#!
1$!
#860000
0!
0B
0f
#865000
1!
1B
1f
0\!
0[!
1Z!
0$!
1%!
0-!
1"!
1#!
1g
0!!
0"!
1$!
0%!
1&!
0&!
#870000
0!
0B
0f
#875000
1!
1B
1f
1\!
0g
1!!
1"!
#880000
0!
0B
0f
#885000
1!
1B
1f
0\!
1[!
0"!
0#!
1g
0!!
1"!
1#!
0$!
1%!
1&!
1$!
0%!
0&!
#890000
0!
0B
0f
#895000
1!
1B
1f
1\!
0g
1!!
0"!
0#!
0$!
1%!
1&!
#900000
0!
0B
0f
#905000
1!
1B
1f
0\!
0[!
0Z!
1Y!
0&!
0'!
1$!
0%!
1-!
1"!
1#!
1g
0!!
0"!
0$!
1&!
1'!
0(!
1)!
0*!
0+!
1(!
0)!
1*!
1+!
1,!
0,!
#910000
0!
0B
0f
#915000
1!
1B
1f
1\!
0g
1!!
1"!
#920000
0!
0B
0f
#925000
1!
1B
1f
0\!
1[!
0"!
0#!
1g
0!!
1"!
1#!
1$!
0$!
#930000
0!
0B
0f
#935000
1!
1B
1f
1\!
0g
1!!
0"!
0#!
1$!
#940000
0!
0B
0f
#945000
1!
1B
1f
0\!
0[!
1Z!
0$!
1%!
0-!
1"!
1#!
1g
0!!
0"!
1$!
0%!
0&!
0'!
0(!
1)!
1&!
1'!
1(!
0)!
0*!
0+!
1,!
1*!
1+!
0,!
#950000
0!
0B
0f
#955000
1!
1B
1f
1\!
0g
1!!
1"!
#960000
0!
0,
0B
0D
0i
0f
#965000
1!
1B
1f
0j
0\!
1[!
0"!
0#!
1g
0!!
1"!
1#!
0$!
1%!
0&!
0'!
1$!
0%!
1&!
1'!
0(!
1)!
0*!
0+!
1(!
0)!
1*!
1+!
1,!
0,!
#970000
0!
0B
0f
#975000
1!
1B
1f
1\!
0g
1!!
0"!
0#!
0$!
1%!
0&!
0'!
0(!
1)!
0*!
0+!
1,!
#980000
0!
0B
0f
#985000
1!
1B
1f
0\!
0[!
0Z!
0Y!
0X!
0W!
1V!
0,!
1k
1*!
1+!
1(!
0)!
1&!
1'!
1$!
0%!
1"!
1#!
1g
0!!
0"!
0$!
0&!
0(!
0*!
1,!
0k
1l
0l
#990000
0!
0B
0f
#995000
1!
1B
1f
1\!
0g
1!!
1"!
#1000000
0!
0B
0f
#1005000
1!
1B
1f
0\!
1[!
0"!
0#!
1g
0!!
1"!
1#!
1$!
0$!
#1010000
0!
0B
0f
#1015000
1!
1B
1f
1\!
0g
1!!
1n
0"!
0#!
1$!
#1020000
0!
0B
0f
#1025000
1!
1B
1f
0\!
0[!
1Z!
0$!
1%!
1"!
1#!
1g
0!!
0n
0"!
1$!
0%!
1&!
0&!
#1030000
0!
0B
0f
#1035000
1!
1B
1f
1\!
0g
1!!
1"!
#1040000
0!
0B
0f
#1045000
1!
1B
1f
0\!
1[!
0"!
0#!
1g
0!!
1"!
1#!
0$!
1%!
1&!
1$!
0%!
0&!
#1050000
0!
0B
0f
#1055000
1!
1B
1f
1\!
0g
1!!
1n
0"!
0#!
0$!
1%!
1&!
#1060000
0!
0B
0f
#1065000
1!
1B
1f
0\!
0[!
0Z!
1Y!
0&!
0'!
1$!
0%!
1"!
1#!
1g
0!!
0n
0"!
0$!
1&!
1'!
1(!
0(!
#1070000
0!
0B
0f
#1075000
1!
1B
1f
1\!
0g
1!!
1"!
#1080000
0!
0B
0f
#1085000
1!
1B
1f
0\!
1[!
0"!
0#!
1g
0!!
1"!
1#!
1$!
0$!
#1090000
0!
0B
0f
#1095000
1!
1B
1f
1\!
0g
1!!
0"!
0#!
1$!
#1100000
0!
0B
0f
#1105000
1!
1B
1f
0\!
0[!
1Z!
0$!
1%!
1"!
1#!
1g
0!!
0"!
1$!
0%!
0&!
0'!
1(!
1&!
1'!
0(!
#1110000
0!
0B
0f
#1115000
1!
1B
1f
1\!
0g
1!!
1"!
#1120000
0!
0B
0f
#1125000
1!
1B
1f
0\!
1[!
0"!
0#!
1g
0!!
1"!
1#!
0$!
1%!
0&!
0'!
1$!
0%!
1&!
1'!
1(!
0(!
#1130000
0!
0B
0f
#1135000
1!
1B
1f
1\!
0g
1!!
0"!
0#!
0$!
1%!
0&!
0'!
1(!
#1140000
0!
0B
0f
#1145000
1!
1B
1f
0\!
0[!
0Z!
0Y!
1X!
0(!
1)!
1&!
1'!
1$!
0%!
1"!
1#!
1g
0!!
0"!
0$!
0&!
1(!
0)!
1*!
0*!
#1150000
0!
0B
0f
#1155000
1!
1B
1f
1\!
0g
1!!
1"!
#1160000
0!
0B
0f
#1165000
1!
1B
1f
0\!
1[!
0"!
0#!
1g
0!!
1"!
1#!
1$!
0$!
#1170000
0!
0B
0f
#1175000
1!
1B
1f
1\!
0g
1!!
0"!
0#!
1$!
#1180000
0!
0B
0f
#1185000
1!
1B
1f
0\!
0[!
1Z!
0$!
1%!
1"!
1#!
1g
0!!
0"!
1$!
0%!
1&!
0&!
#1190000
0!
0B
0f
#1195000
1!
1B
1f
1\!
0g
1!!
1"!
#1200000
0!
0B
0f
#1205000
1!
1B
1f
0\!
1[!
0"!
0#!
1g
0!!
1"!
1#!
0$!
1%!
1&!
1$!
0%!
0&!
#1210000
0!
0B
0f
#1215000
1!
1B
1f
1\!
0g
1!!
0"!
0#!
0$!
1%!
1&!
#1220000
0!
0B
0f
#1225000
1!
1B
1f
0\!
0[!
0Z!
1Y!
0&!
0'!
1$!
0%!
1"!
1#!
1g
0!!
0"!
0$!
1&!
1'!
0(!
1)!
1*!
1(!
0)!
0*!
#1230000
0!
0B
0f
#1235000
1!
1B
1f
1\!
0g
1!!
1"!
#1240000
0!
0B
0f
#1245000
1!
1B
1f
0\!
1[!
0"!
0#!
1g
0!!
1"!
1#!
1$!
0$!
#1250000
0!
0B
0f
#1255000
1!
1B
1f
1\!
0g
1!!
0"!
0#!
1$!
#1260000
0!
0B
0f
#1265000
1!
1B
1f
0\!
0[!
1Z!
0$!
1%!
1"!
1#!
1g
0!!
0"!
1$!
0%!
0&!
0'!
0(!
1)!
1&!
1'!
1(!
0)!
1*!
0*!
#1270000
0!
0B
0f
#1275000
1!
1B
1f
1\!
0g
1!!
1"!
#1280000
0!
0B
0f
#1285000
1!
1B
1f
0\!
1[!
0"!
0#!
1g
0!!
1"!
1#!
0$!
1%!
0&!
0'!
1$!
0%!
1&!
1'!
0(!
1)!
1*!
1(!
0)!
0*!
#1290000
0!
0B
0f
#1295000
1!
1B
1f
1\!
0g
1!!
0"!
0#!
0$!
1%!
0&!
0'!
0(!
1)!
1*!
#1300000
0!
0B
0f
#1305000
1!
1B
1f
0\!
0[!
0Z!
0Y!
0X!
1W!
0*!
0+!
1(!
0)!
1&!
1'!
1$!
0%!
1-!
1"!
1#!
1g
0!!
0"!
0$!
0&!
0(!
1*!
1+!
0,!
1k
1l
1,!
0k
0l
#1310000
0!
0B
0f
#1315000
1!
1B
1f
1\!
0g
1!!
1"!
#1320000
0!
0B
0f
#1325000
1!
1B
1f
0\!
1[!
0"!
0#!
1g
0!!
1"!
1#!
1$!
0$!
#1330000
0!
0B
0f
#1335000
1!
1B
1f
1\!
0g
1!!
1n
1.!
0"!
0#!
1$!
#1340000
0!
0B
0f
#1345000
1!
1B
1f
0\!
0[!
1Z!
1/!
0<!
1@!
1E!
1R!
0$!
1%!
0-!
1"!
1#!
1g
0!!
0n
0"!
1$!
0%!
0.!
1&!
1S!
1B!
1=!
0&!
#1350000
0!
0B
0f
#1355000
1!
1B
1f
1\!
0/!
1>!
1l!
1T!
0q!
0s!
0S!
1D!
0@!
0E!
0R!
0g
1!!
0c
0e
1"!
1S!
0V
0X
06
05
#1360000
0!
0B
0f
#1365000
1!
1B
1f
0\!
1[!
0"!
0#!
1g
0!!
1"!
1#!
0$!
1%!
1&!
1$!
0%!
0&!
#1370000
0!
0B
0f
#1375000
1!
1B
1f
1\!
0g
1!!
1n
0"!
0#!
0$!
1%!
1&!
#1380000
0!
0B
0f
#1385000
1!
1B
1f
0\!
0[!
0Z!
1Y!
0&!
0'!
1$!
0%!
1-!
1"!
1#!
1g
0!!
0n
0"!
0$!
1&!
1'!
1(!
0(!
#1390000
0!
0B
0f
#1395000
1!
1B
1f
1\!
0g
1!!
1"!
#1400000
0!
0B
0f
#1405000
1!
1B
1f
0\!
1[!
0"!
0#!
1g
0!!
1"!
1#!
1$!
0$!
#1410000
0!
0B
0f
#1415000
1!
1B
1f
1\!
0g
1!!
0"!
0#!
1$!
#1420000
0!
0B
0f
#1425000
1!
1B
1f
0\!
0[!
1Z!
0$!
1%!
0-!
1"!
1#!
1g
0!!
0"!
1$!
0%!
0&!
0'!
1(!
1&!
1'!
0(!
#1430000
0!
0B
0f
#1435000
1!
1B
1f
1\!
0g
1!!
1"!
#1440000
0!
0B
0f
#1445000
1!
1B
1f
0\!
1[!
0"!
0#!
1g
0!!
1"!
1#!
0$!
1%!
0&!
0'!
1$!
0%!
1&!
1'!
1(!
0(!
#1450000
0!
0B
0f
#1455000
1!
1B
1f
1\!
0g
1!!
0"!
0#!
0$!
1%!
0&!
0'!
1(!
#1460000
0!
0B
0f
#1465000
1!
1B
1f
0\!
0[!
0Z!
0Y!
1X!
0(!
1)!
1&!
1'!
1$!
0%!
1-!
1"!
1#!
1g
0!!
0"!
0$!
0&!
1(!
0)!
0*!
0+!
0,!
1k
1*!
1+!
1,!
0k
1l
0l
#1470000
0!
0B
0f
#1475000
1!
1B
1f
1\!
0g
1!!
1"!
#1480000
0!
0B
0f
#1485000
1!
1B
1f
0\!
1[!
0"!
0#!
1g
0!!
1"!
1#!
1$!
0$!
#1490000
0!
0B
0f
#1495000
1!
1B
1f
1\!
0g
1!!
0"!
0#!
1$!
#1500000
0!
0B
0f
#1505000
1!
1B
1f
0\!
0[!
1Z!
0$!
1%!
0-!
1"!
1#!
1g
0!!
0"!
1$!
0%!
1&!
0&!
#1510000
0!
0B
0f
#1515000
1!
1B
1f
1\!
0g
1!!
1"!
#1520000
0!
0B
0f
#1525000
1!
1B
1f
0\!
1[!
0"!
0#!
1g
0!!
1"!
1#!
0$!
1%!
1&!
1$!
0%!
0&!
#1530000
0!
0B
0f
#1535000
1!
1B
1f
1\!
0g
1!!
0"!
0#!
0$!
1%!
1&!
#1540000
0!
0B
0f
#1545000
1!
1B
1f
0\!
0[!
0Z!
1Y!
0&!
0'!
1$!
0%!
1-!
1"!
1#!
1g
0!!
0"!
0$!
1&!
1'!
0(!
1)!
0*!
0+!
1(!
0)!
1*!
1+!
0,!
1k
1l
1,!
0k
0l
#1550000
0!
0B
0f
#1555000
1!
1B
1f
1\!
0g
1!!
1"!
#1560000
0!
0B
0f
#1565000
1!
1B
1f
0\!
1[!
0"!
0#!
1g
0!!
1"!
1#!
1$!
0$!
#1570000
0!
0B
0f
#1575000
1!
1B
1f
1\!
0g
1!!
0"!
0#!
1$!
