Clock_Prescaler/simulation/qsim/Clock_Prescaler.msim.vcd
$comment
	File created using the following command:
		vcd file Clock_Prescaler.msim.vcd -direction
$end
$date
	Mon Jul 17 10:03:58 2023
$end
$version
	ModelSim Version 2020.1
$end
$timescale
	1ps
$end

$scope module clock_prescaler_vhd_vec_tst $end
$var wire 1 ! Clk_in $end
$var wire 1 " Clk_Out $end
$var wire 1 # Clk_Selector [1] $end
$var wire 1 $ Clk_Selector [0] $end
$var wire 1 % Enable $end

$scope module i1 $end
$var wire 1 & gnd $end
$var wire 1 ' vcc $end
$var wire 1 ( unknown $end
$var wire 1 ) devoe $end
$var wire 1 * devclrn $end
$var wire 1 + devpor $end
$var wire 1 , ww_devoe $end
$var wire 1 - ww_devclrn $end
$var wire 1 . ww_devpor $end
$var wire 1 / ww_Clk_in $end
$var wire 1 0 ww_Enable $end
$var wire 1 1 ww_Clk_Selector [1] $end
$var wire 1 2 ww_Clk_Selector [0] $end
$var wire 1 3 ww_Clk_Out $end
$var wire 1 4 \~QUARTUS_CREATED_ADC1~_CHSEL_bus\ [4] $end
$var wire 1 5 \~QUARTUS_CREATED_ADC1~_CHSEL_bus\ [3] $end
$var wire 1 6 \~QUARTUS_CREATED_ADC1~_CHSEL_bus\ [2] $end
$var wire 1 7 \~QUARTUS_CREATED_ADC1~_CHSEL_bus\ [1] $end
$var wire 1 8 \~QUARTUS_CREATED_ADC1~_CHSEL_bus\ [0] $end
$var wire 1 9 \~QUARTUS_CREATED_ADC2~_CHSEL_bus\ [4] $end
$var wire 1 : \~QUARTUS_CREATED_ADC2~_CHSEL_bus\ [3] $end
$var wire 1 ; \~QUARTUS_CREATED_ADC2~_CHSEL_bus\ [2] $end
$var wire 1 < \~QUARTUS_CREATED_ADC2~_CHSEL_bus\ [1] $end
$var wire 1 = \~QUARTUS_CREATED_ADC2~_CHSEL_bus\ [0] $end
$var wire 1 > \Clk_in~inputclkctrl_INCLK_bus\ [3] $end
$var wire 1 ? \Clk_in~inputclkctrl_INCLK_bus\ [2] $end
$var wire 1 @ \Clk_in~inputclkctrl_INCLK_bus\ [1] $end
$var wire 1 A \Clk_in~inputclkctrl_INCLK_bus\ [0] $end
$var wire 1 B \~QUARTUS_CREATED_GND~I_combout\ $end
$var wire 1 C \~QUARTUS_CREATED_UNVM~~busy\ $end
$var wire 1 D \~QUARTUS_CREATED_ADC1~~eoc\ $end
$var wire 1 E \~QUARTUS_CREATED_ADC2~~eoc\ $end
$var wire 1 F \Clk_Out~output_o\ $end
$var wire 1 G \Clk_in~input_o\ $end
$var wire 1 H \Clk_in~inputclkctrl_outclk\ $end
$var wire 1 I \clock_scaler|counter_value1[0]~32_combout\ $end
$var wire 1 J \Enable~input_o\ $end
$var wire 1 K \clock_scaler|counter_value1[0]~33\ $end
$var wire 1 L \clock_scaler|counter_value1[1]~34_combout\ $end
$var wire 1 M \clock_scaler|counter_value1[1]~35\ $end
$var wire 1 N \clock_scaler|counter_value1[2]~36_combout\ $end
$var wire 1 O \clock_scaler|counter_value1[2]~37\ $end
$var wire 1 P \clock_scaler|counter_value1[3]~38_combout\ $end
$var wire 1 Q \clock_scaler|counter_value1[3]~39\ $end
$var wire 1 R \clock_scaler|counter_value1[4]~40_combout\ $end
$var wire 1 S \clock_scaler|counter_value1[4]~41\ $end
$var wire 1 T \clock_scaler|counter_value1[5]~42_combout\ $end
$var wire 1 U \clock_scaler|counter_value1[5]~43\ $end
$var wire 1 V \clock_scaler|counter_value1[6]~44_combout\ $end
$var wire 1 W \clock_scaler|counter_value1[6]~45\ $end
$var wire 1 X \clock_scaler|counter_value1[7]~46_combout\ $end
$var wire 1 Y \clock_scaler|counter_value1[7]~47\ $end
$var wire 1 Z \clock_scaler|counter_value1[8]~48_combout\ $end
$var wire 1 [ \clock_scaler|counter_value1[8]~49\ $end
$var wire 1 \ \clock_scaler|counter_value1[9]~50_combout\ $end
$var wire 1 ] \clock_scaler|counter_value1[9]~51\ $end
$var wire 1 ^ \clock_scaler|counter_value1[10]~52_combout\ $end
$var wire 1 _ \clock_scaler|counter_value1[10]~53\ $end
$var wire 1 ` \clock_scaler|counter_value1[11]~54_combout\ $end
$var wire 1 a \clock_scaler|counter_value1[11]~55\ $end
$var wire 1 b \clock_scaler|counter_value1[12]~56_combout\ $end
$var wire 1 c \clock_scaler|counter_value1[12]~57\ $end
$var wire 1 d \clock_scaler|counter_value1[13]~58_combout\ $end
$var wire 1 e \clock_scaler|counter_value1[13]~59\ $end
$var wire 1 f \clock_scaler|counter_value1[14]~60_combout\ $end
$var wire 1 g \clock_scaler|counter_value1[14]~61\ $end
$var wire 1 h \clock_scaler|counter_value1[15]~62_combout\ $end
$var wire 1 i \clock_scaler|counter_value1[15]~63\ $end
$var wire 1 j \clock_scaler|counter_value1[16]~64_combout\ $end
$var wire 1 k \clock_scaler|counter_value1[16]~65\ $end
$var wire 1 l \clock_scaler|counter_value1[17]~66_combout\ $end
$var wire 1 m \clock_scaler|counter_value1[17]~67\ $end
$var wire 1 n \clock_scaler|counter_value1[18]~68_combout\ $end
$var wire 1 o \clock_scaler|counter_value1[18]~69\ $end
$var wire 1 p \clock_scaler|counter_value1[19]~70_combout\ $end
$var wire 1 q \clock_scaler|counter_value1[19]~71\ $end
$var wire 1 r \clock_scaler|counter_value1[20]~72_combout\ $end
$var wire 1 s \clock_scaler|counter_value1[20]~73\ $end
$var wire 1 t \clock_scaler|counter_value1[21]~74_combout\ $end
$var wire 1 u \clock_scaler|counter_value1[21]~75\ $end
$var wire 1 v \clock_scaler|counter_value1[22]~76_combout\ $end
$var wire 1 w \clock_scaler|counter_value1[22]~77\ $end
$var wire 1 x \clock_scaler|counter_value1[23]~78_combout\ $end
$var wire 1 y \clock_scaler|counter_value1[23]~79\ $end
$var wire 1 z \clock_scaler|counter_value1[24]~80_combout\ $end
$var wire 1 { \clock_scaler|counter_value1[24]~81\ $end
$var wire 1 | \clock_scaler|counter_value1[25]~82_combout\ $end
$var wire 1 } \clock_scaler|counter_value1[25]~83\ $end
$var wire 1 ~ \clock_scaler|counter_value1[26]~84_combout\ $end
$var wire 1 !! \clock_scaler|counter_value1[26]~85\ $end
$var wire 1 "! \clock_scaler|counter_value1[27]~86_combout\ $end
$var wire 1 #! \clock_scaler|counter_value1[27]~87\ $end
$var wire 1 $! \clock_scaler|counter_value1[28]~88_combout\ $end
$var wire 1 %! \clock_scaler|counter_value1[28]~89\ $end
$var wire 1 &! \clock_scaler|counter_value1[29]~90_combout\ $end
$var wire 1 '! \clock_scaler|counter_value1[29]~91\ $end
$var wire 1 (! \clock_scaler|counter_value1[30]~92_combout\ $end
$var wire 1 )! \clock_scaler|counter_value1[30]~93\ $end
$var wire 1 *! \clock_scaler|counter_value1[31]~94_combout\ $end
$var wire 1 +! \clock_scaler|LessThan0~6_combout\ $end
$var wire 1 ,! \clock_scaler|LessThan0~3_combout\ $end
$var wire 1 -! \clock_scaler|LessThan0~1_combout\ $end
$var wire 1 .! \clock_scaler|LessThan0~2_combout\ $end
$var wire 1 /! \clock_scaler|LessThan0~0_combout\ $end
$var wire 1 0! \clock_scaler|LessThan0~4_combout\ $end
$var wire 1 1! \clock_scaler|LessThan0~5_combout\ $end
$var wire 1 2! \clock_scaler|LessThan0~7_combout\ $end
$var wire 1 3! \clock_scaler|LessThan0~8_combout\ $end
$var wire 1 4! \clock_scaler|LessThan0~9_combout\ $end
$var wire 1 5! \clock_scaler|Toggle4~0_combout\ $end
$var wire 1 6! \clock_scaler|Toggle3~0_combout\ $end
$var wire 1 7! \clock_scaler|Toggle3~q\ $end
$var wire 1 8! \clock_scaler|Toggle1~0_combout\ $end
$var wire 1 9! \clock_scaler|Toggle1~q\ $end
$var wire 1 :! \Clk_Selector[0]~input_o\ $end
$var wire 1 ;! \Clk_Selector[1]~input_o\ $end
$var wire 1 <! \clock_scaler|Toggle2~0_combout\ $end
$var wire 1 =! \clock_scaler|Toggle2~q\ $end
$var wire 1 >! \clock_multiplexer|Clk_out~0_combout\ $end
$var wire 1 ?! \clock_scaler|Toggle4~1_combout\ $end
$var wire 1 @! \clock_scaler|Toggle4~2_combout\ $end
$var wire 1 A! \clock_scaler|Toggle4~q\ $end
$var wire 1 B! \clock_multiplexer|Clk_out~1_combout\ $end
$var wire 1 C! \clock_scaler|counter_value1\ [31] $end
$var wire 1 D! \clock_scaler|counter_value1\ [30] $end
$var wire 1 E! \clock_scaler|counter_value1\ [29] $end
$var wire 1 F! \clock_scaler|counter_value1\ [28] $end
$var wire 1 G! \clock_scaler|counter_value1\ [27] $end
$var wire 1 H! \clock_scaler|counter_value1\ [26] $end
$var wire 1 I! \clock_scaler|counter_value1\ [25] $end
$var wire 1 J! \clock_scaler|counter_value1\ [24] $end
$var wire 1 K! \clock_scaler|counter_value1\ [23] $end
$var wire 1 L! \clock_scaler|counter_value1\ [22] $end
$var wire 1 M! \clock_scaler|counter_value1\ [21] $end
$var wire 1 N! \clock_scaler|counter_value1\ [20] $end
$var wire 1 O! \clock_scaler|counter_value1\ [19] $end
$var wire 1 P! \clock_scaler|counter_value1\ [18] $end
$var wire 1 Q! \clock_scaler|counter_value1\ [17] $end
$var wire 1 R! \clock_scaler|counter_value1\ [16] $end
$var wire 1 S! \clock_scaler|counter_value1\ [15] $end
$var wire 1 T! \clock_scaler|counter_value1\ [14] $end
$var wire 1 U! \clock_scaler|counter_value1\ [13] $end
$var wire 1 V! \clock_scaler|counter_value1\ [12] $end
$var wire 1 W! \clock_scaler|counter_value1\ [11] $end
$var wire 1 X! \clock_scaler|counter_value1\ [10] $end
$var wire 1 Y! \clock_scaler|counter_value1\ [9] $end
$var wire 1 Z! \clock_scaler|counter_value1\ [8] $end
$var wire 1 [! \clock_scaler|counter_value1\ [7] $end
$var wire 1 \! \clock_scaler|counter_value1\ [6] $end
$var wire 1 ]! \clock_scaler|counter_value1\ [5] $end
$var wire 1 ^! \clock_scaler|counter_value1\ [4] $end
$var wire 1 _! \clock_scaler|counter_value1\ [3] $end
$var wire 1 `! \clock_scaler|counter_value1\ [2] $end
$var wire 1 a! \clock_scaler|counter_value1\ [1] $end
$var wire 1 b! \clock_scaler|counter_value1\ [0] $end
$var wire 1 c! \ALT_INV_Enable~input_o\ $end
$upscope $end
$upscope $end
$enddefinitions $end
#0
$dumpvars
0!
0"
1%
0&
1'
x(
1)
1*
1+
1,
1-
1.
0/
10
03
0B
zC
zD
zE
0F
0G
0H
1I
1J
0K
0L
1M
0N
0O
0P
1Q
0R
0S
0T
1U
0V
0W
0X
1Y
0Z
0[
0\
1]
0^
0_
0`
1a
0b
0c
0d
1e
0f
0g
0h
1i
0j
0k
0l
1m
0n
0o
0p
1q
0r
0s
0t
1u
0v
0w
0x
1y
0z
0{
0|
1}
0~
0!!
0"!
1#!
0$!
0%!
0&!
1'!
0(!
0)!
0*!
0+!
0,!
0-!
0.!
0/!
00!
01!
02!
03!
04!
05!
06!
07!
08!
09!
1:!
1;!
0<!
0=!
1>!
1?!
0@!
0A!
0B!
0c!
1#
1$
11
12
0C!
0D!
0E!
0F!
0G!
0H!
0I!
0J!
0K!
0L!
0M!
0N!
0O!
0P!
0Q!
0R!
0S!
0T!
0U!
0V!
0W!
0X!
0Y!
0Z!
0[!
0\!
0]!
0^!
0_!
0`!
0a!
0b!
1>
1?
1@
0A
04
05
06
07
08
09
0:
0;
0<
0=
$end
#10000
1!
1/
1G
1A
1H
1b!
0I
1K
1/!
10!
1L
14!
#20000
0!
0/
0G
0A
0H
#30000
1!
1/
1G
1A
1H
0b!
1a!
0L
0M
0?!
1I
0K
15!
18!
1L
1M
1N
0N
#40000
0!
0/
0G
0A
0H
#50000
1!
1/
1G
1A
1H
1b!
19!
08!
0I
1K
05!
18!
0L
0M
1N
#60000
0!
0/
0G
0A
0H
#70000
1!
1/
1G
1A
1H
0b!
0a!
1`!
0N
1O
1L
1M
1I
0K
15!
08!
1<!
0L
1N
0O
1P
0P
#80000
0!
0/
0G
0A
0H
#90000
1!
1/
1G
1A
1H
1b!
09!
1=!
0<!
18!
0I
1K
05!
08!
1<!
1L
#100000
0!
0/
0G
0A
0H
#110000
1!
1/
1G
1A
1H
0b!
1a!
0L
0M
1I
0K
15!
18!
1L
1M
0N
1O
1P
1N
0O
0P
#120000
0!
0/
0G
0A
0H
#130000
1!
1/
1G
1A
1H
1b!
19!
08!
0I
1K
05!
18!
0L
0M
0N
1O
1P
#140000
0!
0/
0G
0A
0H
#150000
1!
1/
1G
1A
1H
0b!
0a!
0`!
1_!
0P
0Q
1N
0O
1L
1M
1I
0K
15!
16!
08!
0<!
0L
0N
1P
1Q
1R
0R
#160000
0!
0/
0G
0A
0H
#170000
1!
1/
1G
1A
1H
1b!
17!
09!
0=!
1<!
18!
06!
0I
1K
05!
16!
08!
0<!
1L
#180000
0!
0/
0G
0A
0H
#190000
1!
1/
1G
1A
1H
0b!
1a!
0L
0M
1I
0K
15!
18!
1L
1M
1N
0N
#200000
0!
0/
0G
0A
0H
#210000
1!
1/
1G
1A
1H
1b!
19!
08!
0I
1K
05!
18!
0L
0M
1N
#220000
0!
0/
0G
0A
0H
#230000
1!
1/
1G
1A
1H
0b!
0a!
1`!
0N
1O
1L
1M
1I
0K
15!
08!
1<!
0L
1N
0O
0P
0Q
1R
1P
1Q
0R
#240000
0!
0/
0G
0A
0H
#250000
1!
1/
1G
1A
1H
1b!
09!
1=!
0<!
18!
0I
1K
05!
08!
1<!
1L
#260000
0!
0/
0G
0A
0H
#270000
1!
1/
1G
1A
1H
0b!
1a!
0L
0M
1I
0K
15!
18!
1L
1M
0N
1O
0P
0Q
1N
0O
1P
1Q
1R
0R
#280000
0!
0/
0G
0A
0H
#290000
1!
1/
1G
1A
1H
1b!
19!
08!
0I
1K
05!
18!
0L
0M
0N
1O
0P
0Q
1R
#300000
0!
0/
0G
0A
0H
#310000
1!
1/
1G
1A
1H
0b!
0a!
0`!
0_!
1^!
0R
1S
1-!
1P
1Q
1N
0O
1L
1M
1?!
1I
0K
0/!
15!
06!
08!
0<!
0L
1@!
0N
0P
1R
0S
1T
0T
#320000
0!
0/
0G
0A
0H
#330000
1!
1/
1G
1A
1H
1b!
07!
09!
0=!
1A!
0@!
1<!
18!
16!
1B!
0I
1K
1/!
05!
1F
06!
08!
0<!
1@!
1L
13
1"
#340000
0!
0/
0G
0A
0H
#350000
1!
1/
1G
1A
1H
0b!
1a!
0L
0M
0?!
1I
0K
15!
18!
1L
1M
1N
0N
#360000
0!
0/
0G
0A
0H
#370000
1!
1/
1G
1A
1H
1b!
19!
08!
0I
1K
05!
18!
0L
0M
1N
#380000
0!
0/
0G
0A
0H
#390000
1!
1/
1G
1A
1H
0b!
0a!
1`!
0N
1O
1L
1M
1I
0K
15!
08!
1<!
0L
1N
0O
1P
0P
#400000
0!
0/
0G
0A
0H
#410000
1!
1/
1G
1A
1H
1b!
09!
1=!
0<!
18!
0I
1K
05!
08!
1<!
1L
#420000
0!
0/
0G
0A
0H
#430000
1!
1/
1G
1A
1H
0b!
1a!
0L
0M
1I
0K
15!
18!
1L
1M
0N
1O
1P
1N
0O
0P
#440000
0!
0/
0G
0A
0H
#450000
1!
1/
1G
1A
1H
1b!
19!
08!
0I
1K
05!
18!
0L
0M
0N
1O
1P
#460000
0!
0/
0G
0A
0H
#470000
1!
1/
1G
1A
1H
0b!
0a!
0`!
1_!
0P
0Q
1N
0O
1L
1M
1I
0K
15!
16!
08!
0<!
0L
0N
1P
1Q
0R
1S
1T
1R
0S
0T
#480000
0!
0/
0G
0A
0H
#490000
1!
1/
1G
1A
1H
1b!
17!
09!
0=!
1<!
18!
06!
0I
1K
05!
16!
08!
0<!
1L
#500000
0!
0/
0G
0A
0H
#510000
1!
1/
1G
1A
1H
0b!
1a!
0L
0M
1I
0K
15!
18!
1L
1M
1N
0N
#520000
0!
0/
0G
0A
0H
#530000
1!
1/
1G
1A
1H
1b!
19!
08!
0I
1K
05!
18!
0L
0M
1N
#540000
0!
0/
0G
0A
0H
#550000
1!
1/
1G
1A
1H
0b!
0a!
1`!
0N
1O
1L
1M
1I
0K
15!
08!
1<!
0L
1N
0O
0P
0Q
0R
1S
1P
1Q
1R
0S
1T
0T
#560000
0!
0/
0G
0A
0H
#570000
1!
1/
1G
1A
1H
1b!
09!
1=!
0<!
18!
0I
1K
05!
08!
1<!
1L
#580000
0!
0/
0G
0A
0H
#590000
1!
1/
1G
1A
1H
0b!
1a!
0L
0M
1I
0K
15!
18!
1L
1M
0N
1O
0P
0Q
1N
0O
1P
1Q
0R
1S
1T
1R
0S
0T
#600000
0!
0/
0G
0A
0H
#610000
1!
1/
1G
1A
1H
1b!
19!
08!
0I
1K
05!
18!
0L
0M
0N
1O
0P
0Q
0R
1S
1T
#620000
0!
0/
0G
0A
0H
#630000
1!
1/
1G
1A
1H
0b!
0a!
0`!
0_!
0^!
1]!
0T
0U
1R
0S
1P
1Q
1N
0O
1L
1M
1?!
1I
0K
0/!
15!
06!
08!
0<!
0L
0@!
0N
0P
0R
1T
1U
1V
0V
#640000
0!
0/
0G
0A
0H
#650000
1!
1/
1G
1A
1H
1b!
07!
09!
0=!
0A!
1@!
1<!
18!
16!
0B!
0I
1K
1/!
05!
0F
06!
08!
0<!
0@!
1L
03
0"
#660000
0!
0/
0G
0A
0H
#670000
1!
1/
1G
1A
1H
0b!
1a!
0L
0M
0?!
1I
0K
15!
18!
1L
1M
1N
0N
#680000
0!
0/
0G
0A
0H
#690000
1!
1/
1G
1A
1H
1b!
19!
08!
0I
1K
05!
18!
0L
0M
1N
#700000
0!
0/
0G
0A
0H
#710000
1!
1/
1G
1A
1H
0b!
0a!
1`!
0N
1O
1L
1M
1I
0K
15!
08!
1<!
0L
1N
0O
1P
0P
#720000
0!
0/
0G
0A
0H
#730000
1!
1/
1G
1A
1H
1b!
09!
1=!
0<!
18!
0I
1K
05!
08!
1<!
1L
#740000
0!
0/
0G
0A
0H
#750000
1!
1/
1G
1A
1H
0b!
1a!
0L
0M
1I
0K
15!
18!
1L
1M
0N
1O
1P
1N
0O
0P
#760000
0!
0/
0G
0A
0H
#770000
1!
1/
1G
1A
1H
1b!
19!
08!
0I
1K
05!
18!
0L
0M
0N
1O
1P
#780000
0!
0/
0G
0A
0H
#790000
1!
1/
1G
1A
1H
0b!
0a!
0`!
1_!
0P
0Q
1N
0O
1L
1M
1I
0K
15!
16!
08!
0<!
0L
0N
1P
1Q
1R
0R
#800000
0!
0/
0G
0A
0H
#810000
1!
1/
1G
1A
1H
1b!
17!
09!
0=!
1<!
18!
06!
0I
1K
05!
16!
08!
0<!
1L
#820000
0!
0/
0G
0A
0H
#830000
1!
1/
1G
1A
1H
0b!
1a!
0L
0M
1I
0K
15!
18!
1L
1M
1N
0N
#840000
0!
0/
0G
0A
0H
#850000
1!
1/
1G
1A
1H
1b!
19!
08!
0I
1K
05!
18!
0L
0M
1N
#860000
0!
0/
0G
0A
0H
#870000
1!
1/
1G
1A
1H
0b!
0a!
1`!
0N
1O
1L
1M
1I
0K
15!
08!
1<!
0L
1N
0O
0P
0Q
1R
1P
1Q
0R
#880000
0!
0/
0G
0A
0H
#890000
1!
1/
1G
1A
1H
1b!
09!
1=!
0<!
18!
0I
1K
05!
08!
1<!
1L
#900000
0!
0/
0G
0A
0H
#910000
1!
1/
1G
1A
1H
0b!
1a!
0L
0M
1I
0K
15!
18!
1L
1M
0N
1O
0P
0Q
1N
0O
1P
1Q
1R
0R
#920000
0!
0/
0G
0A
0H
#930000
1!
1/
1G
1A
1H
1b!
19!
08!
0I
1K
05!
18!
0L
0M
0N
1O
0P
0Q
1R
#940000
0!
0/
0G
0A
0H
#950000
1!
1/
1G
1A
1H
0b!
0a!
0`!
0_!
1^!
0R
1S
1P
1Q
1N
0O
1L
1M
1?!
1I
0K
0/!
15!
06!
08!
0<!
0L
1@!
0N
0P
1R
0S
0T
0U
1V
1T
1U
0V
#960000
0!
0/
0G
0A
0H
#970000
1!
1/
1G
1A
1H
1b!
07!
09!
0=!
1A!
0@!
1<!
18!
16!
1B!
0I
1K
1/!
05!
1F
06!
08!
0<!
1@!
1L
13
1"
#980000
0!
0/
0G
0A
0H
#990000
1!
1/
1G
1A
1H
0b!
1a!
0L
0M
0?!
1I
0K
15!
18!
1L
1M
1N
0N
