Basic_VGA/simulation/qsim/Basic_VGA.msim.vcd
$comment
	File created using the following command:
		vcd file Basic_VGA.msim.vcd -direction
$end
$date
	Thu Aug 24 17:40:40 2023
$end
$version
	ModelSim Version 2020.1
$end
$timescale
	1ps
$end

$scope module basic_vga_vhd_vec_tst $end
$var wire 1 ! Blue [3] $end
$var wire 1 " Blue [2] $end
$var wire 1 # Blue [1] $end
$var wire 1 $ Blue [0] $end
$var wire 1 % clock $end
$var wire 1 & Green [3] $end
$var wire 1 ' Green [2] $end
$var wire 1 ( Green [1] $end
$var wire 1 ) Green [0] $end
$var wire 1 * Red [3] $end
$var wire 1 + Red [2] $end
$var wire 1 , Red [1] $end
$var wire 1 - Red [0] $end
$var wire 1 . reset $end
$var wire 1 / VGA_HS $end
$var wire 1 0 VGA_VS $end
$var wire 1 1 X [9] $end
$var wire 1 2 X [8] $end
$var wire 1 3 X [7] $end
$var wire 1 4 X [6] $end
$var wire 1 5 X [5] $end
$var wire 1 6 X [4] $end
$var wire 1 7 X [3] $end
$var wire 1 8 X [2] $end
$var wire 1 9 X [1] $end
$var wire 1 : X [0] $end
$var wire 1 ; Y [8] $end
$var wire 1 < Y [7] $end
$var wire 1 = Y [6] $end
$var wire 1 > Y [5] $end
$var wire 1 ? Y [4] $end
$var wire 1 @ Y [3] $end
$var wire 1 A Y [2] $end
$var wire 1 B Y [1] $end
$var wire 1 C Y [0] $end

$scope module i1 $end
$var wire 1 D gnd $end
$var wire 1 E vcc $end
$var wire 1 F unknown $end
$var wire 1 G devoe $end
$var wire 1 H devclrn $end
$var wire 1 I devpor $end
$var wire 1 J ww_devoe $end
$var wire 1 K ww_devclrn $end
$var wire 1 L ww_devpor $end
$var wire 1 M ww_clock $end
$var wire 1 N ww_reset $end
$var wire 1 O ww_VGA_HS $end
$var wire 1 P ww_VGA_VS $end
$var wire 1 Q ww_Red [3] $end
$var wire 1 R ww_Red [2] $end
$var wire 1 S ww_Red [1] $end
$var wire 1 T ww_Red [0] $end
$var wire 1 U ww_Blue [3] $end
$var wire 1 V ww_Blue [2] $end
$var wire 1 W ww_Blue [1] $end
$var wire 1 X ww_Blue [0] $end
$var wire 1 Y ww_Green [3] $end
$var wire 1 Z ww_Green [2] $end
$var wire 1 [ ww_Green [1] $end
$var wire 1 \ ww_Green [0] $end
$var wire 1 ] ww_X [9] $end
$var wire 1 ^ ww_X [8] $end
$var wire 1 _ ww_X [7] $end
$var wire 1 ` ww_X [6] $end
$var wire 1 a ww_X [5] $end
$var wire 1 b ww_X [4] $end
$var wire 1 c ww_X [3] $end
$var wire 1 d ww_X [2] $end
$var wire 1 e ww_X [1] $end
$var wire 1 f ww_X [0] $end
$var wire 1 g ww_Y [8] $end
$var wire 1 h ww_Y [7] $end
$var wire 1 i ww_Y [6] $end
$var wire 1 j ww_Y [5] $end
$var wire 1 k ww_Y [4] $end
$var wire 1 l ww_Y [3] $end
$var wire 1 m ww_Y [2] $end
$var wire 1 n ww_Y [1] $end
$var wire 1 o ww_Y [0] $end
$var wire 1 p \pll|altpll_component|auto_generated|pll1_INCLK_bus\ [1] $end
$var wire 1 q \pll|altpll_component|auto_generated|pll1_INCLK_bus\ [0] $end
$var wire 1 r \pll|altpll_component|auto_generated|pll1_CLK_bus\ [4] $end
$var wire 1 s \pll|altpll_component|auto_generated|pll1_CLK_bus\ [3] $end
$var wire 1 t \pll|altpll_component|auto_generated|pll1_CLK_bus\ [2] $end
$var wire 1 u \pll|altpll_component|auto_generated|pll1_CLK_bus\ [1] $end
$var wire 1 v \pll|altpll_component|auto_generated|pll1_CLK_bus\ [0] $end
$var wire 1 w \reset~input_o\ $end
$var wire 1 x \clock~input_o\ $end
$var wire 1 y \pll|altpll_component|auto_generated|wire_pll1_fbout\ $end
$var wire 1 z \Signal_count[1]~18_combout\ $end
$var wire 1 { \Signal_count[5]~27\ $end
$var wire 1 | \Signal_count[6]~28_combout\ $end
$var wire 1 } \Signal_count[6]~29\ $end
$var wire 1 ~ \Signal_count[7]~30_combout\ $end
$var wire 1 !! \Signal_count[7]~31\ $end
$var wire 1 "! \Signal_count[8]~32_combout\ $end
$var wire 1 #! \Signal_count[8]~33\ $end
$var wire 1 $! \Signal_count[9]~34_combout\ $end
$var wire 1 %! \Signal_count[9]~35\ $end
$var wire 1 &! \Signal_count[10]~36_combout\ $end
$var wire 1 '! \Signal_count[10]~37\ $end
$var wire 1 (! \Signal_count[11]~38_combout\ $end
$var wire 1 )! \Signal_count[11]~39\ $end
$var wire 1 *! \Signal_count[12]~40_combout\ $end
$var wire 1 +! \Signal_count[12]~41\ $end
$var wire 1 ,! \Signal_count[13]~42_combout\ $end
$var wire 1 -! \process_0~6_combout\ $end
$var wire 1 .! \process_0~7_combout\ $end
$var wire 1 /! \process_0~8_combout\ $end
$var wire 1 0! \process_0~20_combout\ $end
$var wire 1 1! \Signal_count[13]~43\ $end
$var wire 1 2! \Signal_count[14]~44_combout\ $end
$var wire 1 3! \process_0~1_combout\ $end
$var wire 1 4! \process_0~21_combout\ $end
$var wire 1 5! \process_0~22_combout\ $end
$var wire 1 6! \process_0~23_combout\ $end
$var wire 1 7! \Signal_count~17_combout\ $end
$var wire 1 8! \Signal_count[1]~19\ $end
$var wire 1 9! \Signal_count[2]~20_combout\ $end
$var wire 1 :! \Signal_count[2]~21\ $end
$var wire 1 ;! \Signal_count[3]~22_combout\ $end
$var wire 1 <! \Signal_count[3]~23\ $end
$var wire 1 =! \Signal_count[4]~24_combout\ $end
$var wire 1 >! \Signal_count[4]~25\ $end
$var wire 1 ?! \Signal_count[5]~26_combout\ $end
$var wire 1 @! \process_0~2_combout\ $end
$var wire 1 A! \process_0~3_combout\ $end
$var wire 1 B! \LessThan4~0_combout\ $end
$var wire 1 C! \LessThan5~0_combout\ $end
$var wire 1 D! \process_0~4_combout\ $end
$var wire 1 E! \LessThan0~1_combout\ $end
$var wire 1 F! \process_0~5_combout\ $end
$var wire 1 G! \LessThan0~0_combout\ $end
$var wire 1 H! \process_0~0_combout\ $end
$var wire 1 I! \process_0~24_combout\ $end
$var wire 1 J! \process_0~25_combout\ $end
$var wire 1 K! \process_0~26_combout\ $end
$var wire 1 L! \process_0~27_combout\ $end
$var wire 1 M! \LessThan0~2_combout\ $end
$var wire 1 N! \VGA_VS~0_combout\ $end
$var wire 1 O! \Y[0]~0_combout\ $end
$var wire 1 P! \Signal_count[14]~45\ $end
$var wire 1 Q! \Signal_count[15]~46_combout\ $end
$var wire 1 R! \Signal_count[15]~47\ $end
$var wire 1 S! \Signal_count[16]~48_combout\ $end
$var wire 1 T! \process_0~9_combout\ $end
$var wire 1 U! \process_0~10_combout\ $end
$var wire 1 V! \process_0~11_combout\ $end
$var wire 1 W! \process_0~12_combout\ $end
$var wire 1 X! \process_0~13_combout\ $end
$var wire 1 Y! \process_0~14_combout\ $end
$var wire 1 Z! \process_0~15_combout\ $end
$var wire 1 [! \process_0~16_combout\ $end
$var wire 1 \! \process_0~17_combout\ $end
$var wire 1 ]! \process_0~18_combout\ $end
$var wire 1 ^! \process_0~19_combout\ $end
$var wire 1 _! \VGA_HS~0_combout\ $end
$var wire 1 `! \Signal_count~16_combout\ $end
$var wire 1 a! \Signal_count[0]~50_combout\ $end
$var wire 1 b! \X[0]~41_combout\ $end
$var wire 1 c! \X[9]~40_combout\ $end
$var wire 1 d! \X[9]~21_combout\ $end
$var wire 1 e! \X[0]~reg0_q\ $end
$var wire 1 f! \X[0]~en_q\ $end
$var wire 1 g! \X[1]~22_combout\ $end
$var wire 1 h! \X[1]~reg0_q\ $end
$var wire 1 i! \X[1]~en_q\ $end
$var wire 1 j! \X[1]~23\ $end
$var wire 1 k! \X[2]~24_combout\ $end
$var wire 1 l! \X[2]~reg0_q\ $end
$var wire 1 m! \X[2]~en_q\ $end
$var wire 1 n! \X[2]~25\ $end
$var wire 1 o! \X[3]~26_combout\ $end
$var wire 1 p! \X[3]~reg0_q\ $end
$var wire 1 q! \X[3]~en_q\ $end
$var wire 1 r! \X[3]~27\ $end
$var wire 1 s! \X[4]~28_combout\ $end
$var wire 1 t! \X[4]~reg0_q\ $end
$var wire 1 u! \X[4]~en_q\ $end
$var wire 1 v! \X[4]~29\ $end
$var wire 1 w! \X[5]~30_combout\ $end
$var wire 1 x! \X[5]~reg0_q\ $end
$var wire 1 y! \X[5]~en_q\ $end
$var wire 1 z! \X[5]~31\ $end
$var wire 1 {! \X[6]~32_combout\ $end
$var wire 1 |! \X[6]~reg0_q\ $end
$var wire 1 }! \X[6]~en_q\ $end
$var wire 1 ~! \X[6]~33\ $end
$var wire 1 !" \X[7]~34_combout\ $end
$var wire 1 "" \X[7]~reg0_q\ $end
$var wire 1 #" \X[7]~en_q\ $end
$var wire 1 $" \X[7]~35\ $end
$var wire 1 %" \X[8]~36_combout\ $end
$var wire 1 &" \X[8]~reg0_q\ $end
$var wire 1 '" \X[8]~en_q\ $end
$var wire 1 (" \X[8]~37\ $end
$var wire 1 )" \X[9]~38_combout\ $end
$var wire 1 *" \X[9]~reg0_q\ $end
$var wire 1 +" \X[9]~en_q\ $end
$var wire 1 ," \VGA_HS~1_combout\ $end
$var wire 1 -" \VGA_HS~2_combout\ $end
$var wire 1 ." \VGA_HS~reg0_q\ $end
$var wire 1 /" \VGA_VS~1_combout\ $end
$var wire 1 0" \VGA_VS~2_combout\ $end
$var wire 1 1" \VGA_VS~reg0_q\ $end
$var wire 1 2" \Add1~0_combout\ $end
$var wire 1 3" \V_Line~4_combout\ $end
$var wire 1 4" \Add1~1\ $end
$var wire 1 5" \Add1~2_combout\ $end
$var wire 1 6" \V_Line~3_combout\ $end
$var wire 1 7" \Add1~3\ $end
$var wire 1 8" \Add1~4_combout\ $end
$var wire 1 9" \V_Line~5_combout\ $end
$var wire 1 :" \Add1~5\ $end
$var wire 1 ;" \Add1~6_combout\ $end
$var wire 1 <" \V_Line~2_combout\ $end
$var wire 1 =" \Add1~7\ $end
$var wire 1 >" \Add1~8_combout\ $end
$var wire 1 ?" \V_Line~0_combout\ $end
$var wire 1 @" \Add1~9\ $end
$var wire 1 A" \Add1~10_combout\ $end
$var wire 1 B" \V_Line~1_combout\ $end
$var wire 1 C" \process_0~28_combout\ $end
$var wire 1 D" \Add1~11\ $end
$var wire 1 E" \Add1~12_combout\ $end
$var wire 1 F" \V_Line~6_combout\ $end
$var wire 1 G" \Add1~13\ $end
$var wire 1 H" \Add1~14_combout\ $end
$var wire 1 I" \V_Line~7_combout\ $end
$var wire 1 J" \Add1~15\ $end
$var wire 1 K" \Add1~16_combout\ $end
$var wire 1 L" \V_Line~8_combout\ $end
$var wire 1 M" \Add1~17\ $end
$var wire 1 N" \Add1~18_combout\ $end
$var wire 1 O" \V_Line~9_combout\ $end
$var wire 1 P" \process_0~29_combout\ $end
$var wire 1 Q" \process_0~30_combout\ $end
$var wire 1 R" \Red[0]~reg0_q\ $end
$var wire 1 S" \Red[1]~reg0_q\ $end
$var wire 1 T" \Red[2]~reg0_q\ $end
$var wire 1 U" \Red[3]~reg0_q\ $end
$var wire 1 V" \process_0~31_combout\ $end
$var wire 1 W" \process_0~32_combout\ $end
$var wire 1 X" \Blue~0_combout\ $end
$var wire 1 Y" \Blue[0]~reg0_q\ $end
$var wire 1 Z" \Blue[1]~reg0_q\ $end
$var wire 1 [" \Blue[2]~reg0_q\ $end
$var wire 1 \" \Blue[3]~reg0_q\ $end
$var wire 1 ]" \Green~0_combout\ $end
$var wire 1 ^" \Green[0]~reg0_q\ $end
$var wire 1 _" \Green[1]~reg0_q\ $end
$var wire 1 `" \Green[2]~reg0_q\ $end
$var wire 1 a" \Green[3]~reg0_q\ $end
$var wire 1 b" \Y[0]~1_combout\ $end
$var wire 1 c" \Y[0]~reg0_q\ $end
$var wire 1 d" \Y[1]~reg0_q\ $end
$var wire 1 e" \Y[2]~reg0_q\ $end
$var wire 1 f" \Y[3]~reg0_q\ $end
$var wire 1 g" \Y[4]~reg0_q\ $end
$var wire 1 h" \Y[5]~reg0_q\ $end
$var wire 1 i" \Y[6]~reg0_q\ $end
$var wire 1 j" \Y[7]~reg0_q\ $end
$var wire 1 k" \Y[8]~reg0_q\ $end
$var wire 1 l" Signal_count [16] $end
$var wire 1 m" Signal_count [15] $end
$var wire 1 n" Signal_count [14] $end
$var wire 1 o" Signal_count [13] $end
$var wire 1 p" Signal_count [12] $end
$var wire 1 q" Signal_count [11] $end
$var wire 1 r" Signal_count [10] $end
$var wire 1 s" Signal_count [9] $end
$var wire 1 t" Signal_count [8] $end
$var wire 1 u" Signal_count [7] $end
$var wire 1 v" Signal_count [6] $end
$var wire 1 w" Signal_count [5] $end
$var wire 1 x" Signal_count [4] $end
$var wire 1 y" Signal_count [3] $end
$var wire 1 z" Signal_count [2] $end
$var wire 1 {" Signal_count [1] $end
$var wire 1 |" Signal_count [0] $end
$var wire 1 }" \pll|altpll_component|auto_generated|wire_pll1_clk\ [4] $end
$var wire 1 ~" \pll|altpll_component|auto_generated|wire_pll1_clk\ [3] $end
$var wire 1 !# \pll|altpll_component|auto_generated|wire_pll1_clk\ [2] $end
$var wire 1 "# \pll|altpll_component|auto_generated|wire_pll1_clk\ [1] $end
$var wire 1 ## \pll|altpll_component|auto_generated|wire_pll1_clk\ [0] $end
$var wire 1 $# V_Line [9] $end
$var wire 1 %# V_Line [8] $end
$var wire 1 &# V_Line [7] $end
$var wire 1 '# V_Line [6] $end
$var wire 1 (# V_Line [5] $end
$var wire 1 )# V_Line [4] $end
$var wire 1 *# V_Line [3] $end
$var wire 1 +# V_Line [2] $end
$var wire 1 ,# V_Line [1] $end
$var wire 1 -# V_Line [0] $end
$var wire 1 .# \ALT_INV_reset~input_o\ $end
$var wire 1 /# \ALT_INV_VGA_VS~reg0_q\ $end
$var wire 1 0# \ALT_INV_VGA_HS~reg0_q\ $end
$upscope $end
$upscope $end
$enddefinitions $end
#0
$dumpvars
0%
0.
1/
10
0D
1E
xF
1G
1H
1I
1J
1K
1L
0M
0N
1O
1P
0w
0x
xy
0z
0{
0|
1}
0~
0!!
0"!
1#!
0$!
0%!
0&!
1'!
0(!
0)!
0*!
1+!
0,!
1-!
1.!
1/!
00!
01!
02!
13!
14!
15!
16!
07!
08!
09!
1:!
0;!
0<!
0=!
1>!
0?!
0@!
1A!
0B!
1C!
0D!
1E!
1F!
0G!
1H!
1I!
1J!
0K!
0L!
0M!
0N!
0O!
1P!
0Q!
0R!
0S!
1T!
1U!
0V!
0W!
0X!
0Y!
1Z!
0[!
0\!
0]!
1^!
1_!
0`!
1a!
1b!
1c!
0d!
0e!
0f!
0g!
0h!
0i!
0j!
0k!
0l!
0m!
1n!
0o!
0p!
0q!
0r!
1s!
0t!
0u!
1v!
1w!
0x!
0y!
0z!
1{!
0|!
0}!
1~!
0!"
0""
0#"
0$"
1%"
0&"
0'"
1("
1)"
0*"
0+"
1,"
1-"
0."
0/"
00"
01"
12"
03"
04"
05"
06"
17"
08"
09"
0:"
0;"
0<"
1="
0>"
0?"
0@"
0A"
0B"
1C"
1D"
0E"
0F"
0G"
0H"
0I"
1J"
0K"
0L"
0M"
0N"
0O"
1P"
0Q"
0R"
0S"
0T"
0U"
0V"
1W"
0X"
0Y"
0Z"
0["
0\"
1]"
0^"
0_"
0`"
0a"
0b"
0c"
0d"
0e"
0f"
0g"
0h"
0i"
0j"
0k"
1.#
1/#
10#
0*
0+
0,
0-
0!
0"
0#
0$
0&
0'
0(
0)
z1
z2
z3
z4
z5
z6
z7
z8
z9
z:
0;
0<
0=
0>
0?
0@
0A
0B
0C
0Q
0R
0S
0T
0U
0V
0W
0X
0Y
0Z
0[
0\
z]
z^
z_
z`
za
zb
zc
zd
ze
zf
0g
0h
0i
0j
0k
0l
0m
0n
0o
xr
xs
xt
xu
xv
0l"
0m"
0n"
0o"
0p"
0q"
0r"
0s"
0t"
0u"
0v"
0w"
0x"
0y"
0z"
0{"
0|"
x}"
x~"
x!#
x"#
x##
0$#
0%#
0&#
0'#
0(#
0)#
0*#
0+#
0,#
0-#
0p
0q
$end
#834
1y
#10000
1%
1M
1x
1q
#10834
0y
#20000
0%
0M
0x
0q
#20834
1y
#30000
1%
1M
1x
1q
#30834
0y
#40000
0%
0M
0x
0q
#40834
1y
#50000
1%
1M
1x
1q
#50834
0y
#60000
0%
0M
0x
0q
#60834
1y
#70000
1%
1M
1x
1q
#75417
0y
#80000
0%
0M
0x
0q
#90000
1%
1M
1x
1y
1q
1r
1s
1t
1u
1v
1}"
1~"
1!#
1"#
1##
#92500
0r
0s
0t
0u
0v
0}"
0~"
0!#
0"#
0##
#95000
1r
1s
1t
1u
1v
1}"
1~"
1!#
1"#
1##
1|"
1."
1^"
1_"
1`"
1a"
00#
1Y
1Z
1[
1\
1`!
0b!
1g!
0O
1)
1(
1'
1&
1z
0a!
0/
#97500
0r
0s
0t
0u
0v
0}"
0~"
0!#
0"#
0##
#100000
0%
0M
0x
0y
0q
1r
1s
1t
1u
1v
1}"
1~"
1!#
1"#
1##
1{"
0|"
0`!
1b!
17!
1a!
#102500
0r
0s
0t
0u
0v
0}"
0~"
0!#
0"#
0##
#105000
1r
1s
1t
1u
1v
1}"
1~"
1!#
1"#
1##
1|"
1`!
0b!
0g!
1j!
1k!
0z
18!
0a!
19!
#107500
0r
0s
0t
0u
0v
0}"
0~"
0!#
0"#
0##
#110000
1%
1M
1x
1y
1q
1r
1s
1t
1u
1v
1}"
1~"
1!#
1"#
1##
0{"
1z"
0|"
0`!
1b!
09!
0:!
0k!
0n!
07!
0j!
1k!
1n!
1o!
1;!
08!
1a!
19!
1:!
0o!
0;!
#112500
0r
0s
0t
0u
0v
0}"
0~"
0!#
0"#
0##
#115000
1r
1s
1t
1u
1v
1}"
1~"
1!#
1"#
1##
1|"
1`!
0b!
1g!
1z
0a!
#117500
0r
0s
0t
0u
0v
0}"
0~"
0!#
0"#
0##
#120000
0%
0M
0x
0y
0q
1r
1s
1t
1u
1v
1}"
1~"
1!#
1"#
1##
1{"
0|"
0`!
1b!
17!
1@!
1a!
#122500
0r
0s
0t
0u
0v
0}"
0~"
0!#
0"#
0##
#125000
1r
1s
1t
1u
1v
1}"
1~"
1!#
1"#
1##
1|"
1`!
0b!
0g!
1j!
0k!
0n!
0z
18!
0a!
09!
0:!
1o!
1;!
#127500
0r
0s
0t
0u
0v
0}"
0~"
0!#
0"#
0##
#130000
1%
1M
1x
1y
1q
1r
1s
1t
1u
1v
1}"
1~"
1!#
1"#
1##
0{"
0z"
1y"
0|"
0`!
1b!
0;!
1<!
0o!
1r!
19!
1:!
1k!
1n!
07!
0j!
0k!
1o!
0r!
1;!
0<!
0s!
0v!
1=!
08!
1a!
09!
0w!
1z!
0=!
1s!
1v!
1w!
0z!
0{!
0~!
1!"
1{!
1~!
0!"
#132500
0r
0s
0t
0u
0v
0}"
0~"
0!#
0"#
0##
#135000
1r
1s
1t
1u
1v
1}"
1~"
1!#
1"#
1##
1|"
1`!
0b!
1g!
1z
0a!
#137500
0r
0s
0t
0u
0v
0}"
0~"
0!#
0"#
0##
#140000
0%
0M
0x
0y
0q
1r
1s
1t
1u
1v
1}"
1~"
1!#
1"#
1##
1{"
0|"
0`!
1b!
0.!
17!
1a!
#142500
0r
0s
0t
0u
0v
0}"
0~"
0!#
0"#
0##
#145000
1r
1s
1t
1u
1v
1}"
1~"
1!#
1"#
1##
1|"
1`!
0b!
0g!
1j!
1k!
0z
18!
0a!
19!
#147500
0r
0s
0t
0u
0v
0}"
0~"
0!#
0"#
0##
#150000
1%
1M
1x
1y
1q
1r
1s
1t
1u
1v
1}"
1~"
1!#
1"#
1##
0{"
1z"
0|"
0`!
1b!
09!
0:!
0k!
0n!
07!
0j!
1k!
1n!
0o!
1r!
0;!
1<!
08!
1a!
19!
1:!
1=!
0s!
0v!
1o!
0r!
1s!
1v!
0w!
1z!
1;!
0<!
0=!
0{!
0~!
1w!
0z!
1{!
1~!
1!"
0!"
#152500
0r
0s
0t
0u
0v
0}"
0~"
0!#
0"#
0##
#155000
1r
1s
1t
1u
1v
1}"
1~"
1!#
1"#
1##
1|"
1`!
0b!
1g!
1z
0a!
#157500
0r
0s
0t
0u
0v
0}"
0~"
0!#
0"#
0##
#160000
0%
0M
0x
0y
0q
1r
1s
1t
1u
1v
1}"
1~"
1!#
1"#
1##
1{"
0|"
0`!
1b!
17!
1a!
#162500
0r
0s
0t
0u
0v
0}"
0~"
0!#
0"#
0##
#165000
1r
1s
1t
1u
1v
1}"
1~"
1!#
1"#
1##
1|"
1B!
1`!
0b!
0g!
1j!
0k!
0n!
0z
18!
0a!
09!
0:!
0o!
1r!
0s!
0v!
0;!
1<!
1=!
0w!
1z!
0{!
0~!
1!"
#167500
0r
0s
0t
0u
0v
0}"
0~"
0!#
0"#
0##
#170000
1%
1M
1x
1y
1q
1r
1s
1t
1u
1v
1}"
1~"
1!#
1"#
1##
0{"
0z"
0y"
1x"
0|"
0`!
1b!
0=!
0>!
0C!
1s!
1;!
0<!
1o!
0r!
19!
1:!
1k!
1n!
07!
0B!
0j!
0k!
0o!
0;!
0s!
1=!
1>!
1?!
08!
1a!
09!
0?!
#172500
0r
0s
0t
0u
0v
0}"
0~"
0!#
0"#
0##
#175000
1r
1s
1t
1u
1v
1}"
1~"
1!#
1"#
1##
1|"
1`!
0b!
1g!
1z
0a!
#177500
0r
0s
0t
0u
0v
0}"
0~"
0!#
0"#
0##
#180000
0%
0M
0x
0y
0q
1r
1s
1t
1u
1v
1}"
1~"
1!#
1"#
1##
1{"
0|"
0`!
1b!
17!
1a!
#182500
0r
0s
0t
0u
0v
0}"
0~"
0!#
0"#
0##
#185000
1r
1s
1t
1u
1v
1}"
1~"
1!#
1"#
1##
1|"
1`!
0b!
0g!
1j!
1k!
0z
18!
0a!
19!
#187500
0r
0s
0t
0u
0v
0}"
0~"
0!#
0"#
0##
#190000
1%
1M
1x
1y
1q
1r
1s
1t
1u
1v
1}"
1~"
1!#
1"#
1##
0{"
1z"
0|"
0`!
1b!
09!
0:!
1V!
0k!
0n!
07!
0j!
1k!
1n!
1o!
1;!
08!
1a!
19!
1:!
0o!
0;!
#192500
0r
0s
0t
0u
0v
0}"
0~"
0!#
0"#
0##
#195000
1r
1s
1t
1u
1v
1}"
1~"
1!#
1"#
1##
1|"
1`!
0b!
1g!
1z
0a!
#197500
0r
0s
0t
0u
0v
0}"
0~"
0!#
0"#
0##
#200000
0%
0M
0x
0y
0q
1r
1s
1t
1u
1v
1}"
1~"
1!#
1"#
1##
1{"
0|"
0`!
1b!
17!
1a!
#202500
0r
0s
0t
0u
0v
0}"
0~"
0!#
0"#
0##
#205000
1r
1s
1t
1u
1v
1}"
1~"
1!#
1"#
1##
1|"
1`!
0b!
0g!
1j!
0k!
0n!
0z
18!
0a!
09!
0:!
1o!
1;!
#207500
0r
0s
0t
0u
0v
0}"
0~"
0!#
0"#
0##
#210000
1%
1M
1x
1y
1q
1r
1s
1t
1u
1v
1}"
1~"
1!#
1"#
1##
0{"
0z"
1y"
0|"
0`!
1b!
0;!
1<!
0o!
1r!
19!
1:!
1k!
1n!
07!
0j!
0k!
1o!
0r!
1;!
0<!
1s!
0=!
0>!
08!
1a!
09!
1?!
1=!
1>!
0s!
0?!
#212500
0r
0s
0t
0u
0v
0}"
0~"
0!#
0"#
0##
#215000
1r
1s
1t
1u
1v
1}"
1~"
1!#
1"#
1##
1|"
1`!
0b!
1g!
1z
0a!
#217500
0r
0s
0t
0u
0v
0}"
0~"
0!#
0"#
0##
#220000
0%
0M
0x
0y
0q
1r
1s
1t
1u
1v
1}"
1~"
1!#
1"#
1##
1{"
0|"
0`!
1b!
17!
1a!
#222500
0r
0s
0t
0u
0v
0}"
0~"
0!#
0"#
0##
#225000
1r
1s
1t
1u
1v
1}"
1~"
1!#
1"#
1##
1|"
1`!
0b!
0g!
1j!
1k!
0z
18!
0a!
19!
#227500
0r
0s
0t
0u
0v
0}"
0~"
0!#
0"#
0##
#230000
1%
1M
1x
1y
1q
1r
1s
1t
1u
1v
1}"
1~"
1!#
1"#
1##
0{"
1z"
0|"
0`!
1b!
09!
0:!
0k!
0n!
07!
0j!
1k!
1n!
0o!
1r!
0;!
1<!
08!
1a!
19!
1:!
0=!
0>!
1s!
1o!
0r!
0s!
1?!
1;!
0<!
1=!
1>!
0?!
#232500
0r
0s
0t
0u
0v
0}"
0~"
0!#
0"#
0##
#235000
1r
1s
1t
1u
1v
1}"
1~"
1!#
1"#
1##
1|"
1`!
0b!
1g!
1z
0a!
#237500
0r
0s
0t
0u
0v
0}"
0~"
0!#
0"#
0##
#240000
0%
0M
0x
0y
0q
1r
1s
1t
1u
1v
1}"
1~"
1!#
1"#
1##
1{"
0|"
0`!
1b!
17!
1a!
#242500
0r
0s
0t
0u
0v
0}"
0~"
0!#
0"#
0##
#245000
1r
1s
1t
1u
1v
1}"
1~"
1!#
1"#
1##
1|"
1B!
1`!
0b!
0g!
1j!
0k!
0n!
0z
18!
0a!
09!
0:!
0o!
1r!
1s!
0;!
1<!
0=!
0>!
1?!
#247500
0r
0s
0t
0u
0v
0}"
0~"
0!#
0"#
0##
#250000
1%
1M
1x
1y
1q
1r
1s
1t
1u
1v
1}"
1~"
1!#
1"#
1##
0{"
0z"
0y"
0x"
1w"
0|"
0`!
1b!
0?!
1{
0A!
1w!
1=!
1>!
0s!
1;!
0<!
1o!
0r!
19!
1:!
1k!
1n!
1.!
07!
0@!
0B!
0j!
0k!
1A!
0o!
0;!
1s!
1v!
0=!
1?!
0{
1|
08!
1a!
09!
0|
0w!
#252500
0r
0s
0t
0u
0v
0}"
0~"
0!#
0"#
0##
#255000
1r
1s
1t
1u
1v
1}"
1~"
1!#
1"#
1##
1|"
1`!
0b!
1g!
1z
0a!
#257500
0r
0s
0t
0u
0v
0}"
0~"
0!#
0"#
0##
#260000
0%
0M
0x
0y
0q
1r
1s
1t
1u
1v
1}"
1~"
1!#
1"#
1##
1{"
0|"
0`!
1b!
17!
1a!
#262500
0r
0s
0t
0u
0v
0}"
0~"
0!#
0"#
0##
#265000
1r
1s
1t
1u
1v
1}"
1~"
1!#
1"#
1##
1|"
1`!
0b!
0g!
1j!
1k!
0z
18!
0a!
19!
#267500
0r
0s
0t
0u
0v
0}"
0~"
0!#
0"#
0##
#270000
1%
1M
1x
1y
1q
1r
1s
1t
1u
1v
1}"
1~"
1!#
1"#
1##
0{"
1z"
0|"
0`!
1b!
09!
0:!
0k!
0n!
07!
0j!
1k!
1n!
1o!
1;!
08!
1a!
19!
1:!
0o!
0;!
#272500
0r
0s
0t
0u
0v
0}"
0~"
0!#
0"#
0##
#275000
1r
1s
1t
1u
1v
1}"
1~"
1!#
1"#
1##
1|"
1`!
0b!
1g!
1z
0a!
#277500
0r
0s
0t
0u
0v
0}"
0~"
0!#
0"#
0##
#280000
0%
0M
0x
0y
0q
1r
1s
1t
1u
1v
1}"
1~"
1!#
1"#
1##
1{"
0|"
0`!
1b!
17!
1@!
0A!
1a!
#282500
0r
0s
0t
0u
0v
0}"
0~"
0!#
0"#
0##
#285000
1r
1s
1t
1u
1v
1}"
1~"
1!#
1"#
1##
1|"
1`!
0b!
0g!
1j!
0k!
0n!
0z
18!
0a!
09!
0:!
1o!
1;!
#287500
0r
0s
0t
0u
0v
0}"
0~"
0!#
0"#
0##
#290000
1%
1M
1x
1y
1q
1r
1s
1t
1u
1v
1}"
1~"
1!#
1"#
1##
0{"
0z"
1y"
0|"
0`!
1b!
0;!
1<!
0o!
1r!
19!
1:!
1k!
1n!
07!
0j!
0k!
1o!
0r!
1;!
0<!
0s!
0v!
1=!
08!
1a!
09!
1w!
0=!
1s!
1v!
0w!
#292500
0r
0s
0t
0u
0v
0}"
0~"
0!#
0"#
0##
#295000
1r
1s
1t
1u
1v
1}"
1~"
1!#
1"#
1##
1|"
1`!
0b!
1g!
1z
0a!
#297500
0r
0s
0t
0u
0v
0}"
0~"
0!#
0"#
0##
#300000
0%
0M
0x
0y
0q
1r
1s
1t
1u
1v
1}"
1~"
1!#
1"#
1##
1{"
0|"
0`!
1b!
0.!
17!
1a!
#302500
0r
0s
0t
0u
0v
0}"
0~"
0!#
0"#
0##
#305000
1r
1s
1t
1u
1v
1}"
1~"
1!#
1"#
1##
1|"
1`!
0b!
0g!
1j!
1k!
0z
18!
0a!
19!
#307500
0r
0s
0t
0u
0v
0}"
0~"
0!#
0"#
0##
#310000
1%
1M
1x
1y
1q
1r
1s
1t
1u
1v
1}"
1~"
1!#
1"#
1##
0{"
1z"
0|"
0`!
1b!
09!
0:!
0k!
0n!
07!
0j!
1k!
1n!
0o!
1r!
0;!
1<!
08!
1a!
19!
1:!
1=!
0s!
0v!
1o!
0r!
1s!
1v!
1w!
1;!
0<!
0=!
0w!
#312500
0r
0s
0t
0u
0v
0}"
0~"
0!#
0"#
0##
#315000
1r
1s
1t
1u
1v
1}"
1~"
1!#
1"#
1##
1|"
1`!
0b!
1g!
1z
0a!
#317500
0r
0s
0t
0u
0v
0}"
0~"
0!#
0"#
0##
#320000
0%
0M
0x
0y
0q
1r
1s
1t
1u
1v
1}"
1~"
1!#
1"#
1##
1{"
0|"
0`!
1b!
17!
1a!
#322500
0r
0s
0t
0u
0v
0}"
0~"
0!#
0"#
0##
#325000
1r
1s
1t
1u
1v
1}"
1~"
1!#
1"#
1##
1|"
1B!
1`!
0b!
0g!
1j!
0k!
0n!
0z
18!
0a!
09!
0:!
0o!
1r!
0s!
0v!
0;!
1<!
1=!
1w!
#327500
0r
0s
0t
0u
0v
0}"
0~"
0!#
0"#
0##
