UART_controller/simulation/qsim/UART_controller.msim.vcd
$comment
	File created using the following command:
		vcd file UART_controller.msim.vcd -direction
$end
$date
	Fri Sep 08 08:53:12 2023
$end
$version
	ModelSim Version 2020.1
$end
$timescale
	1ps
$end

$scope module uart_controller_vhd_vec_tst $end
$var wire 1 ! Clk_i $end
$var wire 1 " CRX $end
$var wire 1 # DATA [7] $end
$var wire 1 $ DATA [6] $end
$var wire 1 % DATA [5] $end
$var wire 1 & DATA [4] $end
$var wire 1 ' DATA [3] $end
$var wire 1 ( DATA [2] $end
$var wire 1 ) DATA [1] $end
$var wire 1 * DATA [0] $end
$var wire 1 + Q $end
$var wire 1 , test $end

$scope module i1 $end
$var wire 1 - gnd $end
$var wire 1 . vcc $end
$var wire 1 / unknown $end
$var wire 1 0 devoe $end
$var wire 1 1 devclrn $end
$var wire 1 2 devpor $end
$var wire 1 3 ww_devoe $end
$var wire 1 4 ww_devclrn $end
$var wire 1 5 ww_devpor $end
$var wire 1 6 ww_Clk_i $end
$var wire 1 7 ww_CRX $end
$var wire 1 8 ww_Q $end
$var wire 1 9 ww_test $end
$var wire 1 : ww_DATA [7] $end
$var wire 1 ; ww_DATA [6] $end
$var wire 1 < ww_DATA [5] $end
$var wire 1 = ww_DATA [4] $end
$var wire 1 > ww_DATA [3] $end
$var wire 1 ? ww_DATA [2] $end
$var wire 1 @ ww_DATA [1] $end
$var wire 1 A ww_DATA [0] $end
$var wire 1 B \Ram|altsyncram_component|auto_generated|ram_block1a0_PORTADATAIN_bus\ [0] $end
$var wire 1 C \Ram|altsyncram_component|auto_generated|ram_block1a0_PORTAADDR_bus\ [2] $end
$var wire 1 D \Ram|altsyncram_component|auto_generated|ram_block1a0_PORTAADDR_bus\ [1] $end
$var wire 1 E \Ram|altsyncram_component|auto_generated|ram_block1a0_PORTAADDR_bus\ [0] $end
$var wire 1 F \Ram|altsyncram_component|auto_generated|ram_block1a0_PORTADATAOUT_bus\ [0] $end
$var wire 1 G \Ram|altsyncram_component|auto_generated|ram_block1a1_PORTADATAIN_bus\ [0] $end
$var wire 1 H \Ram|altsyncram_component|auto_generated|ram_block1a1_PORTAADDR_bus\ [2] $end
$var wire 1 I \Ram|altsyncram_component|auto_generated|ram_block1a1_PORTAADDR_bus\ [1] $end
$var wire 1 J \Ram|altsyncram_component|auto_generated|ram_block1a1_PORTAADDR_bus\ [0] $end
$var wire 1 K \Ram|altsyncram_component|auto_generated|ram_block1a1_PORTADATAOUT_bus\ [0] $end
$var wire 1 L \Ram|altsyncram_component|auto_generated|ram_block1a2_PORTADATAIN_bus\ [0] $end
$var wire 1 M \Ram|altsyncram_component|auto_generated|ram_block1a2_PORTAADDR_bus\ [2] $end
$var wire 1 N \Ram|altsyncram_component|auto_generated|ram_block1a2_PORTAADDR_bus\ [1] $end
$var wire 1 O \Ram|altsyncram_component|auto_generated|ram_block1a2_PORTAADDR_bus\ [0] $end
$var wire 1 P \Ram|altsyncram_component|auto_generated|ram_block1a2_PORTADATAOUT_bus\ [0] $end
$var wire 1 Q \Ram|altsyncram_component|auto_generated|ram_block1a3_PORTADATAIN_bus\ [0] $end
$var wire 1 R \Ram|altsyncram_component|auto_generated|ram_block1a3_PORTAADDR_bus\ [2] $end
$var wire 1 S \Ram|altsyncram_component|auto_generated|ram_block1a3_PORTAADDR_bus\ [1] $end
$var wire 1 T \Ram|altsyncram_component|auto_generated|ram_block1a3_PORTAADDR_bus\ [0] $end
$var wire 1 U \Ram|altsyncram_component|auto_generated|ram_block1a3_PORTADATAOUT_bus\ [0] $end
$var wire 1 V \Ram|altsyncram_component|auto_generated|ram_block1a4_PORTADATAIN_bus\ [0] $end
$var wire 1 W \Ram|altsyncram_component|auto_generated|ram_block1a4_PORTAADDR_bus\ [2] $end
$var wire 1 X \Ram|altsyncram_component|auto_generated|ram_block1a4_PORTAADDR_bus\ [1] $end
$var wire 1 Y \Ram|altsyncram_component|auto_generated|ram_block1a4_PORTAADDR_bus\ [0] $end
$var wire 1 Z \Ram|altsyncram_component|auto_generated|ram_block1a4_PORTADATAOUT_bus\ [0] $end
$var wire 1 [ \Ram|altsyncram_component|auto_generated|ram_block1a5_PORTADATAIN_bus\ [0] $end
$var wire 1 \ \Ram|altsyncram_component|auto_generated|ram_block1a5_PORTAADDR_bus\ [2] $end
$var wire 1 ] \Ram|altsyncram_component|auto_generated|ram_block1a5_PORTAADDR_bus\ [1] $end
$var wire 1 ^ \Ram|altsyncram_component|auto_generated|ram_block1a5_PORTAADDR_bus\ [0] $end
$var wire 1 _ \Ram|altsyncram_component|auto_generated|ram_block1a5_PORTADATAOUT_bus\ [0] $end
$var wire 1 ` \Ram|altsyncram_component|auto_generated|ram_block1a6_PORTADATAIN_bus\ [0] $end
$var wire 1 a \Ram|altsyncram_component|auto_generated|ram_block1a6_PORTAADDR_bus\ [2] $end
$var wire 1 b \Ram|altsyncram_component|auto_generated|ram_block1a6_PORTAADDR_bus\ [1] $end
$var wire 1 c \Ram|altsyncram_component|auto_generated|ram_block1a6_PORTAADDR_bus\ [0] $end
$var wire 1 d \Ram|altsyncram_component|auto_generated|ram_block1a6_PORTADATAOUT_bus\ [0] $end
$var wire 1 e \Ram|altsyncram_component|auto_generated|ram_block1a7_PORTADATAIN_bus\ [0] $end
$var wire 1 f \Ram|altsyncram_component|auto_generated|ram_block1a7_PORTAADDR_bus\ [2] $end
$var wire 1 g \Ram|altsyncram_component|auto_generated|ram_block1a7_PORTAADDR_bus\ [1] $end
$var wire 1 h \Ram|altsyncram_component|auto_generated|ram_block1a7_PORTAADDR_bus\ [0] $end
$var wire 1 i \Ram|altsyncram_component|auto_generated|ram_block1a7_PORTADATAOUT_bus\ [0] $end
$var wire 1 j \Clk_i~input_o\ $end
$var wire 1 k \CRX~input_o\ $end
$var wire 1 l \UartRX|baudrate_counter[0]~2_combout\ $end
$var wire 1 m \UartRX|baudrate_counter[0]~4_combout\ $end
$var wire 1 n \UartRX|baudrate_counter[1]~5_combout\ $end
$var wire 1 o \UartRX|Equal2~0_combout\ $end
$var wire 1 p \UartRX|Selector7~0_combout\ $end
$var wire 1 q \UartRX|Selector7~2_combout\ $end
$var wire 1 r \UartRX|ramAddr[0]~0_combout\ $end
$var wire 1 s \UartRX|Selector7~3_combout\ $end
$var wire 1 t \UartRX|state.WAIT_FOR_STOP_BIT~q\ $end
$var wire 1 u \UartRX|Selector4~0_combout\ $end
$var wire 1 v \UartRX|state.WAIT_FOR_RX_START~q\ $end
$var wire 1 w \UartRX|baudrate_counter[2]~0_combout\ $end
$var wire 1 x \UartRX|baudrate_counter[2]~1_combout\ $end
$var wire 1 y \UartRX|baudrate_counter[2]~3_combout\ $end
$var wire 1 z \UartRX|Selector7~1_combout\ $end
$var wire 1 { \UartRX|Selector6~0_combout\ $end
$var wire 1 | \UartRX|state.RECEIVE_BITS~q\ $end
$var wire 1 } \UartRX|bit_counter[0]~1_combout\ $end
$var wire 1 ~ \UartRX|bit_counter[1]~2_combout\ $end
$var wire 1 !! \UartRX|Add2~0_combout\ $end
$var wire 1 "! \UartRX|receive_register[0]~0_combout\ $end
$var wire 1 #! \UartRX|bit_counter[2]~0_combout\ $end
$var wire 1 $! \UartRX|bit_counter[2]~3_combout\ $end
$var wire 1 %! \UartRX|Selector5~0_combout\ $end
$var wire 1 &! \UartRX|Selector5~1_combout\ $end
$var wire 1 '! \UartRX|state.WAIT_HALF_BIT~q\ $end
$var wire 1 (! \UartRX|Selector3~0_combout\ $end
$var wire 1 )! \UartRX|Selector3~1_combout\ $end
$var wire 1 *! \UartRX|Equal3~0_combout\ $end
$var wire 1 +! \UartRX|Equal3~1_combout\ $end
$var wire 1 ,! \UartRX|Equal3~2_combout\ $end
$var wire 1 -! \UartRX|count_frame[0]~5_combout\ $end
$var wire 1 .! \UartRX|count_frame[0]~15_combout\ $end
$var wire 1 /! \UartRX|Equal0~0_combout\ $end
$var wire 1 0! \UartRX|count_frame[0]~16_combout\ $end
$var wire 1 1! \UartRX|count_frame[0]~6\ $end
$var wire 1 2! \UartRX|count_frame[1]~7_combout\ $end
$var wire 1 3! \~GND~combout\ $end
$var wire 1 4! \UartRX|count_frame[1]~8\ $end
$var wire 1 5! \UartRX|count_frame[2]~9_combout\ $end
$var wire 1 6! \UartRX|count_frame[2]~10\ $end
$var wire 1 7! \UartRX|count_frame[3]~11_combout\ $end
$var wire 1 8! \UartRX|count_frame[3]~12\ $end
$var wire 1 9! \UartRX|count_frame[4]~13_combout\ $end
$var wire 1 :! \UartRX|Selector14~0_combout\ $end
$var wire 1 ;! \UartRX|set_state~10_combout\ $end
$var wire 1 <! \UartRX|Selector12~0_combout\ $end
$var wire 1 =! \UartRX|w~0_combout\ $end
$var wire 1 >! \UartRX|Selector14~1_combout\ $end
$var wire 1 ?! \UartRX|set_state.get_addr~q\ $end
$var wire 1 @! \UartRX|Equal4~0_combout\ $end
$var wire 1 A! \UartRX|w~1_combout\ $end
$var wire 1 B! \UartRX|w~q\ $end
$var wire 1 C! \UartRX|Selector15~0_combout\ $end
$var wire 1 D! \UartRX|set_state.get_data~q\ $end
$var wire 1 E! \UartRX|Selector12~1_combout\ $end
$var wire 1 F! \UartRX|Selector12~2_combout\ $end
$var wire 1 G! \UartRX|set_state.check_start~q\ $end
$var wire 1 H! \UartRX|set_state.get_cmd~0_combout\ $end
$var wire 1 I! \UartRX|set_state~11_combout\ $end
$var wire 1 J! \UartRX|set_state.get_cmd~1_combout\ $end
$var wire 1 K! \UartRX|set_state.get_cmd~q\ $end
$var wire 1 L! \UartRX|Selector3~2_combout\ $end
$var wire 1 M! \UartRX|Selector3~3_combout\ $end
$var wire 1 N! \UartRX|send~q\ $end
$var wire 1 O! \UartTx|send_pause~0_combout\ $end
$var wire 1 P! \UartTx|send_pause~q\ $end
$var wire 1 Q! \UartTx|Selector0~2_combout\ $end
$var wire 1 R! \UartTx|bit_counter[2]~0_combout\ $end
$var wire 1 S! \UartTx|Selector4~12_combout\ $end
$var wire 1 T! \UartTx|bit_counter[2]~1_combout\ $end
$var wire 1 U! \UartTx|bit_counter[0]~4_combout\ $end
$var wire 1 V! \UartTx|bit_counter[1]~3_combout\ $end
$var wire 1 W! \UartTx|Add1~1_combout\ $end
$var wire 1 X! \UartTx|bit_counter[3]~5_combout\ $end
$var wire 1 Y! \UartTx|Equal1~0_combout\ $end
$var wire 1 Z! \UartTx|Selector4~13_combout\ $end
$var wire 1 [! \UartTx|Selector3~0_combout\ $end
$var wire 1 \! \UartTx|state.WAIT_FOR_SEND_STOP_BIT~q\ $end
$var wire 1 ]! \UartTx|Selector0~3_combout\ $end
$var wire 1 ^! \UartTx|state.SET_FOR_TX_START~q\ $end
$var wire 1 _! \UartTx|Selector11~0_combout\ $end
$var wire 1 `! \UartTx|baudrate_counter[1]~0_combout\ $end
$var wire 1 a! \UartTx|Selector10~0_combout\ $end
$var wire 1 b! \UartTx|Selector1~2_combout\ $end
$var wire 1 c! \UartTx|Selector1~3_combout\ $end
$var wire 1 d! \UartTx|state.SENDING_BITS~q\ $end
$var wire 1 e! \UartTx|Selector2~0_combout\ $end
$var wire 1 f! \UartTx|state.COUNT_BIT~q\ $end
$var wire 1 g! \UartTx|Add1~0_combout\ $end
$var wire 1 h! \UartTx|bit_counter[2]~2_combout\ $end
$var wire 1 i! \UartRX|aclr~0_combout\ $end
$var wire 1 j! \UartRX|aclr~q\ $end
$var wire 1 k! \UartRX|ramWrData[0]~0_combout\ $end
$var wire 1 l! \UartRX|ramAddr[0]~1_combout\ $end
$var wire 1 m! \UartTx|Mux0~0_combout\ $end
$var wire 1 n! \UartTx|Selector4~0_combout\ $end
$var wire 1 o! \UartTx|Selector4~1_combout\ $end
$var wire 1 p! \UartTx|Selector4~2_combout\ $end
$var wire 1 q! \UartTx|Selector4~3_combout\ $end
$var wire 1 r! \UartTx|sending_register[9]~0_combout\ $end
$var wire 1 s! \UartTx|Selector4~4_combout\ $end
$var wire 1 t! \UartTx|Selector4~5_combout\ $end
$var wire 1 u! \UartTx|Selector4~6_combout\ $end
$var wire 1 v! \UartTx|Selector4~7_combout\ $end
$var wire 1 w! \UartTx|Mux0~1_combout\ $end
$var wire 1 x! \UartTx|Selector4~8_combout\ $end
$var wire 1 y! \UartTx|Selector4~9_combout\ $end
$var wire 1 z! \UartTx|Selector4~10_combout\ $end
$var wire 1 {! \UartTx|Selector4~11_combout\ $end
$var wire 1 |! \UartTx|tx~q\ $end
$var wire 1 }! \Ram|altsyncram_component|auto_generated|q_a\ [7] $end
$var wire 1 ~! \Ram|altsyncram_component|auto_generated|q_a\ [6] $end
$var wire 1 !" \Ram|altsyncram_component|auto_generated|q_a\ [5] $end
$var wire 1 "" \Ram|altsyncram_component|auto_generated|q_a\ [4] $end
$var wire 1 #" \Ram|altsyncram_component|auto_generated|q_a\ [3] $end
$var wire 1 $" \Ram|altsyncram_component|auto_generated|q_a\ [2] $end
$var wire 1 %" \Ram|altsyncram_component|auto_generated|q_a\ [1] $end
$var wire 1 &" \Ram|altsyncram_component|auto_generated|q_a\ [0] $end
$var wire 1 '" \UartRX|count_frame\ [4] $end
$var wire 1 (" \UartRX|count_frame\ [3] $end
$var wire 1 )" \UartRX|count_frame\ [2] $end
$var wire 1 *" \UartRX|count_frame\ [1] $end
$var wire 1 +" \UartRX|count_frame\ [0] $end
$var wire 1 ," \UartRX|ramWrData\ [7] $end
$var wire 1 -" \UartRX|ramWrData\ [6] $end
$var wire 1 ." \UartRX|ramWrData\ [5] $end
$var wire 1 /" \UartRX|ramWrData\ [4] $end
$var wire 1 0" \UartRX|ramWrData\ [3] $end
$var wire 1 1" \UartRX|ramWrData\ [2] $end
$var wire 1 2" \UartRX|ramWrData\ [1] $end
$var wire 1 3" \UartRX|ramWrData\ [0] $end
$var wire 1 4" \UartTx|bit_counter\ [3] $end
$var wire 1 5" \UartTx|bit_counter\ [2] $end
$var wire 1 6" \UartTx|bit_counter\ [1] $end
$var wire 1 7" \UartTx|bit_counter\ [0] $end
$var wire 1 8" \UartRX|ramAddr\ [7] $end
$var wire 1 9" \UartRX|ramAddr\ [6] $end
$var wire 1 :" \UartRX|ramAddr\ [5] $end
$var wire 1 ;" \UartRX|ramAddr\ [4] $end
$var wire 1 <" \UartRX|ramAddr\ [3] $end
$var wire 1 =" \UartRX|ramAddr\ [2] $end
$var wire 1 >" \UartRX|ramAddr\ [1] $end
$var wire 1 ?" \UartRX|ramAddr\ [0] $end
$var wire 1 @" \UartTx|baudrate_counter\ [2] $end
$var wire 1 A" \UartTx|baudrate_counter\ [1] $end
$var wire 1 B" \UartTx|baudrate_counter\ [0] $end
$var wire 1 C" \UartRX|receive_register\ [7] $end
$var wire 1 D" \UartRX|receive_register\ [6] $end
$var wire 1 E" \UartRX|receive_register\ [5] $end
$var wire 1 F" \UartRX|receive_register\ [4] $end
$var wire 1 G" \UartRX|receive_register\ [3] $end
$var wire 1 H" \UartRX|receive_register\ [2] $end
$var wire 1 I" \UartRX|receive_register\ [1] $end
$var wire 1 J" \UartRX|receive_register\ [0] $end
$var wire 1 K" \UartTx|sending_register\ [9] $end
$var wire 1 L" \UartTx|sending_register\ [8] $end
$var wire 1 M" \UartTx|sending_register\ [7] $end
$var wire 1 N" \UartTx|sending_register\ [6] $end
$var wire 1 O" \UartTx|sending_register\ [5] $end
$var wire 1 P" \UartTx|sending_register\ [4] $end
$var wire 1 Q" \UartTx|sending_register\ [3] $end
$var wire 1 R" \UartTx|sending_register\ [2] $end
$var wire 1 S" \UartTx|sending_register\ [1] $end
$var wire 1 T" \UartTx|sending_register\ [0] $end
$var wire 1 U" \UartRX|baudrate_counter\ [2] $end
$var wire 1 V" \UartRX|baudrate_counter\ [1] $end
$var wire 1 W" \UartRX|baudrate_counter\ [0] $end
$var wire 1 X" \UartRX|bit_counter\ [2] $end
$var wire 1 Y" \UartRX|bit_counter\ [1] $end
$var wire 1 Z" \UartRX|bit_counter\ [0] $end
$var wire 1 [" \ALT_INV_CRX~input_o\ $end
$upscope $end
$upscope $end
$enddefinitions $end
#0
$dumpvars
0!
1"
0+
0,
0-
1.
x/
10
11
12
13
14
15
06
17
08
09
0j
1k
1l
0m
0n
1o
0p
1q
0r
0s
0t
0u
0v
1w
1x
0y
0z
0{
0|
0}
0~
1!!
0"!
1#!
0$!
1%!
0&!
0'!
0(!
0)!
0*!
0+!
0,!
1-!
1.!
1/!
00!
01!
02!
03!
14!
05!
06!
07!
18!
09!
0:!
0;!
1<!
0=!
0>!
0?!
1@!
0A!
0B!
0C!
0D!
0E!
0F!
0G!
0H!
0I!
0J!
0K!
0L!
0M!
0N!
0O!
0P!
1Q!
1R!
1S!
1T!
0U!
0V!
0W!
0X!
0Y!
0Z!
0[!
0\!
0]!
0^!
1_!
0`!
1a!
0b!
0c!
0d!
0e!
0f!
0g!
0h!
0i!
0j!
0k!
0l!
0m!
0n!
0o!
0p!
0q!
0r!
0s!
1t!
1u!
1v!
0w!
0x!
0y!
0z!
1{!
0|!
0["
0C
0D
0E
0H
0I
0J
0M
0N
0O
0R
0S
0T
0W
0X
0Y
0\
0]
0^
0a
0b
0c
0f
0g
0h
0#
0$
0%
0&
0'
0(
0)
0*
0:
0;
0<
0=
0>
0?
0@
0A
0B
0F
0G
0K
0L
0P
0Q
0U
0V
0Z
0[
0_
0`
0d
0e
0i
0}!
0~!
0!"
0""
0#"
0$"
0%"
0&"
0'"
0("
0)"
0*"
0+"
0,"
0-"
0."
0/"
00"
01"
02"
03"
04"
05"
06"
07"
x8"
x9"
x:"
x;"
x<"
0="
0>"
0?"
x@"
0A"
0B"
0C"
0D"
0E"
0F"
0G"
0H"
0I"
0J"
0K"
xL"
xM"
xN"
xO"
xP"
xQ"
xR"
xS"
xT"
0U"
0V"
0W"
0X"
0Y"
0Z"
$end
#5000
1!
16
1j
1|!
18
1+
#10000
0!
06
0j
#15000
1!
16
1j
#20000
0!
06
0j
#25000
1!
16
1j
#30000
0!
06
0j
#35000
1!
16
1j
#40000
0!
0"
06
07
0k
0j
1["
0l
0q
1u
1)!
0.!
10!
1&!
1m
#45000
1!
16
1j
1W"
1v
1'!
1+"
0-!
11!
0/!
0w
1q
1y
1.!
0m
0o
0x
00!
12!
0y
#50000
0!
06
0j
#55000
1!
16
1j
0W"
1m
1n
1o
1z
0q
0#!
0%!
1}
1~
1$!
1{
0&!
#60000
0!
06
0j
#65000
1!
16
1j
1W"
1V"
1|
1Z"
1Y"
1X"
0'!
0!!
0}
0$!
0m
0o
0z
1q
0{
1#!
1$!
1%!
1}
1{
#70000
0!
06
0j
#75000
1!
16
1j
0W"
1m
0n
#80000
0!
1"
06
17
1k
0j
0["
#85000
1!
16
1j
1W"
0V"
0m
#90000
0!
06
0j
#95000
1!
16
1j
0W"
1m
1n
1o
1"!
0)!
0#!
0}
#100000
0!
06
0j
#105000
1!
16
1j
1W"
1V"
0Z"
1C"
1}
0~
0m
0o
0"!
1)!
1#!
0}
1~
#110000
0!
06
0j
#115000
1!
16
1j
0W"
1m
0n
#120000
0!
06
0j
#125000
1!
16
1j
1W"
0V"
0m
#130000
0!
06
0j
#135000
1!
16
1j
0W"
1m
1n
1o
1"!
0)!
0#!
1}
0~
#140000
0!
06
0j
#145000
1!
16
1j
1W"
1V"
1Z"
0Y"
1D"
0}
0m
0o
0"!
1)!
1#!
1}
#150000
0!
06
0j
#155000
1!
16
1j
0W"
1m
0n
#160000
0!
0"
06
07
0k
0j
1["
#165000
1!
16
1j
1W"
0V"
0m
#170000
0!
06
0j
#175000
1!
16
1j
0W"
1m
1n
1o
1"!
0#!
0}
#180000
0!
06
0j
#185000
1!
16
1j
1W"
1V"
0Z"
0C"
1E"
1}
1~
1!!
0m
0o
0"!
1#!
0$!
0}
0~
1$!
#190000
0!
06
0j
#195000
1!
16
1j
0W"
1m
0n
#200000
0!
06
0j
#205000
1!
16
1j
1W"
0V"
0m
#210000
0!
06
0j
#215000
1!
16
1j
0W"
1m
1n
1o
1"!
0#!
1}
1~
0$!
#220000
0!
06
0j
#225000
1!
16
1j
1W"
1V"
1Z"
1Y"
0X"
0D"
1F"
1p
1#!
1$!
0%!
0}
0!!
0m
0o
0"!
0p
1%!
1}
0$!
0q
0{
1&!
1q
1{
0&!
#230000
0!
06
0j
#235000
1!
16
1j
0W"
1m
0n
#240000
0!
06
0j
#245000
1!
16
1j
1W"
0V"
0m
#250000
0!
06
0j
#255000
1!
16
1j
0W"
1m
1n
1o
1"!
0#!
0}
#260000
0!
06
0j
#265000
1!
16
1j
1W"
1V"
0Z"
0E"
1G"
1}
0~
0m
0o
0"!
1#!
0}
1~
#270000
0!
06
0j
#275000
1!
16
1j
0W"
1m
0n
#280000
0!
1"
06
17
1k
0j
0["
#285000
1!
16
1j
1W"
0V"
0m
#290000
0!
06
0j
#295000
1!
16
1j
0W"
1m
1n
1o
1"!
0)!
0#!
1}
0~
#300000
0!
06
0j
#305000
1!
16
1j
1W"
1V"
1Z"
0Y"
1C"
0F"
1H"
0}
0m
0o
0"!
1)!
1#!
1}
#310000
0!
06
0j
#315000
1!
16
1j
0W"
1m
0n
#320000
0!
0"
06
07
0k
0j
1["
#325000
1!
16
1j
1W"
0V"
0m
#330000
0!
06
0j
#335000
1!
16
1j
0W"
1m
1n
1o
1"!
0#!
0}
#340000
0!
06
0j
#345000
1!
16
1j
1W"
1V"
0Z"
0C"
1D"
0G"
1I"
1}
1~
1!!
0m
0o
0"!
1#!
1$!
0}
0~
0$!
#350000
0!
06
0j
#355000
1!
16
1j
0W"
1m
0n
#360000
0!
06
0j
#365000
1!
16
1j
1W"
0V"
0m
#370000
0!
06
0j
#375000
1!
16
1j
0W"
1m
1n
1o
1"!
0%!
1p
0q
1s
0{
#380000
0!
06
0j
#385000
1!
16
1j
1W"
1V"
1t
0|
0D"
1E"
0H"
1J"
1,!
1*!
0p
1l
0m
0o
0"!
1%!
0l
1m
1q
0s
1+!
1H!
1s
0m
#390000
0!
06
0j
#395000
1!
16
1j
0W"
1m
0n
#400000
0!
1"
06
17
1k
0j
0["
#405000
1!
16
1j
1W"
0V"
0m
#410000
0!
06
0j
#415000
1!
16
1j
0W"
1m
1n
1o
0)!
1l
1r
0u
1;!
0<!
1I!
0s
1>!
0m
0n
1J!
1F!
#420000
0!
06
0j
#425000
1!
16
1j
0t
0v
1G!
1K!
0.!
0H!
0r
1w
0;!
0I!
1x
0>!
0J!
10!
1J!
#430000
0!
06
0j
#435000
1!
16
1j
0+"
1*"
02!
04!
1-!
01!
12!
14!
15!
05!
#440000
0!
0"
06
07
0k
0j
1["
0l
0q
1u
1)!
1&!
1m
#445000
1!
16
1j
1W"
1v
1'!
1+"
0*"
02!
0-!
11!
0w
1q
1y
1.!
0m
0o
00!
0x
12!
0y
#450000
0!
06
0j
#455000
1!
16
1j
0W"
1m
1n
1o
1z
0q
0#!
0%!
1}
1~
1$!
1{
0&!
#460000
0!
06
0j
#465000
1!
16
1j
1W"
1V"
1|
1Z"
1Y"
1X"
0'!
0!!
0}
0$!
0m
0o
0z
1q
0{
1#!
1$!
1%!
1}
1{
#470000
0!
06
0j
#475000
1!
16
1j
0W"
1m
0n
#480000
0!
06
0j
#485000
1!
16
1j
1W"
0V"
0m
#490000
0!
06
0j
#495000
1!
16
1j
0W"
1m
1n
1o
1"!
0#!
0}
#500000
0!
06
0j
#505000
1!
16
1j
1W"
1V"
0Z"
0E"
1F"
0I"
0,!
0*!
1}
0~
0m
0o
0"!
1#!
0+!
0}
1~
#510000
0!
06
0j
#515000
1!
16
1j
0W"
1m
0n
#520000
0!
06
0j
#525000
1!
16
1j
1W"
0V"
0m
#530000
0!
06
0j
#535000
1!
16
1j
0W"
1m
1n
1o
1"!
0#!
1}
0~
#540000
0!
06
0j
#545000
1!
16
1j
1W"
1V"
1Z"
0Y"
0F"
1G"
0J"
0}
0m
0o
0"!
1#!
1}
#550000
0!
06
0j
#555000
1!
16
1j
0W"
1m
0n
#560000
0!
1"
06
17
1k
0j
0["
#565000
1!
16
1j
1W"
0V"
0m
#570000
0!
06
0j
#575000
1!
16
1j
0W"
1m
1n
1o
1"!
0)!
0#!
0}
#580000
0!
06
0j
#585000
1!
16
1j
1W"
1V"
0Z"
1C"
0G"
1H"
1}
1~
1!!
0m
0o
0"!
1)!
1#!
0$!
0}
0~
1$!
#590000
0!
06
0j
#595000
1!
16
1j
0W"
1m
0n
#600000
0!
0"
06
07
0k
0j
1["
#605000
1!
16
1j
1W"
0V"
0m
#610000
0!
06
0j
#615000
1!
16
1j
0W"
1m
1n
1o
1"!
0#!
1}
1~
0$!
#620000
0!
06
0j
#625000
1!
16
1j
1W"
1V"
1Z"
1Y"
0X"
0C"
1D"
0H"
1I"
1p
1#!
1$!
0%!
0}
0!!
0m
0o
0"!
0p
1%!
1}
0$!
0q
0{
1&!
1q
1{
0&!
#630000
0!
06
0j
#635000
1!
16
1j
0W"
1m
0n
#640000
0!
06
0j
#645000
1!
16
1j
1W"
0V"
0m
#650000
0!
06
0j
#655000
1!
16
1j
0W"
1m
1n
1o
1"!
0#!
0}
#660000
0!
06
0j
#665000
1!
16
1j
1W"
1V"
0Z"
0D"
1E"
0I"
1J"
1*!
1}
0~
0m
0o
0"!
1#!
1+!
0}
1~
#670000
0!
06
0j
#675000
1!
16
1j
0W"
1m
0n
#680000
0!
1"
06
17
1k
0j
0["
#685000
1!
16
1j
1W"
0V"
0m
#690000
0!
06
0j
#695000
1!
16
1j
0W"
1m
1n
1o
1"!
0)!
0#!
1}
0~
#700000
0!
06
0j
#705000
1!
16
1j
1W"
1V"
1Z"
0Y"
1C"
0E"
1F"
0J"
0*!
0+!
0}
0m
0o
0"!
1)!
1#!
1}
#710000
0!
06
0j
#715000
1!
16
1j
0W"
1m
0n
#720000
0!
0"
06
07
0k
0j
1["
#725000
1!
16
1j
1W"
0V"
0m
#730000
0!
06
0j
#735000
1!
16
1j
0W"
1m
1n
1o
1"!
0#!
0}
#740000
0!
06
0j
#745000
1!
16
1j
1W"
1V"
0Z"
0C"
1D"
0F"
1G"
1}
1~
1!!
0m
0o
0"!
1#!
1$!
0}
0~
0$!
#750000
0!
06
0j
#755000
1!
16
1j
0W"
1m
0n
#760000
0!
06
0j
#765000
1!
16
1j
1W"
0V"
0m
#770000
0!
06
0j
#775000
1!
16
1j
0W"
1m
1n
1o
1"!
0%!
1p
0q
1s
0{
#780000
0!
06
0j
#785000
1!
16
1j
1W"
1V"
1t
0|
0D"
1E"
0G"
1H"
1*!
0p
1l
0m
0o
0"!
1%!
0l
1m
1q
0s
1+!
0@!
1s
0m
#790000
0!
06
0j
#795000
1!
16
1j
0W"
1m
0n
#800000
0!
1"
06
17
1k
0j
0["
#805000
1!
16
1j
1W"
0V"
0m
#810000
0!
06
0j
#815000
1!
16
1j
0W"
1m
1n
1o
0)!
1l
1r
0u
1;!
1=!
1A!
1i!
1I!
0s
1>!
0m
0n
0J!
#820000
0!
06
0j
#825000
1!
16
1j
0t
0v
1?!
1B!
0K!
1j!
19
1C!
0.!
0r
1w
0;!
0=!
1,
0I!
1x
0>!
0C!
10!
#830000
0!
06
0j
#835000
1!
16
1j
0+"
1*"
02!
04!
1-!
01!
12!
14!
15!
05!
#840000
0!
0"
06
07
0k
0j
1["
0l
0q
1u
1)!
1&!
1m
#845000
1!
16
1j
1W"
1v
1'!
1+"
0*"
02!
0-!
11!
0w
1q
1y
1.!
0m
0o
00!
0x
12!
0y
#850000
0!
06
0j
#855000
1!
16
1j
0W"
1m
1n
1o
1z
0q
0#!
0%!
1}
1~
1$!
1{
0&!
#860000
0!
06
0j
#865000
1!
16
1j
1W"
1V"
1|
1Z"
1Y"
1X"
0'!
0!!
0}
0$!
0m
0o
0z
1q
0{
1#!
1$!
1%!
1}
1{
#870000
0!
06
0j
#875000
1!
16
1j
0W"
1m
0n
#880000
0!
06
0j
#885000
1!
16
1j
1W"
0V"
0m
#890000
0!
06
0j
#895000
1!
16
1j
0W"
1m
1n
1o
1"!
0#!
0}
#900000
0!
06
0j
#905000
1!
16
1j
1W"
1V"
0Z"
0E"
1F"
0H"
1I"
1@!
0*!
1}
0~
0m
0o
0"!
1#!
0+!
0}
1~
#910000
0!
06
0j
#915000
1!
16
1j
0W"
1m
0n
#920000
0!
06
0j
#925000
1!
16
1j
1W"
0V"
0m
#930000
0!
06
0j
#935000
1!
16
1j
0W"
1m
1n
1o
1"!
0#!
1}
0~
#940000
0!
06
0j
#945000
1!
16
1j
1W"
1V"
1Z"
0Y"
0F"
1G"
0I"
1J"
0}
0m
0o
0"!
1#!
1}
#950000
0!
06
0j
#955000
1!
16
1j
0W"
1m
0n
#960000
0!
06
0j
#965000
1!
16
1j
1W"
0V"
0m
#970000
0!
06
0j
#975000
1!
16
1j
0W"
1m
1n
1o
1"!
0#!
0}
#980000
0!
06
0j
#985000
1!
16
1j
1W"
1V"
0Z"
0G"
1H"
0J"
1}
1~
1!!
0m
0o
0"!
1#!
0$!
0}
0~
1$!
#990000
0!
06
0j
#995000
1!
16
1j
0W"
1m
0n
#1000000
0!
06
0j
#1005000
1!
16
1j
1W"
0V"
0m
#1010000
0!
06
0j
#1015000
1!
16
1j
0W"
1m
1n
1o
1"!
0#!
1}
1~
0$!
#1020000
0!
06
0j
#1025000
1!
16
1j
1W"
1V"
1Z"
1Y"
0X"
0H"
1I"
1p
1#!
1$!
0%!
0}
0!!
0m
0o
0"!
0p
1%!
1}
0$!
0q
0{
1&!
1q
1{
0&!
#1030000
0!
06
0j
#1035000
1!
16
1j
0W"
1m
0n
#1040000
0!
06
0j
#1045000
1!
16
1j
1W"
0V"
0m
#1050000
0!
06
0j
#1055000
1!
16
1j
0W"
1m
1n
1o
1"!
0#!
0}
#1060000
0!
06
0j
